Query,Impressions,Change,Clicks,Change,CTR,Change,Avg. position,Change
wolf of wall street speech,502,149%,136,202%,27%,5.0,5.0,1.0
wolf of wall street speech script,83,361%,60,253%,72%,-20,1.0,
wolf of wall street speech transcript,26,13%,23,10%,88%,-3.0,1.0,
the wolf of wall street speech,41,273%,22,214%,54%,-10,5.1,3.0
nick vujicic speech transcript,52,225%,21,250%,40%,3.0,3.9,0.2
wolf of wall street inspirational speech,61,39%,18,50%,30%,2.0,3.7,0.3
wolf of wall street inspirational speech script,17,∞,17,∞,100%,100,1.0,
the wolf of wall street speech script,18,100%,16,100%,89%,,1.2,0.3
the wolf of wall street inspirational speech,26,160%,11,83%,42%,-20,3.8,0.8
wolf of wall street speech text,12,200%,10,150%,83%,-20,1.0,1.0
wolf of wall street motivational speech,40,186%,9,125%,22%,-6.0,4.3,1.0
the motivation mentalist,76,-22%,8,167%,11%,7.0,1.0,0.2
wolf of wall street speeches,15,275%,8,100%,53%,-50,4.7,3.0
wolf on wall street speech,10,67%,6,100%,60%,10,4.2,3.0
motivation mentalist,151,-34%,5,67%,3%,2.0,1.0,0.3
don't ever let someone tell you you can't do something,17,112%,4,∞,24%,20,6.0,0.9
leonardo dicaprio wolf of wall street speech,7,600%,4,300%,57%,-40,4.3,2.0
leonardo dicaprio speech wolf of wall street,5,400%,4,300%,80%,-20,5.2,0.8
speech from wolf of wall street,5,∞,4,∞,80%,80,5.2,
pick up the phone and start dialing,66,312%,3,∞,5%,5.0,7.5,0.7
don't ever let somebody tell you you can't do something,41,105%,3,50%,7%,-3.0,6.0,0.5
pick up the phone and start dialing quote,10,233%,3,50%,30%,-40,5.5,-0.2
nick vujicic motivational speech,4,∞,3,∞,75%,80,19,
the wolf of wall street inspirational speech script,3,∞,3,∞,100%,100,1.0,
"loyalty is a two-way street. if i'm asking for it from you, then you're getting it from me.",43,∞,2,∞,5%,5.0,4.4,
wolf of wall street transcript,24,∞,2,∞,8%,8.0,8.5,
wolf of wallstreet speech,18,125%,2,-50%,11%,-40,5.1,2.0
wolf of wall street pick up the phone speech,12,"1,100%",2,∞,17%,20,6.6,1.0
wolf of wall street opening monologue,11,∞,2,∞,18%,20,8.4,
"""there should be no boundaries to human endeavor. however bad life may seem, while there is life, there is hope.""",8,300%,2,∞,25%,30,4.3,0.3
don't ever let somebody tell you that you can't do something,7,133%,2,∞,29%,30,5.4,0.9
wolf of wall street speach,7,75%,2,100%,29%,4.0,5.0,1.0
wolf of wall street i'm not leaving speech,6,50%,2,100%,33%,8.0,5.7,1.0
wolf of wall street monologue script,6,∞,2,∞,33%,30,9.7,
loyalty is a two way street if i'm asking it from you,4,∞,2,∞,50%,50,4.0,
don't let anyone tell you can't do something,3,200%,2,∞,67%,70,7.7,0.3
nick vujicic,16367,95%,1,∞,0%,,9.4,
sam berns quotes,34,278%,1,∞,3%,3.0,5.6,0.4
wolf of wall street motivation,15,400%,1,∞,7%,7.0,6.0,
don't ever let someone tell you pursuit happiness,14,250%,1,∞,7%,7.0,6.6,0.4
i love the kind of hugs where you can,14,56%,1,∞,7%,7.0,1.0,0.5
steve madden speech wolf of wall street,14,∞,1,∞,7%,7.0,8.1,
there are no victims in this classroom,12,∞,1,∞,8%,8.0,5.3,
the pursuit of happiness quotes don't ever let,12,"1,100%",1,∞,8%,8.0,8.5,2.0
i love the kind of hugs where you can physically feel the sadness leaving your body,9,350%,1,∞,11%,10,1.6,0.4
motivational speech wolf of wall street,9,∞,1,∞,11%,10,5.6,
wolf of wall street buy or die,8,∞,1,∞,12%,10,8.0,
don't ever let someone tell you,8,300%,1,∞,12%,10,8.1,1.0
pursuit of happiness quotes don't ever let someone,8,∞,1,∞,12%,10,7.1,
don't ever let somebody tell you,7,17%,1,,14%,-2.0,7.1,1.0
the theory of everything quotes,6,,1,,17%,,25,-7.0
wolf of wall street speech i'm not leaving,6,50%,1,,17%,-8.0,6.0,-0.5
how to tell someone you can't do something,6,∞,1,∞,17%,20,5.3,
pursuit of happiness don't ever let somebody tell you,5,25%,1,,20%,-5.0,6.6,
why do we fall video,5,150%,1,∞,20%,20,10,-1.0
don't let somebody tell you you can't do something,5,67%,1,,20%,-10,6.4,3.0
good pick up the phone and start dialing,5,-50%,1,,20%,10,5.0,0.6
speech wolf of wall street,4,33%,1,∞,25%,30,5.0,3.0
wall street motivation,4,300%,1,∞,25%,30,7.5,3.0
travelling to infinity my life with stephen quotes,4,∞,1,∞,25%,30,7.3,
don't ever let someone tell you that you can't do something,4,33%,1,,25%,-8.0,5.0,3.0
inspirational speech wolf of wall street,4,∞,1,∞,25%,30,4.5,
why do we fall transcript,4,∞,1,∞,25%,30,7.0,
don't ever let anyone tell you that you can't do something,3,,1,∞,33%,30,7.3,
the wolf of wall street motivational speech,3,∞,1,∞,33%,30,4.3,
1000 character classic,3,∞,1,∞,33%,30,8.7,
you gotta dream you gotta protect it meaning,3,50%,1,∞,33%,30,9.0,0.5
true knowledge exists in knowing that you know nothing meaning,3,200%,1,,33%,-70,3.0,1.0
wolf of wall street phone speech,3,200%,1,,33%,-70,4.7,2.0
wolf of wall street telephone speech,3,,1,-50%,33%,-30,4.7,2.0
what screws us up the most in life is the picture in our head of what it's supposed to be,2,∞,1,∞,50%,50,11,
wolf of wall street leonardo dicaprio speech,2,-50%,1,-67%,50%,-20,6.0,0.5
pick up the phone and start dialing speech,2,∞,1,∞,50%,50,3.0,
i see now that the circumstances of one's birth are irrelevant,2,,1,,50%,,14,2.0
don't ever let anybody tell you you can't do something,2,∞,1,∞,50%,50,6.5,
quotes from 9gag,1,∞,1,∞,100%,100,26,
quotes the theory of everything,1,,1,∞,100%,100,20,-4.0
wolf of wall street quotes pick up the phone and start dialing,1,,1,∞,100%,100,5.0,1.0
let me tell you something you already know. the world ain't all sunshine and rainbows,1,∞,1,∞,100%,100,16,
when people tell you you can't do something,1,∞,1,∞,100%,100,10,
wolf of wall street telephone terrorist,1,-67%,1,∞,100%,100,6.0,3.0
what screws us up most in life is the picture in our head of how it is supposed to be,1,∞,1,∞,100%,100,16,
danbo quote,1,∞,1,∞,100%,100,42,
three character classic,1,,1,∞,100%,100,19,-6.0
san zi jing,1,∞,1,∞,100%,100,19,
the wolf of wall street leonardo dicaprio speech,1,,1,,100%,,6.0,
there should be no boundary to human endeavour quote,1,,1,∞,100%,100,19,2.0
wolf of wall street quotes pick up the phone,1,∞,1,∞,100%,100,9.0,
生于忧患 死于安乐,1,∞,1,∞,100%,100,8.0,
quotes from the theory of everything,1,∞,1,∞,100%,100,21,
rocky balboa quotes,1334,105%,0,∞,0%,,1.3,0.2
rocky quotes,928,∞,0,∞,0%,,1.2,
nick vujicic wife,336,∞,0,∞,0%,,12,
snoopy quotes,302,"1,410%",0,∞,0%,,1.1,4.0
the world ain't all sunshine and rainbows,178,51%,0,∞,0%,,1.1,0.3
vujicic,158,∞,0,∞,0%,,10,
theodore roosevelt man in the arena,136,103%,0,∞,0%,,2.8,0.3
nick vujcic,117,121%,0,∞,0%,,9.5,0.6
roosevelt man in the arena,100,138%,0,∞,0%,,2.2,0.4
quotes by socrates,87,18%,0,∞,0%,,3.5,-0.1
ник вуйчич,85,∞,0,∞,0%,,10,
nik vujicic,81,125%,0,∞,0%,,10,-0.3
nick vujicic books,81,∞,0,∞,0%,,10,
nick vujicic family,70,∞,0,∞,0%,,11,
nick vujicic son,68,∞,0,∞,0%,,12,
cristiano ronaldo motivation,62,287%,0,∞,0%,,1.2,0.8
theodore roosevelt the man in the arena,60,114%,0,∞,0%,,2.4,0.4
i am not what happened to me i am what i choose to become,59,∞,0,∞,0%,,1.1,
nick vijicic,59,90%,0,∞,0%,,9.4,1.0
nicholas james vujicic,55,"2,650%",0,∞,0%,,12,30
nick vujivic,54,260%,0,∞,0%,,9.8,
nick vujici,53,18%,0,∞,0%,,9.8,-0.5
닉,51,∞,0,∞,0%,,11,
nick vujicik,48,12%,0,∞,0%,,9.4,-1.0
nick vujičić,44,"2,100%",0,∞,0%,,3.3,3.0
quotes from socrates,44,-27%,0,∞,0%,,3.0,
nicholas vujicic,43,∞,0,∞,0%,,9.1,
www.attitudeisaltitude.com,40,∞,0,∞,0%,,9.9,
nic vujicic,40,150%,0,∞,0%,,9.3,
nick vijucic,38,217%,0,∞,0%,,9.0,0.6
nick vujicic quotes,37,"3,600%",0,∞,0%,,3.9,-3.0
nick vuji,36,300%,0,∞,0%,,9.9,
pastor nick vujicic,36,∞,0,∞,0%,,8.5,
on the shoulders of giants,34,162%,0,∞,0%,,6.5,-0.3
nick vuijic,34,100%,0,∞,0%,,9.5,0.5
nicholas james,33,∞,0,∞,0%,,9.4,
mentalist quotes,33,∞,0,∞,0%,,1.1,
rocky quote life hits hard,32,∞,0,∞,0%,,4.0,
quotes of socrates,29,-40%,0,∞,0%,,3.0,0.1
theodore roosevelt quotes man in the arena,29,93%,0,∞,0%,,3.9,0.6
might is right quotes,28,"1,300%",0,∞,0%,,4.6,1.0
ronaldo motivation,28,"1,300%",0,∞,0%,,1.0,
the man in the arena theodore roosevelt,27,145%,0,∞,0%,,2.2,0.7
rocky 5 quotes,27,"1,250%",0,∞,0%,,2.6,0.4
theodore roosevelt arena,26,420%,0,∞,0%,,5.7,2.0
nick vuicic,26,73%,0,∞,0%,,10,0.4
rocky balboa motivational,26,160%,0,∞,0%,,2.0,0.7
snoopy quotes images,26,189%,0,∞,0%,,1.0,
nick vujic,26,53%,0,∞,0%,,9.9,-0.6
rocky 2 quotes,25,∞,0,∞,0%,,7.6,
motivational video rise and shine,24,∞,0,∞,0%,,37,
力克,24,∞,0,∞,0%,,8.1,
nickvujicic,23,229%,0,∞,0%,,10,0.8
snoopy you,23,-98%,0,∞,0%,,1.9,1.0
man in the arena roosevelt,23,53%,0,∞,0%,,2.5,1.0
change wave,21,200%,0,∞,0%,,7.1,2.0
wolf of wall street i'm not leaving,21,∞,0,∞,0%,,9.8,
wolf of wall street pick up the phone,21,50%,0,-100%,0%,-7.0,8.1,0.9
roosevelt the man in the arena,20,100%,0,∞,0%,,2.0,0.3
quotes from rocky balboa,20,400%,0,∞,0%,,2.4,0.4
rocky balboa speech,20,∞,0,∞,0%,,3.2,
nick vujicic book,20,∞,0,∞,0%,,11,
nick vuijicic,20,54%,0,∞,0%,,11,-2.0
i am not what happened to me,19,∞,0,∞,0%,,1.0,
nick vujicic married,17,∞,0,∞,0%,,12,
the man in the arena roosevelt,17,325%,0,∞,0%,,1.8,0.5
don't let anyone tell you you can't do something,17,55%,0,-100%,0%,-20,7.6,1.0
nick vujicic.,17,112%,0,∞,0%,,10,0.6
man in the arena theodore roosevelt,17,89%,0,∞,0%,,3.0,0.7
尼克胡哲,17,∞,0,∞,0%,,8.4,
rocky motivational quotes,17,89%,0,∞,0%,,1.0,
nick vujisic,17,"1,600%",0,∞,0%,,7.7,3.0
rocky qoutes,17,∞,0,∞,0%,,1.2,
rocky keep moving forward,17,240%,0,∞,0%,,1.8,
socrates wisdom quotes,16,"1,500%",0,∞,0%,,3.6,0.4
attitudeisaltitude.com,16,∞,0,∞,0%,,10,
닉부이치치,16,∞,0,∞,0%,,7.3,
best mentalist quotes,16,700%,0,∞,0%,,6.0,2.0
nick vujicic pictures,15,275%,0,∞,0%,,1.0,
nick vuj,15,114%,0,∞,0%,,10,-2.0
นิค วูจิซิค,15,∞,0,∞,0%,,9.0,
nick vujinic,15,25%,0,∞,0%,,9.7,1.0
nick vujicic images,15,275%,0,∞,0%,,1.0,
the world aint all sunshine and rainbows,15,200%,0,∞,0%,,1.3,-0.3
nick vujucic,15,50%,0,∞,0%,,9.1,2.0
nick vucjicic,15,87%,0,∞,0%,,8.6,-1.0
nick vu,14,∞,0,∞,0%,,9.6,
nick vuijcic,14,40%,0,∞,0%,,9.7,0.3
rocky balboa motivation,14,250%,0,∞,0%,,1.0,
the world ain't sunshine and rainbows,13,333%,0,∞,0%,,3.0,-1.0
vujicic nick,13,333%,0,∞,0%,,9.5,2.0
nick vucinic,13,"1,200%",0,∞,0%,,11,
have faith in your dreams and someday,13,∞,0,∞,0%,,5.5,
quotes rocky balboa,13,62%,0,∞,0%,,1.3,
rocky sunshine and rainbows,13,117%,0,∞,0%,,4.2,2.0
socrates quotes,13,550%,0,∞,0%,,3.0,-0.5
nick vojicic,13,333%,0,∞,0%,,10,-2.0
the world ain't no sunshine and rainbows,12,33%,0,∞,0%,,3.7,0.2
i may not be there yet but i'm closer than i was yesterday traduction,12,∞,0,∞,0%,,5.1,
nick vujicic photos,12,"1,100%",0,∞,0%,,1.0,
don't let anyone tell you you can't do something quotes,12,140%,0,∞,0%,,7.1,2.0
never let somebody tell you can't do something,12,50%,0,-100%,0%,-10,1.5,2.0
vujcic,12,∞,0,∞,0%,,10,
닉 부이치치,12,∞,0,∞,0%,,11,
nick vujacic,12,200%,0,∞,0%,,8.8,2.0
thinking you know everything,11,120%,0,∞,0%,,3.8,3.0
the world ain't all sunshine and rainbows quote,11,,0,∞,0%,,2.5,
socrates the unexamined life is not worth living,11,∞,0,∞,0%,,9.2,
vujicic wife,11,∞,0,∞,0%,,12,
nick vujick,11,83%,0,∞,0%,,8.4,1.0
napoleon hill think and grow rich quotes,11,-21%,0,∞,0%,,4.5,0.5
i am not what happened to me i am what i chose to become,11,∞,0,∞,0%,,1.1,
nick vujicic libros,10,∞,0,∞,0%,,11,
nick vujicic felesége,10,∞,0,∞,0%,,12,
about nick vujicic,10,150%,0,∞,0%,,3.4,
nick vujijic,10,150%,0,∞,0%,,7.2,4.0
"“strong minds discuss ideas, average minds discuss events, weak minds discuss people.”",10,∞,0,∞,0%,,1.5,
snoopy images with quotes,10,∞,0,∞,0%,,1.0,
socrates quotes wisdom,10,233%,0,∞,0%,,3.5,0.8
quotes rocky,10,∞,0,∞,0%,,1.0,
the world is not sunshine and rainbows,10,400%,0,∞,0%,,5.5,
rocky balboa it's not about how hard,10,∞,0,∞,0%,,8.5,
rocky the world ain't all sunshine,10,67%,0,∞,0%,,1.3,1.0
esposa de nick vujicic,10,∞,0,∞,0%,,12,
livros de nick vujicic,10,∞,0,∞,0%,,11,
nick vujicic child,10,∞,0,∞,0%,,12,
mewtwo quote i see now,10,∞,0,∞,0%,,6.1,
life is not worth living,9,-80%,0,∞,0%,,2.6,0.5
it's not all sunshine and rainbows,9,800%,0,∞,0%,,7.7,-0.7
nick vujicici,9,200%,0,∞,0%,,11,-4.0
nick vujicic parents,9,∞,0,∞,0%,,9.9,
i like snoopy immagini,9,∞,0,∞,0%,,1.0,
the true test of a man's character,9,-25%,0,∞,0%,,5.3,4.0
charlie chaplin motivational,9,∞,0,∞,0%,,4.4,
cristiano ronaldo motivational,9,800%,0,∞,0%,,1.0,
theodore roosevelt the arena,9,350%,0,∞,0%,,3.1,0.9
spend a little more time trying to make something of yourself and a little less time trying to impress people,9,800%,0,∞,0%,,3.0,2.0
rocky balboa quotes it's not about how hard you hit,9,200%,0,∞,0%,,4.6,
images of nick vujicic,9,125%,0,∞,0%,,1.0,
snoopy i love you images,9,200%,0,∞,0%,,1.0,
have faith in your dreams and someday your rainbow will come smiling through,9,800%,0,∞,0%,,5.6,2.0
nick vijici,9,125%,0,∞,0%,,11,-7.0
spend a little more time trying to make something of yourself,9,-25%,0,∞,0%,,2.9,-1.0
nick vujicic quotes on love,9,350%,0,∞,0%,,1.0,
nick juvicic,9,200%,0,∞,0%,,9.0,0.7
nick vujicic żona,9,∞,0,∞,0%,,16,
quotes by rocky balboa,9,125%,0,∞,0%,,1.5,2.0
力克胡哲,9,∞,0,∞,0%,,11,
pick up the phone wolf of wall street,8,300%,0,∞,0%,,8.0,
nick vujicic speech,8,700%,0,-100%,0%,-100,18,2.0
力克·胡哲,8,∞,0,∞,0%,,8.5,
life ain't all sunshine and rainbows rocky,8,-11%,0,∞,0%,,1.8,-0.2
kalidas quotes,8,∞,0,∞,0%,,3.0,
who is nick vujicic,8,∞,0,∞,0%,,9.8,
www.lifewithoutlimbs.org,8,∞,0,∞,0%,,10,
lifewithoutlimbs.org,8,∞,0,∞,0%,,6.5,
quotes about socrates,8,60%,0,∞,0%,,3.3,1.0
you ought to spend a little less time,8,700%,0,∞,0%,,5.8,-0.7
nick vujicic esposa,8,∞,0,∞,0%,,12,
rocky balboa motivational quotes,8,∞,0,∞,0%,,1.0,
ник вуйнич,8,∞,0,∞,0%,,14,
pictures of nick vujicic,8,167%,0,∞,0%,,1.0,
wisdom socrates,8,700%,0,∞,0%,,7.5,-0.5
life ain't all sunshine and rainbows,8,∞,0,∞,0%,,3.3,
the true test of a man's character is what he does when no one is watching,8,700%,0,∞,0%,,3.0,1.0
nick vujičič,8,700%,0,∞,0%,,11,
socrates best quotes,8,167%,0,∞,0%,,3.4,0.6
"nick vujicic,",7,,0,∞,0%,,11,-1.0
you want something go get it period quote,7,∞,0,∞,0%,,8.0,
roosevelt in the arena,7,133%,0,∞,0%,,3.9,-0.2
steve jobs socrates,7,600%,0,∞,0%,,1.4,2.0
the world aint sunshine and rainbows,7,∞,0,∞,0%,,2.5,
theodore roosevelt quotes arena,7,250%,0,∞,0%,,2.9,0.1
fotos de nick vujicic,7,17%,0,∞,0%,,1.0,
rocky balboa motivational speech text,7,75%,0,∞,0%,,5.9,0.9
nick vujicic livro,7,∞,0,∞,0%,,11,
libros de nick vujicic,7,∞,0,∞,0%,,11,
nick vujicick,7,40%,0,∞,0%,,9.7,-5.0
roosevelt quotes man in the arena,7,133%,0,∞,0%,,3.4,2.0
nick vujicic libro,7,∞,0,∞,0%,,11,
9gag motivation,7,600%,0,∞,0%,,9.4,0.6
life is not all sunshine and rainbows,7,250%,0,∞,0%,,3.4,0.6
the arena roosevelt,7,250%,0,∞,0%,,3.0,0.5
how old is nick vujicic,7,∞,0,∞,0%,,1.0,
nıck vujıcıc,7,600%,0,∞,0%,,9.3,2.0
livro de nick vujicic,7,∞,0,∞,0%,,11,
hard work trumps talent quote,7,∞,0,∞,0%,,4.6,
some people are so poor all they have is money,7,600%,0,∞,0%,,1.0,
motivational quotes rocky,7,600%,0,∞,0%,,1.0,
balboa quotes,7,∞,0,∞,0%,,2.7,
nick vucicic,7,250%,0,∞,0%,,7.0,4.0
nick vuljicic,7,600%,0,∞,0%,,9.7,1.0
i'm not leaving wolf of wall street,7,∞,0,∞,0%,,9.9,
when everything goes wrong and things seem to fall apart,6,500%,0,-100%,0%,-100,1.7,9.0
nick vujicic:,6,500%,0,∞,0%,,11,
motivational speaker nick vujicic,6,∞,0,∞,0%,,6.0,
nick vujicic kid,6,∞,0,∞,0%,,12,
pursuit of happyness don't ever let somebody,6,∞,0,∞,0%,,7.0,
is nick vujicic married,6,∞,0,∞,0%,,12,
nick vujicic carti,6,∞,0,∞,0%,,6.5,
nick vukicic,6,500%,0,∞,0%,,9.7,-8.0
it a lie to think you are not good enough,6,500%,0,∞,0%,,6.0,1.0
vick vujicic,6,100%,0,∞,0%,,9.7,-4.0
motivation 9gag,6,∞,0,∞,0%,,9.0,
livro nick vujicic,6,∞,0,∞,0%,,11,
socrates quote on wisdom,6,∞,0,∞,0%,,4.3,
nick vuijici,6,500%,0,∞,0%,,11,1.0
all sunshine and rainbows,6,∞,0,∞,0%,,2.8,
newton shoulder of giant,6,∞,0,∞,0%,,8.5,
life ain't no sunshine and rainbows,6,200%,0,∞,0%,,5.0,-0.5
the pursuit of happiness don't ever let somebody,6,500%,0,∞,0%,,5.0,1.0
rocky vi quotes,6,50%,0,∞,0%,,5.7,1.0
wolf of wall street steve madden quote,6,∞,0,∞,0%,,10,
don't ever let anyone tell you you can't do something,6,,0,∞,0%,,7.0,0.8
nicki vujicic,6,100%,0,∞,0%,,11,
are the ones who do,6,500%,0,∞,0%,,6.8,1.0
nich vujicic,6,500%,0,∞,0%,,9.8,1.0
livros nick vujicic,6,∞,0,∞,0%,,11,
the unexamined life is not worth living socrates,6,200%,0,∞,0%,,7.8,0.2
motivational quotes images,6,∞,0,∞,0%,,45,
happiness is anyone and anything that's loved by you,6,∞,0,∞,0%,,6.0,
rocky balboa qoutes,6,50%,0,∞,0%,,1.0,
quien es nick vujicic,6,∞,0,∞,0%,,11,
motivational quotes on communication,6,100%,0,∞,0%,,3.2,2.0
socrates quotes on love,6,500%,0,∞,0%,,2.5,-0.5
nik vujcic,6,50%,0,∞,0%,,6.2,5.0
nick wujicic,5,400%,0,∞,0%,,11,-10
stephen hawking human endeavor,5,∞,0,∞,0%,,9.6,
motivational quotes from rocky,5,∞,0,∞,0%,,1.0,
socrates quote,5,,0,∞,0%,,3.0,0.2
steve jobs your work is going to fill,5,150%,0,∞,0%,,2.0,
nick vujicic motivational speaker,5,∞,0,∞,0%,,11,
nik vujacic,5,400%,0,∞,0%,,11,10
pics of nick vujicic,5,400%,0,∞,0%,,1.0,
if i have seen further quote,5,67%,0,∞,0%,,7.8,2.0
nick vujicic livros,5,∞,0,∞,0%,,11,
libro de nick vujicic,5,∞,0,∞,0%,,11,
nick vujicic age,5,∞,0,∞,0%,,3.0,
theodore roosevelt in the arena,5,150%,0,∞,0%,,4.0,
nick vujicic siblings,5,∞,0,∞,0%,,11,
nick-vujicic,5,150%,0,∞,0%,,11,
sam berns philosophy for a happy life,5,400%,0,∞,0%,,7.4,0.6
true test of a man's character quotes,5,∞,0,∞,0%,,5.4,
rocky keep moving forward quote,5,∞,0,∞,0%,,2.6,
rocky 5 quote,5,∞,0,∞,0%,,2.7,
pursuit of happiness quotes don't let anybody,5,∞,0,∞,0%,,8.0,
wolf of wallstreet motivation,5,∞,0,∞,0%,,5.6,
imagenes de nick vujicic,5,∞,0,∞,0%,,1.0,
rocky quote it's about how hard you hit,5,400%,0,∞,0%,,6.2,2.0
rocky balboa keep moving forward,5,67%,0,∞,0%,,1.2,0.5
charlie chaplin motivation,5,∞,0,∞,0%,,4.6,
best socrates quotes,5,25%,0,∞,0%,,6.2,0.6
the world ain't all sunshine and rainbows rocky,5,25%,0,∞,0%,,1.0,
information about nick vujicic,5,∞,0,∞,0%,,9.0,
socrates quotes about life,5,400%,0,∞,0%,,4.8,4.0
"""on the shoulders of giants""",5,∞,0,∞,0%,,9.4,
james vujicic,5,∞,0,∞,0%,,19,
nicka vujicica,5,∞,0,∞,0%,,11,
вуйчич,5,∞,0,∞,0%,,11,
the only way to be truly satisfied steve jobs,5,400%,0,∞,0%,,3.2,-1.0
socrates quotes love,5,∞,0,∞,0%,,2.4,
rocky life ain't all sunshine rainbows,5,-17%,0,∞,0%,,1.8,0.2
nicka vujicic,5,∞,0,∞,0%,,11,
nick vujicic's wife,5,∞,0,∞,0%,,12,
steve jobs the only way to be truly satisfied,5,400%,0,∞,0%,,2.8,-0.8
snoopy motivation,4,-33%,0,∞,0%,,8.5,-1.0
let someone have it,4,300%,0,∞,0%,,9.0,
when did nick vujicic get married,4,∞,0,∞,0%,,1.0,
"i am not what happened to me, i am what i choose to become",4,∞,0,∞,0%,,1.0,
the wolf of wall street motivation,4,33%,0,∞,0%,,6.3,2.0
world ain't all sunshine and rainbows,4,,0,∞,0%,,1.8,-0.5
nik vujičić,4,∞,0,∞,0%,,11,
nick vujicic book list,4,∞,0,∞,0%,,11,
don't let anyone tell you you can't do it,4,∞,0,∞,0%,,8.0,
nick vujicic niño,4,∞,0,∞,0%,,12,
now if you know what you're worth rocky,4,∞,0,∞,0%,,7.3,
wolf of wall street pick up the phone and start dialing,4,-20%,0,∞,0%,,7.3,0.6
vujivic,4,∞,0,∞,0%,,6.0,
socrates the unexamined life quote,4,∞,0,∞,0%,,8.0,
rocky get hit and keep moving forward,4,300%,0,∞,0%,,7.0,-1.0
nick vijcic,4,300%,0,∞,0%,,9.0,2.0
quotes about giants,4,∞,0,∞,0%,,5.0,
man in arena roosevelt,4,∞,0,∞,0%,,3.3,
rocky motivational speech,4,∞,0,∞,0%,,4.0,
when i'm sad i stop being sad and be awesome instead traduction,4,,0,∞,0%,,2.5,3.0
nicj vujicic,4,300%,0,∞,0%,,1.5,10
nick wujcic,4,300%,0,∞,0%,,11,
wolf wall street speech,4,300%,0,∞,0%,,5.3,3.0
nick vujicic born,4,∞,0,∞,0%,,1.0,
nick vujicic filho,4,∞,0,∞,0%,,12,
buy or die wolf of wall street,4,∞,0,∞,0%,,8.5,
the world is no sunshine and rainbows,4,300%,0,∞,0%,,6.7,0.3
wolf of wall street not leaving,4,∞,0,∞,0%,,10,
nick vujicic's son,4,∞,0,∞,0%,,12,
hijo de nick vujicic,4,∞,0,∞,0%,,12,
mewtwo speech,4,∞,0,∞,0%,,4.0,
mewtwo it is not the circumstances,4,300%,0,∞,0%,,6.5,0.5
nik vuicic,4,∞,0,∞,0%,,11,
books written by nick vujicic,4,∞,0,∞,0%,,11,
hawking leave,4,∞,0,∞,0%,,43,
rocky balboa inspirational speech,4,∞,0,∞,0%,,3.0,
libros nick vujicic,4,∞,0,∞,0%,,11,
nick vujicic facts,4,∞,0,∞,0%,,8.5,
motivational speech rocky balboa,4,300%,0,∞,0%,,3.7,0.3
books by nick vujicic,4,∞,0,∞,0%,,11,
rocky life is not all sunshine and rainbows,4,-33%,0,∞,0%,,2.0,0.3
i am not what happened to me. i am what i choose to become,4,∞,0,∞,0%,,1.0,
everlet,4,300%,0,∞,0%,,8.8,0.3
rocky balboa life,4,300%,0,∞,0%,,6.3,2.0
nick vjicic,4,100%,0,∞,0%,,6.3,5.0
motivational one line quotes,4,∞,0,∞,0%,,4.8,
man in the arena by theodore roosevelt,4,-20%,0,∞,0%,,2.3,0.8
nick vujicic livre,4,∞,0,∞,0%,,11,
vuicic,4,∞,0,∞,0%,,11,
尼克·胡哲,4,∞,0,∞,0%,,11,
motivation desire,4,300%,0,∞,0%,,2.0,
shoulders of giants quotes,4,∞,0,∞,0%,,8.5,
wolf of wall street leaving speech,4,300%,0,∞,0%,,6.0,
nick vujicic information,4,300%,0,∞,0%,,11,
change mindset quotes,4,300%,0,∞,0%,,2.8,0.3
nick vugicic,4,100%,0,∞,0%,,8.8,2.0
don't ever let somebody tell you pursuit happiness,4,∞,0,∞,0%,,8.0,
nick vuijick,4,300%,0,∞,0%,,8.5,3.0
in the arena roosevelt,4,∞,0,∞,0%,,4.3,
for the past 33 years i have looked in the mirror,4,∞,0,∞,0%,,7.3,
no one wants to die steve jobs,4,300%,0,∞,0%,,3.8,1.0
life hits hard quotes,4,∞,0,∞,0%,,1.5,
snoopy i love you this much,4,∞,0,∞,0%,,1.0,
great socrates quotes,4,∞,0,∞,0%,,3.5,
trying hard now,4,100%,0,∞,0%,,13,-3.0
cristiano ronaldo motivational quotes,4,∞,0,∞,0%,,1.0,
socrates quotes on god,4,∞,0,∞,0%,,2.8,
quotes theodore roosevelt man in the arena,4,∞,0,∞,0%,,3.5,
you ought to spend a little more time,4,∞,0,∞,0%,,8.0,
life is not sunshine and rainbows,4,∞,0,∞,0%,,6.3,
isaac newton motivation,4,300%,0,∞,0%,,1.0,1.0
it ain't all sunshine and rainbows,4,100%,0,∞,0%,,1.5,1.0
mindset change quotes,4,∞,0,∞,0%,,3.0,
rocky balboa sunshine and rainbows,4,33%,0,∞,0%,,4.8,1.0
nick vujicic's parents,4,∞,0,∞,0%,,11,
nick vijuvic,4,∞,0,∞,0%,,8.8,
nick_vujicic,4,∞,0,∞,0%,,11,
world ain't no sunshine and rainbows,4,100%,0,∞,0%,,1.8,-0.2
nick vujiviv,4,-20%,0,∞,0%,,9.0,2.0
nicky vujicic,4,∞,0,∞,0%,,6.0,
nic vujcic,4,∞,0,∞,0%,,21,
facts about nick vujicic,4,∞,0,∞,0%,,11,
quotes of rocky balboa,3,∞,0,∞,0%,,1.0,
nick vuljic,3,∞,0,∞,0%,,8.0,
nick vujicic spouse,3,∞,0,∞,0%,,12,
promittere,3,50%,0,∞,0%,,8.3,-1.0
nick vujicic job,3,200%,0,∞,0%,,11,
socrates quotes on life,3,∞,0,∞,0%,,3.0,
nick vui,3,∞,0,∞,0%,,11,
niko vujicic,3,200%,0,∞,0%,,7.7,3.0
nick vujicc,3,50%,0,∞,0%,,4.3,7.0
nick vulicic,3,∞,0,∞,0%,,11,
rocky balboa quote,3,200%,0,∞,0%,,1.0,1.0
think and grow rich quotes,3,∞,0,∞,0%,,42,
尼克 胡哲,3,∞,0,∞,0%,,8.3,
when was nick vujicic born,3,∞,0,∞,0%,,1.0,
nick vujcici,3,∞,0,∞,0%,,8.0,
life is no sunshine and rainbows,3,200%,0,∞,0%,,5.3,3.0
napoleon hill quotes think and grow rich,3,,0,∞,0%,,7.7,-0.7
the world is not all sunshine and rainbows rocky,3,200%,0,∞,0%,,7.3,-1.0
never let someone tell you can't do something,3,∞,0,∞,0%,,6.7,
nick vujicic never give up in life,3,,0,∞,0%,,4.0,
why do we fall,3,∞,0,∞,0%,,44,
i love you this much snoopy,3,∞,0,∞,0%,,1.0,
nick fujicic,3,-25%,0,∞,0%,,8.0,3.0
snoopy quotes love,3,∞,0,∞,0%,,1.0,
nick vujicio,3,200%,0,∞,0%,,5.0,-4.0
roosevelt speech man in the arena,3,∞,0,∞,0%,,5.3,
who is nick vujicic's wife,3,∞,0,∞,0%,,12,
wolf on wall street motivational speech,3,200%,0,-100%,0%,-100,4.0,2.0
nick vojcick,3,200%,0,∞,0%,,11,
nick vujicic e seu filho,3,∞,0,∞,0%,,12,
nick vujiicic,3,-25%,0,∞,0%,,8.0,0.8
rocky no matter how hard you get hit,3,∞,0,∞,0%,,3.0,
overcoming hopelessness quotes,3,200%,0,∞,0%,,4.0,2.0
vujinic,3,∞,0,∞,0%,,7.7,
steve jobs motivation theory,3,∞,0,∞,0%,,6.7,
rocky balboa quote it's not how hard,3,∞,0,∞,0%,,6.5,
quotes nick vujicic,3,∞,0,∞,0%,,8.3,
it's not how hard you hit quote rocky balboa,3,∞,0,∞,0%,,5.0,
nicholas james vujicic quotes,3,200%,0,∞,0%,,2.5,8.0
mentalist frittering,3,,0,∞,0%,,6.0,-0.3
stephen hawking motivation,3,∞,0,∞,0%,,10,
rocky quote the world ain't all sunshine,3,200%,0,∞,0%,,1.7,0.3
nickvujic,3,∞,0,∞,0%,,7.7,
vijucic,3,∞,0,∞,0%,,11,
rich mind rich man,3,50%,0,∞,0%,,3.3,4.0
powerful positive quotes,3,∞,0,∞,0%,,1.0,
book nick vujicic,3,∞,0,∞,0%,,11,
life ain't sunshine and rainbows,3,200%,0,∞,0%,,1.0,2.0
snoopy quotes and pictures,3,200%,0,∞,0%,,1.0,
nick vujcik,3,50%,0,∞,0%,,11,
barney when i'm sad,3,200%,0,∞,0%,,1.0,
rocky quote keep moving forward,3,∞,0,∞,0%,,1.0,
sam berns marching band,3,∞,0,∞,0%,,5.3,
rocky quote it's not how hard you hit,3,∞,0,∞,0%,,5.7,
world ain't sunshine and rainbows,3,,0,∞,0%,,1.0,
nick vucijic,3,-25%,0,∞,0%,,7.7,3.0
life hits hard rocky balboa,3,∞,0,∞,0%,,6.0,
don't let anyone tell you what you can't do,3,∞,0,∞,0%,,5.7,
nick vuiji,3,∞,0,∞,0%,,7.7,
socrates love quote,3,200%,0,∞,0%,,2.0,
dr seuss those who mind quote,3,∞,0,∞,0%,,2.0,
"""true knowledge exists in knowing that you know nothing. """,3,50%,0,∞,0%,,23,10
socrates unexamined life quote,3,∞,0,∞,0%,,9.0,
theodore roosevelt the man in the arena speech,3,∞,0,∞,0%,,10,
change your mindset quotes,3,50%,0,∞,0%,,2.0,
theodore roosevelt man in the arena speech,3,200%,0,∞,0%,,8.3,0.7
nick vujicic mother,3,∞,0,∞,0%,,12,
the world ain't sunshine and rainbows quote,3,∞,0,∞,0%,,2.3,
biografia de nick vujicic,3,∞,0,∞,0%,,1.0,
nick vujicic mother and father,3,∞,0,∞,0%,,11,
rocky quotes it's not about how hard,3,200%,0,∞,0%,,8.7,0.3
nick voicic,3,∞,0,∞,0%,,5.0,
pastor nick,3,∞,0,∞,0%,,11,
wolf of wall street dial the phone,3,∞,0,∞,0%,,8.3,
nick viujic,3,∞,0,∞,0%,,11,
the world ain't all sunshine,3,-40%,0,∞,0%,,1.0,
change quotes,3,∞,0,∞,0%,,3.0,
tr man in the arena,3,50%,0,∞,0%,,3.7,0.3
don't let someone tell you you can't,3,∞,0,∞,0%,,8.0,
quotes socrates,3,-81%,0,∞,0%,,3.3,
it's not always sunshine and rainbows,3,∞,0,∞,0%,,6.5,
rocky balboa winning speech,3,∞,0,∞,0%,,6.7,
snoopy love pics,3,∞,0,∞,0%,,1.0,
picture of nick vujicic,3,∞,0,∞,0%,,1.0,
mewtwo i see now that the circumstances of one's birth,3,∞,0,∞,0%,,9.7,
pelicula de nick vujicic,3,∞,0,∞,0%,,12,
wolf of wall street im not leaving,3,∞,0,∞,0%,,10,
leonardo dicaprio speech transcript,3,∞,0,∞,0%,,10,
teddy roosevelt man in the arena,3,200%,0,∞,0%,,2.0,1.0
keep moving forward rocky,3,∞,0,∞,0%,,1.0,
best quotes from socrates,3,∞,0,∞,0%,,4.7,
socrates life quotes,3,∞,0,∞,0%,,3.0,
nick fujicik,3,∞,0,∞,0%,,11,
wolf of wall street motivational,3,∞,0,∞,0%,,6.0,
nick vujicic movie,3,∞,0,∞,0%,,11,
ник войчич,3,∞,0,∞,0%,,11,
when i feel sad i stop and be awesome,3,50%,0,∞,0%,,1.3,3.0
rocky balboa quotes how hard you hit,3,50%,0,∞,0%,,1.0,4.0
isaac newton shoulders of giants,3,∞,0,∞,0%,,6.7,
theodore roosevelt quotes the man in the arena,3,,0,∞,0%,,3.0,1.0
alibaba jack ma quotes,3,∞,0,∞,0%,,1.0,
where is nick vujicic from,3,∞,0,∞,0%,,1.0,
overcoming hopelessness | nick vujicic | tedxnovisad,3,∞,0,∞,0%,,5.0,
wolf of wall street i ain't leaving,3,∞,0,∞,0%,,7.7,
isaac newton if i have seen further,3,∞,0,∞,0%,,15,
nickiem vujicicem,3,∞,0,∞,0%,,11,
wolf of wall street quotes,3,200%,0,∞,0%,,39,-5.0
qoutes of socrates,3,∞,0,∞,0%,,4.0,
average minds discuss events meaning,2,∞,0,∞,0%,,6.0,
nick vujiciv,2,∞,0,∞,0%,,11,
can nick vujicic have children,2,∞,0,∞,0%,,12,
rocky balboa quotes images,2,∞,0,∞,0%,,1.0,
nick vujicic quotes life,2,-60%,0,∞,0%,,3.0,-1.0
tell someone to do something,2,,0,∞,0%,,7.0,2.0
quotes by socrates about life,2,∞,0,∞,0%,,3.5,
nick vujicic ślub,2,∞,0,∞,0%,,1.0,
nick bujicic,2,,0,∞,0%,,11,
isaac newton quotes giants,2,-33%,0,∞,0%,,7.5,0.8
the true test of a man’s character is what he does when no one is watching,2,100%,0,∞,0%,,3.0,1.0
donald trump motivational speech,2,∞,0,∞,0%,,6.0,
nicholas james nick vujicic,2,∞,0,∞,0%,,11,
leonardo dicaprio im not fucking leaving,2,100%,0,∞,0%,,4.5,5.0
nick vujicuc,2,∞,0,∞,0%,,6.0,
spend a little more time trying to make something of yourself and a little less time trying to impress people.,2,∞,0,∞,0%,,3.0,
rockey quotes,2,∞,0,∞,0%,,1.0,
life ain't all about sunshine and rainbows,2,100%,0,∞,0%,,1.0,
spend a little less time trying to impress,2,∞,0,∞,0%,,5.0,
cristiano motivation,2,∞,0,∞,0%,,1.0,
부이치치,2,∞,0,∞,0%,,6.0,
keep moving forward rocky balboa,2,∞,0,∞,0%,,1.0,
for the past 33 years i have looked in the mirror every morning,2,∞,0,∞,0%,,6.0,
quien es nick,2,∞,0,∞,0%,,11,
pursuit of happiness don't ever let someone,2,∞,0,∞,0%,,7.0,
there should be no boundaries to human endeavor quote,2,100%,0,∞,0%,,18,-7.0
people can't do something themselves,2,∞,0,∞,0%,,2.0,
pickup fuck full,2,∞,0,∞,0%,,29,
sam berns quote,2,-60%,0,-100%,0%,-20,5.0,1.0
nick vijucik,2,∞,0,∞,0%,,11,
sam berns happy life,2,100%,0,∞,0%,,3.5,4.0
nick vijic,2,-50%,0,∞,0%,,6.0,3.0
how to stop looking sad,2,∞,0,∞,0%,,5.0,
san zi jing simplified chinese,2,∞,0,∞,0%,,11,
nick vujicic picture,2,∞,0,∞,0%,,1.0,
when i'm sad i stop being sad and be awesome instead,2,-60%,0,∞,0%,,9.0,-5.0
nick vujvic,2,∞,0,∞,0%,,1.0,
theodore roosevelt arena speech,2,∞,0,∞,0%,,4.0,
nick vujicic date of birth,2,∞,0,∞,0%,,1.0,
nick vujicic family members,2,∞,0,∞,0%,,11,
wolf of wall street start dialing,2,∞,0,∞,0%,,9.5,
don't ever let somebody tell you you can't do something quote,2,-71%,0,∞,0%,,5.0,2.0
nick vujicic wife name,2,∞,0,∞,0%,,12,
napoleon hill think and grow rich pdf,2,∞,0,∞,0%,,52,
wolf of wall street pick up the phone quote,2,∞,0,∞,0%,,9.0,
shoulder of giants quote,2,∞,0,∞,0%,,7.5,
nick vujicic father,2,∞,0,∞,0%,,12,
don't ever let somebody tell you you can't,2,-80%,0,-100%,0%,-10,5.5,3.0
i see now that the circumstances of one's birth are irrelevant gandhi,2,∞,0,∞,0%,,2.0,
napoleon hill what the mind of man,2,∞,0,∞,0%,,5.0,
nick vujicie,2,,0,∞,0%,,11,-4.0
socrates knowledge quote,2,100%,0,∞,0%,,9.0,2.0
socrates i know nothing,2,∞,0,∞,0%,,36,
isaac newton shoulders of giants quote,2,∞,0,∞,0%,,6.0,
nick vujicic children,2,∞,0,∞,0%,,12,
your rainbow will come smiling through,2,∞,0,∞,0%,,9.5,
leonardo dicaprio wolf of wall street quote,2,∞,0,∞,0%,,10,
steve jobs the only way to do,2,∞,0,∞,0%,,3.0,
motivational 9gag,2,,0,-100%,0%,-50,5.0,1.0
rocky saying,2,100%,0,∞,0%,,6.5,3.0
nick vuij,2,∞,0,∞,0%,,11,
keep it up rocky 5,2,∞,0,∞,0%,,5.0,
life is not all rainbows and sunshine,2,100%,0,∞,0%,,5.5,-1.0
dangerous minds quotes,2,∞,0,∞,0%,,30,
quotes from rocky,2,∞,0,∞,0%,,2.0,
nick vijicik,2,∞,0,∞,0%,,6.0,
nick el predicador,2,∞,0,∞,0%,,11,
henry david thoreau simplicity,2,∞,0,∞,0%,,17,
this world ain't all sunshine and rainbows,2,∞,0,∞,0%,,1.0,
nick vujicic kimdir,2,∞,0,∞,0%,,11,
nick vjucic,2,100%,0,∞,0%,,11,
nick vujicic worth,2,100%,0,∞,0%,,6.0,-3.0
rocky balboa poem,2,∞,0,∞,0%,,4.0,
historia de nick vujicic,2,∞,0,∞,0%,,1.0,
pick up the phone and start dialing wolf of wall street,2,∞,0,∞,0%,,8.0,
rocky quots,2,∞,0,∞,0%,,1.0,
nick vojcic,2,-50%,0,∞,0%,,6.0,5.0
rocky balboa it's not about how hard you can get hit,2,∞,0,∞,0%,,1.0,
"some people are so poor, all they have is money",2,100%,0,∞,0%,,1.0,
motivation quotes images,2,∞,0,∞,0%,,44,
rocky qotes,2,∞,0,∞,0%,,1.5,
don't let anyone tell you that you can't do something,2,∞,0,∞,0%,,6.5,
love quotes socrates,2,100%,0,∞,0%,,2.0,5.0
frittering mentalist,2,,0,∞,0%,,5.0,1.0
the world aint all sunshine,2,,0,∞,0%,,1.0,
dangerous minds script,2,∞,0,∞,0%,,9.5,
socrates an unexamined life quote,2,∞,0,∞,0%,,10,
nick vujecic,2,∞,0,∞,0%,,11,
giants quote,2,∞,0,∞,0%,,8.5,
pursuit of happiness don't let anyone,2,∞,0,∞,0%,,8.0,
it is what you do with the gift of life that determines who you are,2,∞,0,∞,0%,,8.5,
a true test of a man's character,2,∞,0,∞,0%,,4.0,
alone we can do so little meaning,2,∞,0,∞,0%,,4.0,
c ronaldo motivation,2,100%,0,∞,0%,,1.0,3.0
nick jucivic,2,100%,0,∞,0%,,11,
nick vujicic imagenes,2,100%,0,∞,0%,,1.0,
pursuit of happiness quote don't ever let,2,∞,0,∞,0%,,7.0,
vujici,2,∞,0,∞,0%,,11,
rocky balboa saying,2,-67%,0,∞,0%,,3.0,2.0
when i get sad i stop being sad and be awesome instead traduction,2,-71%,0,∞,0%,,1.0,0.7
nick vujisik,2,∞,0,∞,0%,,11,
nick vujicic bog,2,∞,0,∞,0%,,11,
newton giants,2,∞,0,∞,0%,,9.5,
نیک ویجیک,2,∞,0,∞,0%,,6.0,
the theory of everything tumblr quotes,2,∞,0,∞,0%,,8.0,
life is not rainbows and sunshine,2,100%,0,∞,0%,,6.0,
socrates words of wisdom,2,∞,0,∞,0%,,6.5,
rocky speech,2,∞,0,∞,0%,,5.0,
quote from socrates,2,100%,0,∞,0%,,3.0,
mewtwo quote life,2,∞,0,∞,0%,,3.0,
quotes of nick vujicic,2,∞,0,∞,0%,,2.0,
don't let somebody tell you that you can't do something,2,100%,0,∞,0%,,7.0,1.0
rocky 6 quotes,2,∞,0,∞,0%,,2.0,
never give up quotes by nick vujicic,2,∞,0,∞,0%,,9.0,
nick vujicic speech text,2,∞,0,∞,0%,,10,
ניק וויצ'יץ,2,∞,0,∞,0%,,11,
nick vujidic,2,∞,0,∞,0%,,11,
nick fujivic,2,-50%,0,∞,0%,,6.5,-5.0
nick vujicic son name,2,∞,0,∞,0%,,12,
snoopy qoutes,2,∞,0,∞,0%,,1.0,
nick vujicic knihy,2,∞,0,∞,0%,,12,
i am the master of my fate i am the captain of my soul traduction,2,∞,0,∞,0%,,6.0,
wisdom of ages,2,∞,0,∞,0%,,8.5,
sách của nick vujicic,2,∞,0,∞,0%,,12,
great minds talk about ideas socrates,2,100%,0,∞,0%,,3.5,0.5
nick vijick,2,-33%,0,∞,0%,,11,-3.0
rocky it ain't about how hard you hit speech,2,∞,0,∞,0%,,7.0,
carl jung i am not what,2,∞,0,∞,0%,,6.0,
nick yujicic,2,100%,0,∞,0%,,11,
rocky quotes sunshine and rainbows,2,∞,0,∞,0%,,7.0,
rocky balboa winning quote,2,100%,0,∞,0%,,5.5,0.5
philosophy towards life,2,∞,0,∞,0%,,7.0,
nick vujicic image,2,∞,0,∞,0%,,1.0,
socrates quotes god,2,,0,∞,0%,,2.5,0.5
nick vujicic﻿,2,100%,0,∞,0%,,16,-5.0
nick vujik,2,,0,∞,0%,,11,-5.0
pelicula de nick,2,∞,0,∞,0%,,12,
胡哲,2,∞,0,∞,0%,,11,
nick vujicis,2,∞,0,∞,0%,,7.0,
nick.vujicic,2,-33%,0,∞,0%,,6.0,2.0
wolf of wall street i'm not fucking leaving,2,∞,0,∞,0%,,9.5,
ника вуйчича,2,∞,0,∞,0%,,11,
quotes by nick vujicic,2,∞,0,∞,0%,,10,
力克.胡哲,2,∞,0,∞,0%,,6.0,
foto nick vujicic,2,,0,∞,0%,,1.0,
rocky quptes,2,∞,0,∞,0%,,1.0,
is this what you want don't tell anybody ever video,2,100%,0,∞,0%,,4.5,-1.0
all sunshine names,2,∞,0,∞,0%,,4.0,
nick vujicic brothers and sisters,2,∞,0,∞,0%,,11,
rocky balboa quotes about life,2,∞,0,∞,0%,,1.0,
motivational quotes rocky balboa,2,∞,0,∞,0%,,1.0,
con trai nick vujicic,2,∞,0,∞,0%,,12,
tell someone not to do something,2,∞,0,∞,0%,,5.0,
istri nick vujicic,2,∞,0,∞,0%,,12,
the world is not all sunshine and rainbows,2,100%,0,∞,0%,,7.0,
snoopy quotes about love,2,∞,0,∞,0%,,1.0,
i asked life for a penny poem,2,∞,0,∞,0%,,4.0,
motivational quotes pics,2,∞,0,∞,0%,,1.0,
don't let anybody tell you you can't do something,2,100%,0,∞,0%,,6.5,2.0
nick vijuic,2,,0,∞,0%,,6.0,-4.0
ick vujicic,2,100%,0,∞,0%,,11,
nick wojcic,2,∞,0,∞,0%,,11,
the wolf of wall street i'm not leaving,2,∞,0,∞,0%,,10,
best rocky balboa quotes,2,,0,∞,0%,,3.5,2.0
nick vajicic,2,100%,0,∞,0%,,6.0,5.0
rocky motivation,2,∞,0,∞,0%,,40,
loyalty is a two way street if im asking it from you,2,∞,0,∞,0%,,8.0,
rocky 6 motivational speech,2,∞,0,∞,0%,,3.0,
the wolf of wall street quotes,2,∞,0,∞,0%,,46,
i may not be there yet but i'm closer than i was yesterday übersetzung,2,∞,0,∞,0%,,2.0,
niki vujicic,2,100%,0,∞,0%,,6.0,5.0
these woods are lovely dark and deep,2,,0,∞,0%,,7.0,0.5
leonardo dicaprio motivation,2,∞,0,∞,0%,,8.5,
نيك فيوتتش,2,∞,0,∞,0%,,11,
happy philosophy,2,,0,∞,0%,,6.0,0.5
wolf of wall street im not fucking leaving,2,∞,0,∞,0%,,9.5,
nick socrates,2,∞,0,∞,0%,,10,
nick vujicic könyvei,2,∞,0,∞,0%,,12,
i see now that the circumstances,2,∞,0,∞,0%,,24,
hope your day went well quotes,2,∞,0,∞,0%,,1.0,
quotes from socrates about life,2,∞,0,∞,0%,,3.0,
nike vujicic,2,100%,0,∞,0%,,11,
the wolf of wall street quotes tumblr,2,∞,0,∞,0%,,27,
nick vujicic hijo,2,∞,0,∞,0%,,12,
motivation rocky balboa,2,100%,0,∞,0%,,1.5,-0.5
love quotes by socrates,2,∞,0,∞,0%,,2.0,
life ain't all rainbows and sunshine,2,∞,0,∞,0%,,1.0,
nick vujicic kids,2,∞,0,∞,0%,,12,
rocky life hits you hard,2,∞,0,∞,0%,,8.0,
rocky how winning is done,2,,0,∞,0%,,4.0,0.5
nick vujicic quotes about love,2,100%,0,∞,0%,,1.0,1.0
rocky balboa how hard you hit,2,∞,0,∞,0%,,6.0,
pick up the phone quotes,2,∞,0,∞,0%,,19,
nicolas vujicic,2,∞,0,∞,0%,,11,
nick voichick,2,-75%,0,∞,0%,,6.5,2.0
rocky balboa lines,2,∞,0,∞,0%,,9.0,
nick vujicic e sua esposa,2,∞,0,∞,0%,,12,
quotes on socrates,2,100%,0,∞,0%,,4.0,-1.0
9gag inspirational quotes,2,∞,0,∞,0%,,3.5,
rocky balboa speech motivation,2,∞,0,∞,0%,,3.5,
socrates citizen of the world,1,∞,0,∞,0%,,11,
it is what you do with the gift of life,1,∞,0,∞,0%,,7.0,
steve jobs on motivation,1,∞,0,∞,0%,,55,
nick ujicic,1,∞,0,∞,0%,,1.0,
i love snoopy,1,∞,0,∞,0%,,4.0,
fitness motivational,1,∞,0,∞,0%,,12,
i took the road,1,∞,0,∞,0%,,7.0,
wisdom of socrates,1,∞,0,∞,0%,,10,
roosevelt quote credit belongs to the man,1,∞,0,∞,0%,,9.0,
does nick vujicic have a child,1,∞,0,∞,0%,,12,
nick vujucik,1,∞,0,∞,0%,,2.0,
9gag inspirational,1,∞,0,∞,0%,,10,
street fuck job,1,∞,0,∞,0%,,9.0,
rocky v quote,1,∞,0,∞,0%,,7.0,
นิควูจิซิค,1,∞,0,∞,0%,,11,
success is not always what you see quotes,1,-50%,0,∞,0%,,4.0,2.0
motivational quotes about communication,1,,0,∞,0%,,7.0,-1.0
ника вуйчич,1,∞,0,∞,0%,,11,
rock balboa quotes,1,∞,0,∞,0%,,1.0,
rocky balboa t,1,∞,0,∞,0%,,5.0,
socrates motivational quotes,1,-50%,0,∞,0%,,3.0,
rocky quoted,1,∞,0,∞,0%,,1.0,
stephen hawking theory,1,∞,0,∞,0%,,4.0,
citizen of the world socrates,1,∞,0,∞,0%,,10,
nick vujicic mom and dad,1,∞,0,∞,0%,,11,
life ain't about sunshine and rainbows,1,∞,0,∞,0%,,1.0,
i don't care how tough you are,1,∞,0,∞,0%,,6.0,
nick vijinic,1,,0,∞,0%,,11,
a man with no limbs,1,∞,0,∞,0%,,1.0,
nick vuicich,1,∞,0,∞,0%,,2.0,
my philosophy for a happy life | sam berns,1,∞,0,∞,0%,,10,
rocky balboa inspirational speech text,1,,0,∞,0%,,5.0,
"you got a dream... you gotta protect it. people can't do somethin' themselves, they wanna tell you you can't do it. if you want somethin', go get it. period.",1,∞,0,∞,0%,,8.0,
thousand character classic,1,∞,0,∞,0%,,25,
力克胡,1,∞,0,∞,0%,,11,
steve jobs motivational quotes,1,,0,∞,0%,,46,-1.0
trying hard now rocky,1,∞,0,∞,0%,,9.0,
pics of rocky balboa,1,-50%,0,∞,0%,,1.0,
do not believe in anything simply because you have heard it,1,-50%,0,∞,0%,,3.0,-0.5
nick vujicic events,1,∞,0,∞,0%,,6.0,
snoopy picture quotes,1,∞,0,∞,0%,,1.0,
world is not all sunshine and rainbows,1,-50%,0,∞,0%,,9.0,-4.0
ник вуйчич книги,1,∞,0,∞,0%,,11,
nick vujicic\,1,,0,∞,0%,,11,
quotes by napoleon hill,1,∞,0,∞,0%,,4.0,
i love you snoopy images,1,-67%,0,∞,0%,,1.0,
steve madden speech,1,∞,0,∞,0%,,14,
i am not what happened to me but what i choose to become,1,-50%,0,∞,0%,,6.0,2.0
whatever the mind of man can conceive and believe it can achieve,1,∞,0,∞,0%,,10,
rocky balboa speech quote,1,∞,0,∞,0%,,6.0,
нике вуйчиче,1,∞,0,∞,0%,,11,
pickup fucking,1,∞,0,∞,0%,,23,
wolf of wall street pick up the phone and start dialing quote,1,∞,0,∞,0%,,5.0,
rocky the world ain't all sunshine and rainbows,1,-67%,0,∞,0%,,1.0,0.3
life aint all sunshine and rainbows,1,-50%,0,∞,0%,,1.0,3.0
no my only goal is to see,1,∞,0,∞,0%,,4.0,
socrates quote youth,1,∞,0,∞,0%,,10,
nick vujovic,1,∞,0,∞,0%,,51,
motivation wolf,1,∞,0,∞,0%,,43,
overcoming hopelessness nick vujicic at tedxnovisad,1,∞,0,∞,0%,,6.0,
don't let anyone tell you you can't do something pursuit of happiness,1,,0,∞,0%,,8.0,
nick vujikick,1,∞,0,∞,0%,,11,
and that made all the difference frost,1,∞,0,∞,0%,,10,
nick vucic,1,∞,0,∞,0%,,11,
when i feel sad i stop being sad,1,∞,0,∞,0%,,8.0,
นิก วูยิชิช,1,∞,0,∞,0%,,11,
it ain't about how hard you hit speech,1,∞,0,∞,0%,,6.0,
matrimonio de nick vujicic,1,∞,0,∞,0%,,1.0,
shoulder of giants newton quote,1,,0,∞,0%,,18,-8.0
what i like about you snoopy,1,∞,0,∞,0%,,3.0,
the man in the arena quote,1,,0,∞,0%,,1.0,1.0
the arena theodore,1,∞,0,∞,0%,,5.0,
nick vicijic,1,∞,0,∞,0%,,11,
ronaldo motivational quotes,1,∞,0,∞,0%,,1.0,
alex vujicic,1,∞,0,∞,0%,,3.0,
basketball quotes tagalog,1,∞,0,∞,0%,,1.0,
wolf of wall street i am not leaving,1,,0,-100%,0%,-100,9.0,1.0
when im sad i,1,∞,0,∞,0%,,1.0,
don't let anyone tell you what to do,1,∞,0,∞,0%,,7.0,
an unexamined life quote,1,∞,0,∞,0%,,7.0,
pastor without legs and arms,1,∞,0,∞,0%,,1.0,
9gag motivational quotes,1,-75%,0,-100%,0%,-20,3.0,
best of socrates,1,∞,0,∞,0%,,8.0,
why do we fall - motivational video,1,-75%,0,-100%,0%,-20,16,-6.0
ник вучич,1,∞,0,∞,0%,,11,
rocky balboa it's about how hard,1,∞,0,∞,0%,,10,
i see now that the circumstances of one's birth are irrelevant quote,1,∞,0,∞,0%,,19,
the biggest communication problem is we do not listen to understand. we listen to reply.,1,∞,0,∞,0%,,14,
胡哲力克,1,∞,0,∞,0%,,11,
esposa de nick,1,∞,0,∞,0%,,12,
quotes mentalist,1,∞,0,∞,0%,,1.0,
snoopy love images,1,∞,0,∞,0%,,1.0,
motivational wolf of wall street,1,∞,0,∞,0%,,7.0,
the world is not always sunshine and rainbows,1,,0,∞,0%,,10,-2.0
quote rocky balboa,1,∞,0,∞,0%,,1.0,
nick vujčić,1,∞,0,∞,0%,,11,
i was not there yet i was there,1,∞,0,∞,0%,,5.0,
people who cant let things go,1,∞,0,∞,0%,,5.0,
nick vujocic,1,,0,∞,0%,,11,
socrates words,1,∞,0,∞,0%,,3.0,
rocky hard,1,∞,0,∞,0%,,10,
pastor nic,1,∞,0,∞,0%,,11,
quote by socrates,1,∞,0,∞,0%,,3.0,
the theory of everything quote,1,∞,0,∞,0%,,26,
don't let anybody tell you who you are,1,∞,0,∞,0%,,7.0,
wolf of wall st speech,1,∞,0,∞,0%,,6.0,
quotes by rocky,1,∞,0,∞,0%,,1.0,
rocky gonna fly now,1,∞,0,∞,0%,,77,
三字经 english translation,1,-67%,0,∞,0%,,5.0,-1.0
letting go poem author unknown,1,∞,0,∞,0%,,10,
pursuit of happiness never let anyone,1,∞,0,∞,0%,,7.0,
newton quotes giants,1,∞,0,∞,0%,,5.0,
нико вуйчич,1,∞,0,∞,0%,,1.0,
socrates meaning of life quote,1,∞,0,∞,0%,,10,
pursuit of happiness don't ever let somebody,1,-67%,0,∞,0%,,7.0,
strong minds discuss ideas,1,∞,0,∞,0%,,4.0,
nic vijicic,1,,0,∞,0%,,11,
nick vuic,1,∞,0,∞,0%,,11,
nick vujajic,1,,0,∞,0%,,11,
nick vujuvic,1,-50%,0,∞,0%,,11,
nick vujicic photo,1,∞,0,∞,0%,,1.0,
rocky quites,1,∞,0,∞,0%,,1.0,
nick jujicic,1,∞,0,∞,0%,,11,
rocky sunshine and rainbows quote,1,∞,0,∞,0%,,7.0,
the biggest communication problem is we do not listen to understand. we listen to reply,1,,0,∞,0%,,17,-3.0
9gag motivational,1,-50%,0,∞,0%,,6.0,-1.0
mentalist script,1,∞,0,∞,0%,,46,
snoopy images and quotes,1,∞,0,∞,0%,,1.0,
nick vujiic,1,,0,∞,0%,,11,
alone we can do so little together we can do so much meaning,1,-50%,0,∞,0%,,3.0,2.0
nick vujicoc,1,∞,0,∞,0%,,11,
nik vojicic,1,,0,∞,0%,,11,
don't let others tell you what to do,1,-50%,0,∞,0%,,5.0,2.0
fucking on the street,1,∞,0,∞,0%,,34,
when someone does something for you,1,,0,∞,0%,,8.0,-3.0
snoopy quotes on love,1,∞,0,∞,0%,,1.0,
nick vujevic,1,∞,0,∞,0%,,51,
нике вуйчич,1,∞,0,∞,0%,,11,
photos of nick vujicic,1,∞,0,∞,0%,,1.0,
steve jobs if you love what you do,1,∞,0,∞,0%,,5.0,
best rocky quotes,1,,0,∞,0%,,7.0,-5.0
sometimes when i'm sad i stop being sad,1,-50%,0,∞,0%,,6.0,-3.0
nick vujicic casado,1,∞,0,∞,0%,,12,
leaving sadness,1,∞,0,∞,0%,,6.0,
think and grow rich napoleon hill pdf,1,∞,0,∞,0%,,53,
nick vujisick,1,,0,∞,0%,,11,
vuijcic,1,∞,0,∞,0%,,11,
wolf of wall street speech quote,1,-50%,0,∞,0%,,9.0,
nik vujic,1,∞,0,∞,0%,,11,
nik vujičič,1,,0,∞,0%,,11,
rich man rich mind,1,∞,0,∞,0%,,3.0,
motivation wolf of wall street,1,∞,0,∞,0%,,6.0,
motivational images,1,∞,0,∞,0%,,81,
why do we fall motivational speech lyrics,1,∞,0,∞,0%,,10,
livros do nick vujicic,1,∞,0,∞,0%,,11,
rocky life hits hard,1,,0,∞,0%,,9.0,1.0
snoppy quotes,1,∞,0,∞,0%,,1.0,
i am not what has happened to me but what i choose to become,1,∞,0,∞,0%,,1.0,
the true test of character is not,1,∞,0,∞,0%,,3.0,
people like nick vujicic,1,∞,0,∞,0%,,5.0,
motivational speech rocky,1,∞,0,∞,0%,,4.0,
happiness is anything and anyone that is loved by you,1,,0,∞,0%,,8.0,1.0
nick vujichic,1,,0,∞,0%,,2.0,9.0
let me tell you something you already know,1,∞,0,∞,0%,,30,
quotes about things going wrong,1,∞,0,∞,0%,,3.0,
motivational speeches rocky balboa,1,∞,0,∞,0%,,6.0,
paynomore,1,∞,0,∞,0%,,7.0,
rocky balboa that's how winning is done quote,1,∞,0,∞,0%,,5.0,
nick vujicic pics,1,∞,0,∞,0%,,1.0,
snoopy lover,1,∞,0,∞,0%,,1.0,
rocky hit quote,1,∞,0,∞,0%,,4.0,
nikc vujicic,1,∞,0,∞,0%,,11,
no pay no gain,1,∞,0,∞,0%,,8.0,
grind to shine quotes,1,∞,0,∞,0%,,9.0,
rocky speach,1,∞,0,∞,0%,,5.0,
the only one who can tell you you can't is you,1,∞,0,∞,0%,,6.0,
nick bujicik,1,∞,0,∞,0%,,1.0,
napoleon hill,1,∞,0,∞,0%,,11,
dwayne johnson before and after 9gag,1,∞,0,∞,0%,,35,
motivational videos why do we fall,1,∞,0,∞,0%,,16,
ник вуй,1,∞,0,∞,0%,,11,
the unexamined life is not worth living,1,-75%,0,∞,0%,,9.0,2.0
basketball captain quotes,1,∞,0,∞,0%,,8.0,
nick vujicic don't give up,1,∞,0,∞,0%,,1.0,
nick vigicic,1,,0,∞,0%,,11,
ник вуйтич,1,∞,0,∞,0%,,11,
nick vuijc,1,∞,0,∞,0%,,11,
mistakes are always forgivable if one has the courage to admit them meaning,1,,0,∞,0%,,3.0,
nick vijuicic,1,∞,0,∞,0%,,11,
never let someone tell you you can't do something quotes,1,∞,0,∞,0%,,8.0,
daily dose of motivation,1,∞,0,∞,0%,,8.0,
rocky motivation quotes,1,-67%,0,∞,0%,,1.0,
isaac newton giants quote,1,,0,∞,0%,,1.0,8.0
derrick rose mvp speech transcript,1,∞,0,∞,0%,,58,
nick vujicic eşi,1,∞,0,∞,0%,,12,
snoopy love quotes,1,∞,0,∞,0%,,30,
i like about you snoopy,1,,0,∞,0%,,1.0,
videos nick vujicic,1,∞,0,∞,0%,,10,
nick vujice,1,∞,0,∞,0%,,1.0,
im not fucking leaving wolf of wall street,1,∞,0,∞,0%,,10,
stephen hawking quotes love,1,∞,0,∞,0%,,47,
nick vijivic,1,,0,∞,0%,,11,
im not fucking leaving,1,∞,0,∞,0%,,10,
sach cua nick vujicic,1,∞,0,∞,0%,,12,
stephen hawking human endeavor quote,1,∞,0,∞,0%,,10,
i never tried to hide the fact that my only goal is to be the best,1,∞,0,∞,0%,,1.0,
nick voijic,1,∞,0,∞,0%,,2.0,
力克‧胡哲,1,∞,0,∞,0%,,11,
nivk vujicic,1,∞,0,∞,0%,,11,
flying high now rocky,1,∞,0,∞,0%,,14,
the world aint all,1,∞,0,∞,0%,,5.0,
nick vujikik,1,,0,∞,0%,,11,
rocky nobody hits harder than life,1,∞,0,∞,0%,,4.0,
don't ever let anyone tell you you can't,1,∞,0,∞,0%,,8.0,
rocky balboa sunshine and rainbows quote,1,∞,0,∞,0%,,4.0,
nick vujicic movies,1,∞,0,∞,0%,,11,
shine motivation,1,,0,∞,0%,,41,-20
best napoleon hill quotes,1,∞,0,∞,0%,,6.0,
quote jack ma,1,∞,0,∞,0%,,1.0,
can't let anyone get close to me,1,∞,0,∞,0%,,7.0,
when i'm sad i am sad,1,-50%,0,∞,0%,,2.0,
nick vujicic film,1,∞,0,∞,0%,,11,
snoopy sentences,1,∞,0,∞,0%,,1.0,
when i feel sad i stop being sad and be awesome instead,1,∞,0,∞,0%,,1.0,
quotes from rocky 5,1,,0,∞,0%,,4.0,-1.0
quien es nik,1,∞,0,∞,0%,,11,
socrates quotes death,1,,0,∞,0%,,10,
motivation quotes image,1,∞,0,∞,0%,,1.0,
gambar nick vujicic,1,∞,0,∞,0%,,1.0,
nick vujjic,1,,0,∞,0%,,11,
never let someone tell you you can't,1,∞,0,∞,0%,,7.0,
loyalty is a two way street if i'm asking,1,∞,0,∞,0%,,5.0,
motivational speeches transcripts,1,∞,0,∞,0%,,23,
theodore roosevelt quote man in the arena,1,∞,0,∞,0%,,3.0,
"to know, is to know that you know nothing. that is the meaning of true knowledge.",1,∞,0,∞,0%,,9.0,
nick vuyicic,1,,0,∞,0%,,11,
nick vujicic nationality,1,∞,0,∞,0%,,1.0,
i see now that the circumstances of one's birth are irrelevant it is what you do,1,∞,0,∞,0%,,13,
what happened to me today,1,∞,0,∞,0%,,5.0,
rocky life ain't all sunshine and rainbows,1,∞,0,∞,0%,,1.0,
don't ever let somebody tell you can't do something,1,∞,0,∞,0%,,5.0,
nick vujicic y sus padres,1,∞,0,∞,0%,,11,
when i'm sad i stop being sad and be awesome,1,∞,0,∞,0%,,1.0,
standing on the shoulders of giants,1,-86%,0,∞,0%,,6.0,-0.1
quotes from nick vujicic,1,∞,0,∞,0%,,1.0,
socrates quotes about love,1,∞,0,∞,0%,,2.0,
robin williams motivation,1,∞,0,∞,0%,,16,
nick viju,1,∞,0,∞,0%,,11,
nick vujicic getrouwd,1,∞,0,∞,0%,,12,
nick predicador,1,∞,0,∞,0%,,11,
imagenes nick vujicic,1,∞,0,∞,0%,,1.0,
books of nick vujicic,1,∞,0,∞,0%,,11,
yoda motivation,1,,0,∞,0%,,9.0,
nic vujic,1,-50%,0,∞,0%,,11,
sad snoopy quotes,1,∞,0,∞,0%,,1.0,
strong minds,1,∞,0,∞,0%,,4.0,
rocky let me tell you something quote,1,∞,0,∞,0%,,6.0,
nick vujich,1,-67%,0,∞,0%,,11,-3.0
rocky life will beat you down,1,∞,0,∞,0%,,8.0,
i don't let anyone get close to me,1,∞,0,∞,0%,,7.0,
the world ain't all sunshine and rainbows speech,1,,0,∞,0%,,1.0,
rocky trying hard now,1,∞,0,∞,0%,,10,
leonardo dicaprio i'm not fucking leaving,1,∞,0,∞,0%,,5.0,
livro do nick vujicic,1,∞,0,∞,0%,,11,
the ones who do,1,∞,0,∞,0%,,6.0,
pic of rocky,1,∞,0,∞,0%,,1.0,
the world ain't all sunshine and rainbows wallpaper,1,∞,0,∞,0%,,1.0,
nick viujicic,1,∞,0,∞,0%,,11,
snoopy i love you pictures,1,∞,0,∞,0%,,1.0,
what screws us up most in life is the picture in our head of how it is supposed to be meaning,1,∞,0,∞,0%,,10,
"when someone shows you who they are, believe them the first time",1,∞,0,∞,0%,,9.0,
nick vujicic sister,1,∞,0,∞,0%,,12,
nick vujicic story in telugu,1,∞,0,∞,0%,,7.0,
nick james vujicic,1,∞,0,∞,0%,,11,
rocky quoyes,1,∞,0,∞,0%,,1.0,
力克．胡哲,1,∞,0,∞,0%,,11,
when i am sad i stop being sad and be awesome instead,1,∞,0,∞,0%,,21,
robert frost dark woods,1,-67%,0,∞,0%,,5.0,
how to tell someone you don't want to do something,1,∞,0,∞,0%,,18,
"nicholas james ""nick"" vujicic",1,∞,0,∞,0%,,11,
when someone tells you you can't do something,1,∞,0,∞,0%,,8.0,
snoopy quotes with pictures,1,∞,0,∞,0%,,1.0,
keep moving forward quotes rocky,1,∞,0,∞,0%,,2.0,
nick vujicics son,1,∞,0,∞,0%,,12,
socrates thought,1,∞,0,∞,0%,,7.0,
test a mans character quote,1,∞,0,∞,0%,,5.0,
travelling to infinity: the true story behind the theory of everything,1,∞,0,∞,0%,,13,
"""of these recurring; of the endless trains of the faithless of cities filled with the foolish; what good amid these, o me, o life? """,1,∞,0,∞,0%,,49,
the man in arena,1,,0,∞,0%,,4.0,
socrates quotes on success,1,∞,0,∞,0%,,3.0,
you're a mentalist,1,∞,0,∞,0%,,4.0,
nick vujicic parents names,1,∞,0,∞,0%,,11,
mick vujicic,1,∞,0,∞,0%,,11,
vujicik,1,∞,0,∞,0%,,11,
rocky quote how hard you hit,1,-67%,0,∞,0%,,3.0,1.0
sam berns philosophy of happiness,1,∞,0,∞,0%,,9.0,
no matter how hard you hit rocky,1,∞,0,∞,0%,,1.0,
basketball quotes 2014,1,∞,0,∞,0%,,1.0,
stephen hawking quote from the theory of everything,1,∞,0,∞,0%,,30,
rocky balboa quotes life,1,∞,0,∞,0%,,1.0,
rocky quates,1,∞,0,∞,0%,,1.0,
motivation ronaldo,1,∞,0,∞,0%,,1.0,
when i'm sad awesome,1,∞,0,∞,0%,,17,
keep moving forward rocky quote,1,∞,0,∞,0%,,1.0,
evening motivation,1,∞,0,∞,0%,,9.0,
steve jobs quote for the past 33 years,1,∞,0,∞,0%,,4.0,
it ain't how hard you hit speech,1,∞,0,∞,0%,,4.0,
socrates quotes about god,1,,0,∞,0%,,3.0,
image of nick vujicic,1,∞,0,∞,0%,,1.0,
sunshine and rainbows rocky,1,,0,∞,0%,,8.0,
a man with no arms and no legs,1,∞,0,∞,0%,,1.0,
oscar wilde motivational quotes,1,∞,0,∞,0%,,41,
son of nick vujicic,1,∞,0,∞,0%,,12,
wife of nick vujicic,1,∞,0,∞,0%,,12,
socrates quote death,1,∞,0,∞,0%,,7.0,
nick vuci,1,∞,0,∞,0%,,1.0,
will you vincent van gogh out with me,1,∞,0,∞,0%,,1.0,
steve jobs quotes socrates,1,∞,0,∞,0%,,3.0,
nick wójcic,1,,0,∞,0%,,11,
yoda gym,1,,0,∞,0%,,1.0,
tell me i can't do something,1,∞,0,∞,0%,,6.0,
make something of yourself,1,∞,0,∞,0%,,10,
socrates wise quotes,1,∞,0,∞,0%,,4.0,
irts,1,∞,0,∞,0%,,13,
don t ever let anyone tell you you can't do something,1,∞,0,∞,0%,,7.0,
man fuck wolf,1,∞,0,∞,0%,,46,
not everything is sunshine and rainbows,1,∞,0,∞,0%,,6.0,
some inspiration quotes,1,∞,0,∞,0%,,9.0,
how to make someone want something,1,∞,0,∞,0%,,6.0,
motivation cristiano ronaldo,1,∞,0,∞,0%,,1.0,
nick vujivick,1,-67%,0,∞,0%,,11,-3.0
rocky balboa quotes motivational,1,∞,0,∞,0%,,1.0,
best quotes of socrates,1,,0,∞,0%,,3.0,2.0
николас вуйчич,1,∞,0,∞,0%,,11,
vujicic son,1,∞,0,∞,0%,,12,
the one where everything goes wrong,1,∞,0,∞,0%,,10,
mewtwo circumstances,1,,0,∞,0%,,6.0,4.0
is the theory of everything sad,1,∞,0,∞,0%,,41,
wolf of wall street leonardo dicaprio quotes,1,∞,0,∞,0%,,10,
street pick up fuck,1,∞,0,∞,0%,,9.0,
when im sad i stop being sad and be awesome instead übersetzung,1,∞,0,∞,0%,,2.0,
almost everything all external expectations,1,∞,0,∞,0%,,6.0,
socrates quote wisdom,1,∞,0,∞,0%,,5.0,
尼克·武伊契奇,1,∞,0,∞,0%,,11,
"vujicic, nick",1,,0,∞,0%,,11,
nick vujicic words,1,∞,0,∞,0%,,1.0,
pursuit of happiness don't let anyone tell you,1,-67%,0,-100%,0%,-70,7.0,
