Query,Change,Impressions,Clicks,Change,CTR,Change,Avg. position,Change
wolf of wall street speech,1%,453,106,-10%,23%,-3,5,0.6
wolf of wall street speech script,80%,106,77,75%,73%,-2,1,
the wolf of wall street speech,100%,52,25,56%,48%,-10,4.7,2
wolf of wall street inspirational speech script,156%,23,21,133%,91%,-9,1,
nick vujicic speech transcript,-22%,36,12,-37%,33%,-8,4.4,-0.4
the wolf of wall street speech script,-21%,15,12,-29%,80%,-9,1.2,
wolf of wall street monologue script,∞,21,10,∞,48%,50,5.3,
wolf of wall street inspirational speech,-68%,28,9,-62%,32%,5,3.5,0.4
the wolf of wall street inspirational speech,-17%,19,9,-25%,47%,-5,3.5,0.7
wolf of wall street speech transcript,-73%,11,9,-76%,82%,-10,1,
wolf of wall street motivational speech,187%,66,8,14%,12%,-20,4,1
don't ever let someone tell you you can't do something,100%,28,7,250%,25%,10,5.9,0.9
wolf of wall street speeches,33%,12,6,-14%,50%,-30,4.3,2
the wolf of wall street inspirational speech script,∞,6,6,∞,100%,100,1,
speech wolf of wall street,400%,15,5,∞,33%,30,4.2,4
leonardo dicaprio wolf of wall street speech,300%,8,5,400%,62%,10,4.5,2
pick up the phone and start dialing,210%,90,4,∞,4%,4,7.6,0.2
don't ever let somebody tell you you can't do something,-13%,39,4,,10%,1,6,0.3
the motivation mentalist,-76%,36,4,-43%,11%,7,1,0.1
wolf of wallstreet speech,24%,21,4,,19%,-4,5.2,0.7
speech from wolf of wall street,25%,5,4,33%,80%,5,4.6,0.4
motivation mentalist,-85%,54,3,-50%,6%,4,1,0.2
nick vujicic motivational speech transcript,∞,7,3,∞,43%,40,2.3,
don't ever let someone tell you that you can't do something,50%,6,3,200%,50%,30,5,2
wolf of wall street speech text,-58%,5,3,-75%,60%,-40,1,0.4
true knowledge exists in knowing that you know nothing meaning,150%,5,3,200%,60%,10,3,0.5
"loyalty is a two-way street. if i'm asking for it from you, then you're getting it from me.",∞,43,2,∞,5%,5,4.4,
sam berns quotes,11%,31,2,100%,6%,3,5.3,0.7
don't ever let someone tell you pursuit happiness,44%,13,2,∞,15%,20,7.6,-2
don't ever let somebody tell you,50%,12,2,100%,17%,4,7.5,-0.1
how to tell someone you can't do something,∞,11,2,∞,18%,20,4.8,
wolf of wall street speach,17%,7,2,,29%,-5,5,0.8
pursuit of happiness don't ever let someone,∞,5,2,∞,40%,40,7.2,
wolf of wall street phone speech,150%,5,2,100%,40%,-10,3.8,2
the wolf of wall street monologue,∞,4,2,∞,50%,50,10,
loyalty is a two way street if i'm asking it from you,∞,4,2,∞,50%,50,4,
inspirational speech wolf of wall street,33%,4,2,100%,50%,20,4,0.7
don't ever let somebody tell you you can't do something quote,-63%,3,2,∞,67%,70,4.7,2
wolf of wall street quotes pick up the phone and start dialing,100%,2,2,∞,100%,100,5,1
nick vujicic,-84%,3667,1,∞,0%,,9.7,-0.3
wolf of wall street pick up the phone,45%,29,1,,3%,-2,8.2,0.5
9gag motivation,650%,15,1,∞,7%,7,8.6,1
steve madden speech wolf of wall street,550%,13,1,∞,8%,8,7.8,2
there are no victims in this classroom,67%,10,1,,10%,-7,3.8,3
the pursuit of happiness quotes don't ever let,150%,10,1,∞,10%,10,8.8,-0.3
pick up the phone and start dialing quote,12%,9,1,-75%,11%,-40,4.3,1
motivational speech wolf of wall street,300%,8,1,∞,12%,10,5.4,0.6
pursuit of happiness quotes don't let anybody,600%,7,1,∞,14%,10,7.6,1
"""there should be no boundaries to human endeavor. however bad life may seem, while there is life, there is hope.""",40%,7,1,,14%,-6,3.7,1
wolf on wall street speech,-60%,6,1,-89%,17%,-40,3.2,2
wolf of wall street speech i'm not leaving,20%,6,1,,17%,-3,6,-0.4
why do we fall video,150%,5,1,∞,20%,20,10,-1
wall street motivation,400%,5,1,∞,20%,20,7.6,2
why do we fall transcript,25%,5,1,,20%,-5,4.2,3
don't let somebody tell you you can't do something,-20%,4,1,,25%,5,7,1
don't let anyone tell you can't do something,100%,4,1,,25%,-20,6.5,2
the wolf of wall street motivational speech,200%,3,1,∞,33%,30,4,1
pursuit of happiness don't ever let somebody tell you,-57%,3,1,,33%,20,6.7,-0.2
三字经 english translation,,3,1,∞,33%,30,5,-1
wolf of wall street leonardo dicaprio speech,-25%,3,1,-67%,33%,-40,6,0.5
don't ever let someone tell you,-67%,3,1,,33%,20,8,0.3
motivation wolf of wall street,∞,3,1,∞,33%,30,6.3,
leonardo dicaprio speech wolf of wall street,-25%,3,1,-75%,33%,-70,4.7,1
why do we fall motivational video quotes,∞,3,1,∞,33%,30,7.3,
good pick up the phone and start dialing,-77%,3,1,-50%,33%,20,5,0.5
wolf of wall street leaving speech,-25%,3,1,∞,33%,30,6,
what screws us up the most in life is the picture in our head of what it's supposed to be,∞,2,1,∞,50%,50,11,
wolf of wall st speech,100%,2,1,∞,50%,50,6,
nick vujicic speech text,,2,1,∞,50%,50,3,7
don't ever let somebody tell you can't do something,100%,2,1,∞,50%,50,7,-2
i see now that the circumstances of one's birth are irrelevant,,2,1,,50%,,14,2
nick vujicic motivational speech,,2,1,-50%,50%,-50,26,-10
leonardo dicaprio i'm not fucking leaving,100%,2,1,∞,50%,50,6,-1
wolf of wall street telephone speech,-60%,2,1,-67%,50%,-10,4.5,1
don't ever let anybody tell you you can't do something,100%,2,1,∞,50%,50,6.5,-0.5
wolf of wall street quotes pick up the phone,∞,2,1,∞,50%,50,9,
i attribute my success to this florence nightingale meaning,∞,1,1,∞,100%,100,38,
quotes from 9gag,∞,1,1,∞,100%,100,26,
motivation why we fall,∞,1,1,∞,100%,100,9,
pursuit of happiness never let anyone,,1,1,∞,100%,100,6,1
let me tell you something you already know. the world ain't all sunshine and rainbows,∞,1,1,∞,100%,100,16,
leonardo dicaprio contact,∞,1,1,∞,100%,100,100,
when people tell you you can't do something,∞,1,1,∞,100%,100,10,
wolf of wall street pick up the phone and start dialing speech,∞,1,1,∞,100%,100,6,
don't ever let somebody tell you that you can't do something,-89%,1,1,,100%,90,6,-0.3
what screws us up most in life is the picture in our head of how it is supposed to be,∞,1,1,∞,100%,100,16,
there should be no boundary to human endeavour quote,,1,1,∞,100%,100,19,2
生于忧患 死于安乐,∞,1,1,∞,100%,100,8,
quotes from the theory of everything,∞,1,1,∞,100%,100,21,
rocky balboa quotes,32%,1701,0,∞,0%,,1.2,0.2
rocky quotes,-3%,492,0,∞,0%,,1.1,0.2
snoopy quotes,274%,437,0,∞,0%,,1,1
the world ain't all sunshine and rainbows,4%,218,0,∞,0%,,1.1,0.2
theodore roosevelt man in the arena,54%,165,0,∞,0%,,2.8,0.1
roosevelt man in the arena,76%,123,0,∞,0%,,2,0.5
theodore roosevelt the man in the arena,61%,71,0,∞,0%,,2.1,0.7
i am not what happened to me i am what i choose to become,343%,62,0,∞,0%,,1.1,
mentalist quotes,317%,50,0,∞,0%,,1,0.4
i am not what happened to me,∞,49,0,∞,0%,,1,
rocky quote life hits hard,2000%,42,0,∞,0%,,4.4,2
cristiano ronaldo motivation,-11%,41,0,∞,0%,,1,0.7
rocky 5 quotes,925%,41,0,∞,0%,,2.5,0.5
teddy roosevelt man in the arena,1850%,39,0,∞,0%,,3.2,-0.7
why do we fall motivational video,1800%,38,0,∞,0%,,8.6,-0.1
nick vujcic,-76%,35,0,∞,0%,,9.6,0.2
theodore roosevelt quotes man in the arena,42%,34,0,∞,0%,,4.6,-0.3
roosevelt the man in the arena,136%,33,0,∞,0%,,2,0.2
wolf of wall street i'm not leaving,267%,33,0,∞,0%,,9.7,-0.1
theodore roosevelt arena,256%,32,0,∞,0%,,5,2
quotes by socrates,-78%,29,0,∞,0%,,3.1,0.4
rocky balboa motivation,180%,28,0,∞,0%,,1,
rocky 2 quotes,69%,27,0,∞,0%,,7.9,-0.3
man in the arena roosevelt,23%,27,0,∞,0%,,2.4,0.9
rocky balboa speech,∞,26,0,∞,0%,,3,
the man in the arena theodore roosevelt,19%,25,0,∞,0%,,2.1,0.6
quotes from rocky balboa,127%,25,0,∞,0%,,2.1,0.3
rocky keep moving forward,150%,25,0,∞,0%,,1.7,-0.1
don't let anyone tell you you can't do something,26%,24,0,-100%,0%,-10,7.9,0.3
i am not what happened to me i am what i chose to become,2300%,24,0,∞,0%,,1,1
ronaldo motivation,92%,23,0,∞,0%,,1,
snoopy quotes images,16%,22,0,∞,0%,,1,
nick vujici,-76%,22,0,∞,0%,,8.8,0.8
spend a little more time trying to make something of yourself,43%,20,0,∞,0%,,1.9,-0.1
mewtwo quotes,400%,20,0,∞,0%,,1,6
man in the arena theodore roosevelt,73%,19,0,∞,0%,,2.9,0.7
rocky balboa motivational,-34%,19,0,∞,0%,,1.4,1
the world ain't sunshine and rainbows,260%,18,0,∞,0%,,3.1,-0.9
rocky motivational quotes,20%,18,0,∞,0%,,1,
wolf of wall street opening monologue,467%,17,0,-100%,0%,-70,8.4,-1
the world aint all sunshine and rainbows,55%,17,0,∞,0%,,1.4,-0.3
wolf of wall street motivation,70%,17,0,-100%,0%,-10,5.6,0.4
spend a little more time trying to make something of yourself and a little less time trying to impress people.,∞,16,0,∞,0%,,3.1,
i may not be there yet but i'm closer than i was yesterday traduction,∞,15,0,∞,0%,,5.1,
the man in the arena roosevelt,50%,15,0,∞,0%,,1.7,0.4
socrates wisdom quotes,50%,15,0,∞,0%,,3,1
quotes rocky balboa,,15,0,∞,0%,,1.1,0.4
keep moving forward rocky,∞,15,0,∞,0%,,1,
napoleon hill quotes,∞,14,0,∞,0%,,4,
spend a little more time trying to make something of yourself and a little less time trying to impress people,367%,14,0,∞,0%,,3,0.7
change wave,-18%,14,0,∞,0%,,7.7,0.2
wolf of wall street transcript,27%,14,0,-100%,0%,-20,9.4,-2
have faith in your dreams and someday,180%,14,0,∞,0%,,5,1
rocky balboa it's not about how hard,367%,14,0,∞,0%,,8.1,1
life is not sunshine and rainbows,∞,14,0,∞,0%,,6.7,
nick vujicik,-84%,14,0,∞,0%,,10,-2
why do we fall - motivational video,160%,13,0,-100%,0%,-20,7.9,3
wolf of wall street steve madden quote,∞,13,0,∞,0%,,10,
teddy roosevelt the man in the arena,1200%,13,0,∞,0%,,3.2,-1
napoleon hill think and grow rich quotes,-32%,13,0,∞,0%,,4.1,0.8
think and grow rich quotes,500%,12,0,∞,0%,,42,-0.8
quotes by napoleon hill,∞,12,0,∞,0%,,3.8,
napoleon hill quotes think and grow rich,140%,12,0,∞,0%,,6.2,0.8
i love the kind of hugs where you can,-29%,12,0,-100%,0%,-6,1,0.3
life is not all rainbows and sunshine,1100%,12,0,∞,0%,,5.8,-2
motivation 9gag,∞,12,0,∞,0%,,9.2,
you ought to spend a little more time,∞,12,0,∞,0%,,7.8,
rocky balboa quotes how hard you hit,500%,12,0,∞,0%,,1,4
life ain't all sunshine and rainbows rocky,-15%,11,0,∞,0%,,2.8,-1
steve jobs socrates,175%,11,0,∞,0%,,1.2,0.8
nick vuijic,-76%,11,0,∞,0%,,10,-0.6
socrates best quotes,120%,11,0,∞,0%,,3.1,0.9
wolf of wall street buy or die,233%,10,0,-100%,0%,-30,8.7,-0.7
it a lie to think you are not good enough,233%,10,0,∞,0%,,5.2,1
charlie chaplin motivational,∞,10,0,∞,0%,,4.4,
theodore roosevelt in the arena,233%,10,0,∞,0%,,4,
don't let anyone tell you you can't do something quotes,-17%,10,0,∞,0%,,7.4,0.4
theodore roosevelt the arena,233%,10,0,∞,0%,,3,1
you gotta dream you gotta protect it meaning,150%,10,0,-100%,0%,-20,4.7,5
snoopy images with quotes,900%,10,0,∞,0%,,1,
rocky balboa motivational quotes,233%,10,0,∞,0%,,1,
rocky 5 quote,∞,10,0,∞,0%,,2.5,
quotes rocky,900%,10,0,∞,0%,,1,
life is not all sunshine and rainbows,67%,10,0,∞,0%,,4.6,-1
rocky vi quotes,67%,10,0,∞,0%,,5.6,1
hard work trumps talent quote,∞,10,0,∞,0%,,3.8,
nick vujicic quotes on love,100%,10,0,∞,0%,,1,
rocky sunshine and rainbows,-17%,10,0,∞,0%,,3.8,2
the true test of a man's character is what he does when no one is watching,400%,10,0,∞,0%,,3,0.5
rocky balboa qoutes,100%,10,0,∞,0%,,1.2,-0.2
best mentalist quotes,11%,10,0,∞,0%,,5,2
nick vujic,-76%,10,0,∞,0%,,7.2,2
might is right quotes,-61%,9,0,∞,0%,,3.1,2
theodore roosevelt quotes arena,125%,9,0,∞,0%,,2.7,0.3
socrates the unexamined life quote,∞,9,0,∞,0%,,8.7,
"“strong minds discuss ideas, average minds discuss events, weak minds discuss people.”",200%,9,0,∞,0%,,1.4,0.6
never let somebody tell you can't do something,-18%,9,0,-100%,0%,-9,1,2
roosevelt quotes man in the arena,80%,9,0,∞,0%,,3.6,0.8
wolf of wall street pick up the phone speech,29%,9,0,-100%,0%,-30,6.6,0.2
happy philosophy,200%,9,0,∞,0%,,4.6,3
i'm not leaving wolf of wall street,350%,9,0,∞,0%,,10,-0.5
when everything goes wrong and things seem to fall apart,700%,8,0,-100%,0%,-100,1.5,10
pick up the phone wolf of wall street,100%,8,0,∞,0%,,8.4,-0.6
stephen hawking human endeavor,700%,8,0,∞,0%,,9.9,-0.9
spend a little less time trying to impress,∞,8,0,∞,0%,,4.3,
quotes of socrates,-88%,8,0,∞,0%,,2.9,0.2
kalidas quotes,300%,8,0,∞,0%,,3,
people can't do something themselves,∞,8,0,∞,0%,,3.5,
the world ain't all sunshine and rainbows quote,-50%,8,0,∞,0%,,2.4,0.3
why do we fall,∞,8,0,∞,0%,,44,
you ought to spend a little less time,300%,8,0,∞,0%,,5.5,
on the shoulders of giants,-80%,8,0,∞,0%,,7.4,-1
newton shoulder of giant,100%,8,0,∞,0%,,7.1,1
rocky balboa keep moving forward,33%,8,0,∞,0%,,1.5,
the pursuit of happiness don't ever let somebody,167%,8,0,∞,0%,,6,
the world is not sunshine and rainbows,33%,8,0,∞,0%,,5.8,
rocky the world ain't all sunshine,-43%,8,0,∞,0%,,1.5,0.1
socrates quotes on god,700%,8,0,∞,0%,,2.3,0.8
quotes from socrates,-92%,8,0,∞,0%,,3,
i love snoopy,∞,7,0,∞,0%,,1.4,
nick vujicic speech,133%,7,0,-100%,0%,-30,16,3
you want something go get it period quote,250%,7,0,∞,0%,,8.3,-2
pursuit of happyness don't ever let somebody,∞,7,0,∞,0%,,7,
life is no sunshine and rainbows,600%,7,0,∞,0%,,6.2,2
i love the kind of hugs where you can physically feel the sadness leaving your body,17%,7,0,-100%,0%,-20,1.8,-0.2
roosevelt speech man in the arena,∞,7,0,∞,0%,,6.3,
people cant do something themselves,∞,7,0,∞,0%,,5.3,
socrates quote on wisdom,600%,7,0,∞,0%,,4.3,0.7
socrates quotes wisdom,,7,0,∞,0%,,3.1,1
nick vuicic,-81%,7,0,∞,0%,,8.4,2
rocky balboa quotes it's not about how hard you hit,-22%,7,0,∞,0%,,3.1,2
have faith in your dreams and someday your rainbow will come smiling through,75%,7,0,∞,0%,,5,2
the arena roosevelt,250%,7,0,∞,0%,,3,0.5
sometimes you've gotta fall before you fly übersetzung,∞,7,0,∞,0%,,9,
the unexamined life is not worth living socrates,133%,7,0,∞,0%,,7.6,0.4
some people are so poor all they have is money,600%,7,0,∞,0%,,1,
it ain't all sunshine and rainbows,75%,7,0,∞,0%,,2.7,-1
motivational quotes from rocky,200%,6,0,∞,0%,,1,
nick vujivic,-91%,6,0,∞,0%,,11,-1
roosevelt in the arena,-14%,6,0,∞,0%,,3.5,0.4
sam berns quote,20%,6,0,-100%,0%,-20,5,1
man in arena roosevelt,∞,6,0,∞,0%,,3.3,
i like snoopy immagini,100%,6,0,∞,0%,,1,
basketball quotes tagalog,∞,6,0,∞,0%,,1,
when i'm sad i stop being sad and be awesome instead traduction,,6,0,∞,0%,,2.8,2
this world ain't all sunshine and rainbows,∞,6,0,∞,0%,,1.3,
quotes about socrates,-14%,6,0,∞,0%,,3,1
life ain't no sunshine and rainbows,,6,0,∞,0%,,5.7,-0.8
rocky balboa life,100%,6,0,∞,0%,,6,1
wisdom socrates,20%,6,0,∞,0%,,6.7,1
motivational quotes images,∞,6,0,∞,0%,,45,
snoopy i love you this much,∞,6,0,∞,0%,,1,
socrates quotes love,200%,6,0,∞,0%,,2.5,-0.5
quotes theodore roosevelt man in the arena,100%,6,0,∞,0%,,3,0.7
rocky qoutes,-50%,6,0,∞,0%,,1,0.3
nick vuijicic,-80%,6,0,∞,0%,,9.5,
steve jobs the only way to be truly satisfied,20%,6,0,∞,0%,,2,0.8
9gag inspirational quotes,∞,6,0,∞,0%,,3.2,
snoopy motivation,-29%,5,0,∞,0%,,8.2,-0.7
let someone have it,150%,5,0,∞,0%,,9.2,-0.7
wolf of wall street i'm not leaving speech,-29%,5,0,-100%,0%,-40,6,0.3
9gag inspirational,∞,5,0,∞,0%,,9.2,
steve jobs your work is going to fill,25%,5,0,∞,0%,,2,
thinking you know everything,-62%,5,0,∞,0%,,3.6,1
nickvujicic,-83%,5,0,∞,0%,,9.4,1
wolf of wall street pick up the phone and start dialing,-38%,5,0,∞,0%,,7.2,0.3
the mind of napoleon,∞,5,0,∞,0%,,9.4,
quotes about giants,∞,5,0,∞,0%,,5,
rocky motivational speech,67%,5,0,∞,0%,,2.2,2
never let someone tell you can't do something,∞,5,0,∞,0%,,6.6,
if i have seen further quote,-17%,5,0,∞,0%,,7.8,0.9
i see now that the circumstances of one's birth are irrelevant gandhi,∞,5,0,∞,0%,,2,
buy or die wolf of wall street,400%,5,0,∞,0%,,8,2
the world is no sunshine and rainbows,150%,5,0,∞,0%,,6.3,-0.2
nick vujijic,-58%,5,0,∞,0%,,7,2
it's not how hard you hit quote rocky balboa,∞,5,0,∞,0%,,5,
snoopy images and quotes,∞,5,0,∞,0%,,1,
rich mind rich man,150%,5,0,∞,0%,,3.6,3
frittering mentalist,150%,5,0,∞,0%,,5,1
imagenes de nick vujicic,,5,0,∞,0%,,1,
socrates words of wisdom,∞,5,0,∞,0%,,5.6,
pursuit of happiness quotes don't ever let someone,25%,5,0,-100%,0%,-20,7.6,-1
change your mindset quotes,,5,0,∞,0%,,1.2,0.8
charlie chaplin motivation,400%,5,0,∞,0%,,4.8,-0.8
rocky life is not all sunshine and rainbows,-38%,5,0,∞,0%,,1.8,0.5
the world ain't all sunshine and rainbows rocky,-29%,5,0,∞,0%,,1,
nik vujicic,-96%,5,0,∞,0%,,9,0.9
wolf of wall street dial the phone,400%,5,0,∞,0%,,7.8,1
don't ever let anyone tell you you can't do something,-29%,5,0,∞,0%,,7,0.7
tr man in the arena,150%,5,0,∞,0%,,3.4,0.6
socrates quotes god,67%,5,0,∞,0%,,1.8,1
wolf of wall street im not leaving,∞,5,0,∞,0%,,9.8,
the world is not all sunshine and rainbows,400%,5,0,∞,0%,,7.4,-0.4
balboa quotes,150%,5,0,∞,0%,,2.6,0.4
motivational quotes pics,∞,5,0,∞,0%,,1,
the only way to be truly satisfied steve jobs,400%,5,0,∞,0%,,3.2,-1
the woods are lovely dark and deep,∞,5,0,∞,0%,,5.2,
it ain't how hard you hit speech,∞,5,0,∞,0%,,3.8,
nick vujucic,-79%,5,0,∞,0%,,11,-1
rocky balboa lines,∞,5,0,∞,0%,,8.8,
best quotes of socrates,400%,5,0,∞,0%,,2.4,3
"nick vujicic,",-64%,4,0,∞,0%,,11,-0.9
"i am not what happened to me, i am what i choose to become",100%,4,0,∞,0%,,1,
success is not always what you see quotes,100%,4,0,∞,0%,,4,2
the wolf of wall street motivation,,4,0,∞,0%,,6.3,2
socrates quotes on life,∞,4,0,∞,0%,,3,
don't let anyone tell you you can't do it,∞,4,0,∞,0%,,8,
fotos de nick vujicic,-60%,4,0,∞,0%,,1,
rocky balboa motivational speech text,-50%,4,0,∞,0%,,3.8,4
theodore roosevelt arena speech,∞,4,0,∞,0%,,7,
the true test of a man's character,-76%,4,0,∞,0%,,5.5,2
the world is not all sunshine and rainbows rocky,,4,0,∞,0%,,6,1
never let anyone tell you you can not do something,∞,4,0,∞,0%,,1,
best of socrates,∞,4,0,∞,0%,,8.8,
nick vujicic photos,-56%,4,0,∞,0%,,1,
why do we fall motivational,∞,4,0,∞,0%,,9.5,
motivational 9gag,100%,4,0,-100%,0%,-50,5.3,0.8
cristiano ronaldo motivational,-33%,4,0,∞,0%,,1,
rocky no matter how hard you get hit,∞,4,0,∞,0%,,4.3,
overcoming hopelessness quotes,100%,4,0,∞,0%,,4,1
mewtwo it is not the circumstances,100%,4,0,∞,0%,,6.5,0.5
rocky balboa the world,∞,4,0,∞,0%,,3.5,
powerful positive quotes,∞,4,0,∞,0%,,1,
pursuit of happiness don't let anyone,∞,4,0,∞,0%,,7.8,
snoppy quotes,∞,4,0,∞,0%,,1,
snoopy quotes and pictures,33%,4,0,∞,0%,,1,
all sunshine and rainbows,33%,4,0,∞,0%,,3.5,-0.8
rocky keep moving forward quote,100%,4,0,∞,0%,,1.8,2
sam berns marching band,∞,4,0,∞,0%,,5.5,
world ain't sunshine and rainbows,-20%,4,0,∞,0%,,1,
wolf of wallstreet motivation,300%,4,0,∞,0%,,5.5,0.5
nick vuijcic,-81%,4,0,∞,0%,,11,-1
hawking leave,∞,4,0,∞,0%,,43,
rocky balboa inspirational speech,∞,4,0,∞,0%,,3,
socrates love quote,100%,4,0,∞,0%,,2,
rocky balboa keep moving forward quote,∞,4,0,∞,0%,,3.5,
never give up quotes by nick vujicic,∞,4,0,∞,0%,,8.8,
snoopy qoutes,∞,4,0,∞,0%,,1,
man in the arena by theodore roosevelt,-33%,4,0,∞,0%,,2,1
nick vujicic images,-78%,4,0,∞,0%,,1,
rocky balboa quotes about life,∞,4,0,∞,0%,,1,
motivational quotes rocky,,4,0,∞,0%,,1,
cristiano ronaldo motivational quotes,100%,4,0,∞,0%,,1,
wolf of wall street motivational,∞,4,0,∞,0%,,6.5,
keep moving forward quotes rocky,∞,4,0,∞,0%,,1.3,
rocky life ain't all sunshine rainbows,-60%,4,0,∞,0%,,1.3,0.8
alibaba jack ma quotes,∞,4,0,∞,0%,,1.3,
nick vijicic,-95%,4,0,∞,0%,,6,4
rocky balboa speech motivation,∞,4,0,∞,0%,,4.3,
nick wujicic,,3,0,∞,0%,,11,-3
no rest is worth anything except the rest that is earned übersetzung,∞,3,0,∞,0%,,10,
world ain't all sunshine and rainbows,-50%,3,0,∞,0%,,2.3,-1
snoopy picture quotes,∞,3,0,∞,0%,,1,
keep moving forward rocky balboa,∞,3,0,∞,0%,,1,
it's not all sunshine and rainbows,-57%,3,0,∞,0%,,9,-2
rocky balboa hit as hard as life,∞,3,0,∞,0%,,8.7,
the world ain't no sunshine and rainbows,-86%,3,0,∞,0%,,4.3,-0.6
i am not what happened to me but what i choose to become,50%,3,0,∞,0%,,4.3,4
it ain't about how hard you hit speech,∞,3,0,∞,0%,,4.3,
when i'm sad i stop being sad and be awesome instead,-40%,3,0,∞,0%,,6.3,-3
flying higher rocky,50%,3,0,∞,0%,,9.7,1
motivational quotes photos,∞,3,0,∞,0%,,1,
wolf of wall street pick up the phone quote,∞,3,0,∞,0%,,9,
rocky balboa quotes the world ain't all sunshine and rainbows,-40%,3,0,∞,0%,,1,
rocky balboa it's about how hard,∞,3,0,∞,0%,,8.7,
leonardo dicaprio wolf of wall street quote,∞,3,0,∞,0%,,10,
nick vujicic.,-87%,3,0,∞,0%,,11,-0.4
hey don't ever let somebody tell you,∞,3,0,∞,0%,,5,
henry david thoreau simplicity,50%,3,0,∞,0%,,12,5
rocky balboa quote it's not how hard,50%,3,0,∞,0%,,6.3,-0.3
mentalist frittering,-25%,3,0,∞,0%,,5.7,
pick up the phone and start dialing wolf of wall street,∞,3,0,∞,0%,,8,
stephen hawking motivation,∞,3,0,∞,0%,,10,
alone we can do so little together we can do so much meaning,50%,3,0,∞,0%,,7,-2
nic vujicic,-95%,3,0,∞,0%,,7.7,2
i am not what happened to me quote,∞,3,0,∞,0%,,3,
rocky hit quote,∞,3,0,∞,0%,,5.7,
snoopy i love you images,-67%,3,0,∞,0%,,1,
rocky quote it's not how hard you hit,200%,3,0,∞,0%,,5.3,-1
life hits hard rocky balboa,50%,3,0,∞,0%,,6,
newton giants,200%,3,0,∞,0%,,14,-5
don't let anyone tell you what you can't do,∞,3,0,∞,0%,,5.7,
life is not rainbows and sunshine,50%,3,0,∞,0%,,6,-1
motivational speech rocky balboa,50%,3,0,∞,0%,,4,-0.5
theodore roosevelt man in the arena speech,50%,3,0,∞,0%,,8.7,0.3
rocky quotes it's not about how hard,50%,3,0,∞,0%,,9,
the world ain't all sunshine,-57%,3,0,∞,0%,,1,
never let someone tell you you can't,∞,3,0,∞,0%,,4,
travelling to infinity my life with stephen quotes,200%,3,0,-100%,0%,-100,8.3,-4
pictures of nick vujicic,-67%,3,0,∞,0%,,1,
don't let someone tell you you can't,∞,3,0,∞,0%,,8,
are the ones who do,-57%,3,0,∞,0%,,4.7,2
socrates quotes about love,∞,3,0,∞,0%,,2,
nick.vujicic,-25%,3,0,∞,0%,,1.7,7
tell someone not to do something,∞,3,0,∞,0%,,6,
quotes basketball tagalog,∞,3,0,∞,0%,,1,
socrates life quotes,200%,3,0,∞,0%,,3,
don't let anybody tell you you can't do something,,3,0,∞,0%,,7.7,-0.7
life hits hard quotes,200%,3,0,∞,0%,,1.7,-0.7
the wolf of wall street i'm not leaving,200%,3,0,∞,0%,,10,
trying hard now,-25%,3,0,∞,0%,,14,-0.7
nick vojicic,-80%,3,0,∞,0%,,7.7,2
quotes by rocky balboa,-73%,3,0,∞,0%,,1.3,1
basketball quotes 2014,∞,3,0,∞,0%,,1,
rocky balboa quotes life,∞,3,0,∞,0%,,1,
wolf of wall street im not fucking leaving,∞,3,0,∞,0%,,9.3,
theodore roosevelt quotes the man in the arena,-25%,3,0,∞,0%,,3,1
leonardo dicaprio monologue wolf of wall street,∞,3,0,∞,0%,,9,
motivation rocky balboa,50%,3,0,∞,0%,,2,-0.5
rocky balboa how hard you hit,∞,3,0,∞,0%,,6.3,
snoopy with quotes,∞,3,0,∞,0%,,1,
"""the little idiosyncrasies that only i knew about. that's what made her my wife. oh, and she had the goods on me, too, she knew all my little peccadillos. people call these things imperfections, but they're not, aw, that's the good stuff. and then we get to choose who we let in to our weird little worlds. you're not perfect, sport. and let me save you the suspense. this girl you met, she isn't perfect either. but the question is: whether or not you're perfect for each other. that's the whole deal. that's what intimacy is all about. now you can know everything in the world, sport, but the only way you're findin' out that one is by givin' it a shot. you certainly won't learn from an old fucker like me. even if i did know, i wouldn't tell a piss ant like you.""",∞,3,0,∞,0%,,6.3,
the theory of everything quotes,-80%,2,0,-100%,0%,-20,24,-3
quotes of rocky balboa,,2,0,∞,0%,,1,
average minds discuss events meaning,∞,2,0,∞,0%,,6,
it is what you do with the gift of life,∞,2,0,∞,0%,,7,
rocky balboa quotes images,∞,2,0,∞,0%,,1,
no one is ready for a thing until he,∞,2,0,∞,0%,,5,
life's not all sunshine and rainbows,∞,2,0,∞,0%,,2,
rock balboa quotes,∞,2,0,∞,0%,,1,
wisdom quotes socrates,∞,2,0,∞,0%,,3,
want somebody doing something,∞,2,0,∞,0%,,5.5,
donald trump motivational speech,∞,2,0,∞,0%,,6,
man in the arena teddy roosevelt,∞,2,0,∞,0%,,3,
life ain't about sunshine and rainbows,100%,2,0,∞,0%,,1,
steve jobs if today were the last day of my life text,∞,2,0,∞,0%,,4,
i see now that the circumstances mewtwo,∞,2,0,∞,0%,,6.5,
leonardo dicaprio im not fucking leaving,,2,0,∞,0%,,4.5,3
"you got a dream... you gotta protect it. people can't do somethin' themselves, they wanna tell you you can't do it. if you want somethin', go get it. period.",∞,2,0,∞,0%,,7.5,
life ain't all about sunshine and rainbows,100%,2,0,∞,0%,,1,
rocky balboa quote,,2,0,∞,0%,,1,0.5
cristiano motivation,∞,2,0,∞,0%,,1,
how to know when to let someone go,∞,2,0,∞,0%,,10,
how to let go of someone you can't be with,100%,2,0,∞,0%,,11,30
there should be no boundaries to human endeavor quote,100%,2,0,∞,0%,,18,-7
the world aint sunshine and rainbows,-60%,2,0,∞,0%,,3,-0.7
pickup fuck full,∞,2,0,∞,0%,,29,
motivational video why do we fall,,2,0,∞,0%,,9,0.5
rocky get hit and keep moving forward,-33%,2,0,∞,0%,,7.5,-1
don't let anyone tell you you can't do something pursuit of happiness,,2,0,∞,0%,,8.5,-0.5
how to stop looking sad,∞,2,0,∞,0%,,5,
san zi jing simplified chinese,∞,2,0,∞,0%,,11,
the arena theodore,100%,2,0,∞,0%,,5,
nick vujvic,,2,0,∞,0%,,11,-10
change of mindset quotes,-33%,2,0,∞,0%,,1.5,2
wolf of wall street i am not leaving,100%,2,0,-100%,0%,-100,8,2
an unexamined life quote,∞,2,0,∞,0%,,7,
9gag motivational quotes,-50%,2,0,-100%,0%,-20,3,
rocky quote,∞,2,0,∞,0%,,1,
i love you this much snoopy,100%,2,0,∞,0%,,1,
snoopy quotes love,100%,2,0,∞,0%,,1,
nick vujicie,-33%,2,0,∞,0%,,11,-3
michael jordan bill gates 9gag,∞,2,0,∞,0%,,2,
socrates knowledge quote,100%,2,0,∞,0%,,9,2
isaac newton shoulders of giants quote,100%,2,0,∞,0%,,4.5,4
wolf on wall street motivational speech,,2,0,-100%,0%,-50,3.5,2
new mindset quotes,∞,2,0,∞,0%,,4,
steve jobs the only way to do,∞,2,0,∞,0%,,3,
keep it up rocky 5,∞,2,0,∞,0%,,5,
rocky quote it ain't about how hard,∞,2,0,∞,0%,,8,
dangerous minds quotes,∞,2,0,∞,0%,,30,
wolf of wall street not leaving,,2,0,∞,0%,,10,
the starry heavens above me,∞,2,0,∞,0%,,9,
nick vujicic motivational quotes,∞,2,0,∞,0%,,21,
corporate presentations nick vujicic,-33%,2,0,∞,0%,,22,-10
nick vujicic worth,100%,2,0,∞,0%,,6,-3
pursuit of happiness don't ever let somebody,-50%,2,0,∞,0%,,7,
you want something go get it period meaning,∞,2,0,∞,0%,,9.5,
teddy roosevelt quotes man in the arena,∞,2,0,∞,0%,,4,
rocky quote the world ain't all sunshine,-33%,2,0,∞,0%,,1,1
socrates the unexamined life is not worth living,-78%,2,0,∞,0%,,10,-1
9gag motivational,,2,0,∞,0%,,6,-1
rocky balboa it's not about how hard you can get hit,∞,2,0,∞,0%,,1,
"some people are so poor, all they have is money",100%,2,0,∞,0%,,1,
nick vujiic,,2,0,∞,0%,,11,
motivation quotes images,∞,2,0,∞,0%,,44,
rocky qotes,∞,2,0,∞,0%,,1.5,
wolf of wall street script,∞,2,0,∞,0%,,36,
mewtwo speech,,2,0,∞,0%,,4,
photos of nick vujicic,∞,2,0,∞,0%,,1,
breakfast club quotes dear mr vernon,∞,2,0,∞,0%,,23,
steve jobs if you love what you do,∞,2,0,∞,0%,,3,
motivational quotes,,2,0,∞,0%,,3,90
don't ever let anyone tell you can't do something,∞,2,0,∞,0%,,8,
dangerous minds script,∞,2,0,∞,0%,,9.5,
socrates an unexamined life quote,∞,2,0,∞,0%,,10,
life ain't sunshine and rainbows,,2,0,∞,0%,,1,1
rich man rich mind,100%,2,0,∞,0%,,2,1
motivational images,∞,2,0,∞,0%,,75,
why do we fall motivational speech lyrics,∞,2,0,∞,0%,,10,
nik vuicic,,2,0,∞,0%,,11,
images of nick vujicic,-85%,2,0,∞,0%,,1,
a true test of a man's character,∞,2,0,∞,0%,,4,
nick-vujicic,-67%,2,0,∞,0%,,11,
alone we can do so little meaning,∞,2,0,∞,0%,,4,
barney when i'm sad,,2,0,∞,0%,,1,
sam berns philosophy for a happy life,-60%,2,0,∞,0%,,8.5,-0.9
nick vujicic imagenes,,2,0,∞,0%,,1,
true test of a man's character quotes,-33%,2,0,∞,0%,,5.5,-0.2
pursuit of happiness quote don't ever let,,2,0,∞,0%,,6.5,0.5
no pay no gain,∞,2,0,∞,0%,,7,
rocky balboa saying,-75%,2,0,∞,0%,,4,0.8
the only one who can tell you you can't is you,∞,2,0,∞,0%,,6.5,
rocky quote it's about how hard you hit,-60%,2,0,∞,0%,,6.5,
rocky speech,∞,2,0,∞,0%,,5,
sam berns,∞,2,0,∞,0%,,110,
socrates unexamined life quote,100%,2,0,∞,0%,,11,-4
rocky balboa it's not how hard you can hit,∞,2,0,∞,0%,,4.5,
isaac newton giants quote,100%,2,0,∞,0%,,3.5,6
think and grow rich by napoleon hill pdf,∞,2,0,∞,0%,,49,
im not fucking leaving wolf of wall street,∞,2,0,∞,0%,,10,
im not fucking leaving,∞,2,0,∞,0%,,9.5,
nivk vujicic,∞,2,0,∞,0%,,11,
i am the master of my fate i am the captain of my soul traduction,100%,2,0,∞,0%,,6,
wisdom of ages,∞,2,0,∞,0%,,8.5,
balboa life,∞,2,0,∞,0%,,9,
when i'm sad i am sad,,2,0,∞,0%,,2,
snoopy sentences,∞,2,0,∞,0%,,1,
your time is limited so don't waste,∞,2,0,∞,0%,,12,
rocky it ain't about how hard you hit speech,∞,2,0,∞,0%,,7,
motivational speeches transcripts,∞,2,0,∞,0%,,24,
carl jung i am not what,∞,2,0,∞,0%,,6,
the world's not all sunshine and rainbows,,2,0,∞,0%,,6.5,0.5
rocky balboa winning quote,100%,2,0,∞,0%,,5.5,0.5
life is not always sunshine and rainbows,∞,2,0,∞,0%,,4,
rocky balboa winning speech,100%,2,0,∞,0%,,7,-1
wolf of wall street i'm not fucking leaving,∞,2,0,∞,0%,,9.5,
nick vujisic,-88%,2,0,∞,0%,,2,7
nick bujisic,∞,2,0,∞,0%,,11,
shoulders of giants quotes,,2,0,∞,0%,,8.5,
all sunshine names,,2,0,∞,0%,,4.5,-0.5
nick vujick,-88%,2,0,∞,0%,,1.5,8
rocky trying hard now,∞,2,0,∞,0%,,9.5,
rocky balboa inspirational quotes,∞,2,0,∞,0%,,1,
motivational quotes rocky balboa,100%,2,0,∞,0%,,1,
don't ever let somebody tell you pursuit happiness,,2,0,∞,0%,,8,
youtube wolf of wall street speech,∞,2,0,∞,0%,,9.5,
socrates greatest quotes,∞,2,0,∞,0%,,5,
nick juvicic,-82%,2,0,∞,0%,,11,-2
best quotes from socrates,100%,2,0,∞,0%,,4,2
"i am not what happened to me, i am what i choose to become.",∞,2,0,∞,0%,,1.5,
in the arena roosevelt,,2,0,∞,0%,,4.5,-0.5
no one wants to die steve jobs,-33%,2,0,∞,0%,,3.5,0.8
nick vujicic speeches,∞,2,0,∞,0%,,9,
best rocky balboa quotes,-33%,2,0,∞,0%,,3,1
dr seuss quotes be who you are and say,∞,2,0,∞,0%,,3,
yellow wood robert frost,∞,2,0,∞,0%,,47,
loyalty is a two way street if im asking it from you,∞,2,0,∞,0%,,8,
rocky 6 motivational speech,∞,2,0,∞,0%,,3,
the wolf of wall street quotes,∞,2,0,∞,0%,,46,
i may not be there yet but i'm closer than i was yesterday übersetzung,∞,2,0,∞,0%,,2,
test a mans character quote,∞,2,0,∞,0%,,5.5,
when i feel sad i stop and be awesome,-50%,2,0,∞,0%,,1.5,1
henry david thoreau dead poets society,∞,2,0,∞,0%,,8,
no matter how hard you hit rocky,100%,2,0,∞,0%,,7.5,-6
why do we fall motivation,∞,2,0,∞,0%,,9.5,
keep moving forward rocky quote,∞,2,0,∞,0%,,1,
isaac newton shoulders of giants,100%,2,0,∞,0%,,6,2
nick socrates,∞,2,0,∞,0%,,10,
steve jobs quote for the past 33 years,∞,2,0,∞,0%,,4,
i see now that the circumstances,∞,2,0,∞,0%,,24,
hope your day went well quotes,∞,2,0,∞,0%,,1,
quotes from socrates about life,∞,2,0,∞,0%,,3,
rocky balboa quites,∞,2,0,∞,0%,,1,
socrates quotes about god,,2,0,∞,0%,,2,1
the wolf of wall street quotes tumblr,∞,2,0,∞,0%,,27,
rocky balboa motivational speech,-60%,2,0,∞,0%,,3,1
steve jobs quotes socrates,100%,2,0,∞,0%,,1,2
wolf of wall street i ain't leaving,,2,0,∞,0%,,7.5,
socrates quotes on love,-67%,2,0,∞,0%,,2,0.5
nick vujicic quotes about love,100%,2,0,∞,0%,,1,1
pick up the phone quotes,∞,2,0,∞,0%,,19,
almost everything all external expectations,100%,2,0,∞,0%,,4,2
nick vujicic words,∞,2,0,∞,0%,,1,
pursuit of happiness don't let anyone tell you,-50%,2,0,-100%,0%,-50,7,
rocky no one hits as hard as life,∞,1,0,∞,0%,,9,
socrates citizen of the world,∞,1,0,∞,0%,,11,
fitness motivational,∞,1,0,∞,0%,,12,
i took the road,,1,0,∞,0%,,7,
tell someone to do something,-75%,1,0,∞,0%,,6,2
roosevelt quote credit belongs to the man,∞,1,0,∞,0%,,9,
they told me i didn't understand the assignment,∞,1,0,∞,0%,,6,
danbo quotes,,1,0,-100%,0%,-100,19,5
quotes by socrates about life,-50%,1,0,∞,0%,,4,-0.5
"""the only way to keep your health is to eat what you don't want, drink what you don't like, and do what you'd rather not. """,∞,1,0,∞,0%,,40,
street fuck job,∞,1,0,∞,0%,,9,
rocky v quote,∞,1,0,∞,0%,,7,
teddy roosevelt arena,∞,1,0,∞,0%,,4,
isaac newton speech,∞,1,0,∞,0%,,9,
nick vujicic job,-75%,1,0,∞,0%,,9,2
the true test of a man’s character is what he does when no one is watching,-67%,1,0,∞,0%,,3,0.3
images motivation,∞,1,0,∞,0%,,34,
rocky balboa flying high now,∞,1,0,∞,0%,,9,
rocky quoted,∞,1,0,∞,0%,,1,
nick vujicic:,-86%,1,0,∞,0%,,11,
stephen hawking theory,∞,1,0,∞,0%,,4,
citizen of the world socrates,∞,1,0,∞,0%,,10,
niko vujicic,-67%,1,0,∞,0%,,11,-3
nick vujicuc,,1,0,∞,0%,,11,-10
nick vujicc,-80%,1,0,∞,0%,,11,-4
rocky balboa inspirational speech text,-50%,1,0,∞,0%,,5,
motivation to be the best,∞,1,0,∞,0%,,2,
thousand character classic,∞,1,0,∞,0%,,25,
socrates law quotes,∞,1,0,∞,0%,,3,
nick vujicic pictures,-94%,1,0,∞,0%,,1,
steve jobs motivational quotes,,1,0,∞,0%,,46,-1
trying hard now rocky,∞,1,0,∞,0%,,9,
pics of rocky balboa,-67%,1,0,∞,0%,,1,
pick up the phone and dial,∞,1,0,∞,0%,,7,
rocky balboa quotes life aint about,∞,1,0,∞,0%,,9,
world is not all sunshine and rainbows,-50%,1,0,∞,0%,,9,-4
the circumstances of one's birth are irrelevant,∞,1,0,∞,0%,,19,
teddy roosevelt speech man in the arena,∞,1,0,∞,0%,,9,
quote snoopy,∞,1,0,∞,0%,,1,
i love you snoopy images,-67%,1,0,∞,0%,,1,
steve madden speech,∞,1,0,∞,0%,,14,
now if you know what you're worth rocky,-75%,1,0,∞,0%,,7,0.3
whatever the mind of man can conceive and believe it can achieve,∞,1,0,∞,0%,,10,
napoleon words,,1,0,∞,0%,,2,4
rocky balboa speech quote,∞,1,0,∞,0%,,6,
nick vujicici,-91%,1,0,∞,0%,,11,-1
these evening,∞,1,0,∞,0%,,130,
at 14 they asked me what i wanted to be,∞,1,0,∞,0%,,8,
pickup fucking,∞,1,0,∞,0%,,23,
wolf of wall street pick up the phone and start dialing quote,∞,1,0,∞,0%,,5,
rocky the world ain't all sunshine and rainbows,-75%,1,0,∞,0%,,1,0.3
nick vijucik,,1,0,∞,0%,,11,
nick vujcici,-50%,1,0,∞,0%,,11,-4
sam berns happy life,-50%,1,0,∞,0%,,4,1
socrates quotes on friendship,∞,1,0,∞,0%,,3,
nick vijic,-80%,1,0,∞,0%,,11,-4
nick vijcic,-75%,1,0,∞,0%,,3,8
and that made all the difference frost,∞,1,0,∞,0%,,10,
nick vujicic picture,,1,0,∞,0%,,1,
when i feel sad i stop being sad,∞,1,0,∞,0%,,8,
braveheart motivation,∞,1,0,∞,0%,,10,
shoulder of giants newton quote,,1,0,∞,0%,,18,-8
the man in the arena quote,,1,0,∞,0%,,1,1
why we fall motivational video,∞,1,0,∞,0%,,10,
alex vujicic,∞,1,0,∞,0%,,3,
nick vujicic speech video,∞,1,0,∞,0%,,28,
when im sad i,∞,1,0,∞,0%,,1,
gonna fly now rocky,∞,1,0,∞,0%,,42,
wolf of wall street start dialing,,1,0,∞,0%,,10,-1
quotes about basketball tagalog,∞,1,0,∞,0%,,1,
sam berns philosophy,,1,0,∞,0%,,8,6
quote from rocky balboa,∞,1,0,∞,0%,,2,
napoleon hill pdf think and grow rich,∞,1,0,∞,0%,,40,
napoleon hill think and grow rich pdf,-50%,1,0,∞,0%,,48,4
i've been a rich man and a poor man,∞,1,0,∞,0%,,18,
shoulder of giants quote,,1,0,∞,0%,,10,-5
nick fujicic,-86%,1,0,∞,0%,,11,-1
wolf wall street speech,-75%,1,0,∞,0%,,6,-0.2
flynow.com,∞,1,0,∞,0%,,93,
don't ever let somebody tell you you can't,-91%,1,0,-100%,0%,-9,6,2
napolean hill quotes,∞,1,0,∞,0%,,4,
napoleon hill what the mind of man,-50%,1,0,∞,0%,,5,
i see now that the circumstances of one's birth are irrelevant quote,∞,1,0,∞,0%,,19,
nick vuji,-98%,1,0,∞,0%,,2,8
quotes mentalist,∞,1,0,∞,0%,,1,
socrates i know nothing,-50%,1,0,∞,0%,,39,-3
find what you love steve jobs,∞,1,0,∞,0%,,3,
quote rocky balboa,,1,0,∞,0%,,1,
"""the only way to keep your health is to eat what you don't want, drink what you don't like and do what you'd rather not. """,∞,1,0,∞,0%,,40,
your rainbow will come smiling through,,1,0,∞,0%,,9,1
steve madden evict,∞,1,0,∞,0%,,30,
stand on the shoulder of giants quote,∞,1,0,∞,0%,,9,
people who cant let things go,∞,1,0,∞,0%,,5,
rocky saying,-50%,1,0,∞,0%,,5,4
rocky hard,∞,1,0,∞,0%,,10,
the theory of everything quote,∞,1,0,∞,0%,,26,
don't let anybody tell you who you are,∞,1,0,∞,0%,,7,
when everything's falling apart quotes,∞,1,0,∞,0%,,3,
nick vijicik,,1,0,∞,0%,,11,-10
rocky gonna fly now,∞,1,0,∞,0%,,77,
letting go poem author unknown,∞,1,0,∞,0%,,10,
newton quotes giants,∞,1,0,∞,0%,,5,
carl jung i am not what happened to me,∞,1,0,∞,0%,,3,
do you like hugs,∞,1,0,∞,0%,,7,
nick vjucic,-67%,1,0,∞,0%,,11,
quotes nick vujicic,-50%,1,0,∞,0%,,23,-20
im not fucking leaving wolf,∞,1,0,∞,0%,,7,
socrates meaning of life quote,∞,1,0,∞,0%,,10,
strong minds discuss ideas,,1,0,∞,0%,,4,
nick vuic,,1,0,∞,0%,,11,
rocky quots,,1,0,∞,0%,,1,
rocky quites,∞,1,0,∞,0%,,1,
nick jujicic,,1,0,∞,0%,,11,
i aint fucking leaving wolf of wall street,,1,0,∞,0%,,7,2
character is how you treat those quote,,1,0,∞,0%,,1,1
don't wait for the perfect moment take the moment and make it perfect übersetzung,∞,1,0,∞,0%,,1,
nick vojcic,-80%,1,0,∞,0%,,11,-2
mentalist script,,1,0,∞,0%,,46,
mew two quote,∞,1,0,∞,0%,,2,
don't let others tell you what to do,-50%,1,0,∞,0%,,5,2
snoopy quotes on love,∞,1,0,∞,0%,,1,
don't let anyone tell you that you can't do something,-50%,1,0,∞,0%,,7,-0.5
pick up the phone and start dialing speech,,1,0,-100%,0%,-100,4,-2
love quotes socrates,-67%,1,0,∞,0%,,2,2
sometimes when i'm sad i stop being sad,-50%,1,0,∞,0%,,6,-3
the world aint all sunshine,-67%,1,0,∞,0%,,1,
captain motivation,∞,1,0,∞,0%,,8,
rocky motivational,∞,1,0,∞,0%,,4,
think and grow rich napoleon hill pdf,,1,0,∞,0%,,45,8
nick vuijici,-83%,1,0,∞,0%,,11,0.2
why do we fail motivational,∞,1,0,∞,0%,,10,
stopping by woods on a snowy evening,∞,1,0,∞,0%,,67,
tagalog basketball quotes,∞,1,0,∞,0%,,1,
breakfast club time,∞,1,0,∞,0%,,10,
wolf of wall street speech quote,-50%,1,0,∞,0%,,9,
nick vujecic,,1,0,∞,0%,,11,
giants quote,-50%,1,0,∞,0%,,8,0.5
rocky life hits hard,,1,0,∞,0%,,9,1
rocky balboa best quotes,-67%,1,0,∞,0%,,1,1
motivation rocky,∞,1,0,∞,0%,,37,
don't ever let a man tell you who you are,∞,1,0,∞,0%,,7,
it is what you do with the gift of life that determines who you are,,1,0,∞,0%,,8,1
i am not what has happened to me but what i choose to become,∞,1,0,∞,0%,,1,
nick vujcik,-75%,1,0,∞,0%,,11,
motivational speech rocky,∞,1,0,∞,0%,,4,
happiness is anything and anyone that is loved by you,,1,0,∞,0%,,8,1
napoleon hill think grow rich pdf,∞,1,0,∞,0%,,52,
let me tell you something you already know,∞,1,0,∞,0%,,30,
quotes about things going wrong,∞,1,0,∞,0%,,3,
we are closer than quotes,∞,1,0,∞,0%,,3,
rocky quote keep moving forward,-50%,1,0,∞,0%,,1,
rocky balboa that's how winning is done quote,∞,1,0,∞,0%,,5,
c ronaldo motivation,-50%,1,0,∞,0%,,1,2
become sad,∞,1,0,∞,0%,,15,
nick jucivic,-50%,1,0,∞,0%,,11,
rocky speach,∞,1,0,∞,0%,,5,
when i get sad i stop being sad and be awesome instead traduction,-88%,1,0,∞,0%,,1,0.6
napoleon hill,∞,1,0,∞,0%,,11,
dwayne johnson before and after 9gag,∞,1,0,∞,0%,,35,
motivational videos why do we fall,∞,1,0,∞,0%,,16,
"the little idiosyncrasies that only i knew about. that's what made her my wife. oh, and she had the goods on me, too, she knew all my little peccadillos. people call these things imperfections, but they're not, aw, that's the good stuff. and then we get to choose who we let in to our weird little worlds. you're not perfect, sport. and let me save you the suspense. this girl you met, she isn't perfect either. but the question is: whether or not you're perfect for each other. that's the whole deal. that's what intimacy is all about. now you can know everything in the world, sport, but the only way you're findin' out that one is by givin' it a shot. you certainly won't learn from an old fucker like me. even if i did know, i wouldn't tell a piss ant like you.",∞,1,0,∞,0%,,10,
just do it motivational video,∞,1,0,∞,0%,,33,
the mentalist best quotes,∞,1,0,∞,0%,,6,
motivation images,∞,1,0,∞,0%,,40,
nick vujinic,-96%,1,0,∞,0%,,11,-0.8
basketball captain quotes,∞,1,0,∞,0%,,8,
nick vujicic don't give up,∞,1,0,∞,0%,,1,
leonardo dicaprio wall,∞,1,0,∞,0%,,70,
napoleon hill rich,∞,1,0,∞,0%,,13,
life ain't rainbows and sunshine,-50%,1,0,∞,0%,,1,
mistakes are always forgivable if one has the courage to admit them meaning,,1,0,∞,0%,,3,
nick vucinic,-92%,1,0,∞,0%,,11,
jaden mcraven,∞,1,0,∞,0%,,49,
don't let somebody tell you that you can't do something,-67%,1,0,∞,0%,,6,1
daily dose of motivation,∞,1,0,∞,0%,,8,
rocky motivation quotes,-75%,1,0,∞,0%,,1,
rocky balbao quotes,-50%,1,0,∞,0%,,1,
theodore roosevelt the man in the arena speech,-50%,1,0,∞,0%,,10,
i see now that the circumstances of one's birth are irrelevant meaning,∞,1,0,∞,0%,,11,
snoopy love quotes,∞,1,0,∞,0%,,30,
stephen hawking quotes love,∞,1,0,∞,0%,,47,
robert williams mentalist,∞,1,0,∞,0%,,31,
stephen hawking human endeavor quote,∞,1,0,∞,0%,,10,
theory of everything quotes,∞,1,0,∞,0%,,32,
the world ain't sunshine and rainbows quote,-50%,1,0,∞,0%,,1,2
nick fujivic,-83%,1,0,∞,0%,,11,-8
i am not what happened to me. i am what i choose to become,-75%,1,0,∞,0%,,1,
flying high now rocky,∞,1,0,∞,0%,,14,
the world aint all,∞,1,0,∞,0%,,5,
pick up the phone and start dialling,∞,1,0,∞,0%,,6,
rocky flying high now,∞,1,0,∞,0%,,19,
rocky nobody hits harder than life,∞,1,0,∞,0%,,4,
don't ever let anyone tell you you can't,∞,1,0,∞,0%,,8,
rocky balboa sunshine and rainbows quote,∞,1,0,∞,0%,,4,
shine motivation,,1,0,∞,0%,,41,-20
nick vujicic greek,∞,1,0,∞,0%,,3,
socrates quotes about life,-80%,1,0,∞,0%,,3,3
when i feel sad i stop being sad and be awesome instead,∞,1,0,∞,0%,,1,
quotes from rocky 5,,1,0,∞,0%,,4,-1
nicki vujicic,-89%,1,0,∞,0%,,11,
socrates quotes death,,1,0,∞,0%,,10,
great minds talk about ideas socrates,-50%,1,0,∞,0%,,5,-2
motivation quotes image,∞,1,0,∞,0%,,1,
don't ever let someone,∞,1,0,∞,0%,,9,
your mind is a powerful thing quotes,,1,0,∞,0%,,1,1
tell someone not to do something but you do it,∞,1,0,∞,0%,,8,
snoopy where are you,∞,1,0,∞,0%,,1,
loyalty is a two way street if i'm asking,∞,1,0,∞,0%,,5,
theodore roosevelt quote man in the arena,∞,1,0,∞,0%,,3,
"to know, is to know that you know nothing. that is the meaning of true knowledge.",∞,1,0,∞,0%,,9,
as with all matters of the heart you'll know when you find it,∞,1,0,∞,0%,,7,
i see now that the circumstances of one's birth are irrelevant it is what you do,∞,1,0,∞,0%,,13,
what happened to me today,∞,1,0,∞,0%,,5,
nick vijici,-92%,1,0,∞,0%,,11,-2
nick vjicic,-83%,1,0,∞,0%,,1,7
motivational images with quotes,∞,1,0,∞,0%,,64,
dont ever let someone tell you,∞,1,0,∞,0%,,8,
external expectations,∞,1,0,∞,0%,,7,
nich vujicic,-83%,1,0,∞,0%,,11,-1
i'm not fucking leaving,∞,1,0,∞,0%,,8,
script for wolf of wall street,∞,1,0,∞,0%,,34,
it's not always sunshine and rainbows,-50%,1,0,∞,0%,,9,-5
isaac newton quote giants,∞,1,0,∞,0%,,3,
don't let anyone tell you you can't,∞,1,0,∞,0%,,7,
something to make for breakfast,∞,1,0,∞,0%,,10,
picture of nick vujicic,-50%,1,0,∞,0%,,1,
the credit goes to the man in the arena,,1,0,∞,0%,,9,
quote about everything going wrong,∞,1,0,∞,0%,,1,
yoda motivation,,1,0,∞,0%,,9,
"the woods are lovely, dark, and deep, but i have promises to keep, and miles to go before i sleep",∞,1,0,∞,0%,,45,
let me tell you something you already know rocky,∞,1,0,∞,0%,,39,
quotes by nick vujicic,,1,0,∞,0%,,19,-20
rocky balboa gonna fly now,∞,1,0,∞,0%,,10,
生于忧患死于安乐,∞,1,0,∞,0%,,10,
quotes on giants,∞,1,0,∞,0%,,4,
rocky let me tell you something quote,∞,1,0,∞,0%,,6,
rocky quptes,,1,0,∞,0%,,1,
is this what you want don't tell anybody ever video,-67%,1,0,∞,0%,,5,-1
robert frost yellow wood,∞,1,0,∞,0%,,32,
the world ain't all sunshine and rainbows speech,-50%,1,0,∞,0%,,1,
change mindset quotes,-80%,1,0,∞,0%,,1,2
sad awesome instead,∞,1,0,∞,0%,,38,
i ain't leaving wolf of wall street,∞,1,0,∞,0%,,8,
leonardo dicaprio speech transcript,-50%,1,0,∞,0%,,10,
the ones who do,∞,1,0,∞,0%,,6,
wolf on wall street motivation,∞,1,0,∞,0%,,6,
nick vugicic,-83%,1,0,∞,0%,,11,-1
i don't do well in math you're right you ain't never studied,∞,1,0,∞,0%,,10,
snoopy quotes about love,,1,0,∞,0%,,1,
life ain't all sunshine and rainbows,-88%,1,0,∞,0%,,3,0.3
snoopy i love you pictures,,1,0,∞,0%,,1,
what screws us up most in life is the picture in our head of how it is supposed to be meaning,∞,1,0,∞,0%,,10,
for the past 33 years i have looked in the mirror,-67%,1,0,∞,0%,,5,3
nick vijuic,-75%,1,0,∞,0%,,11,-7
think grow rich napoleon hill pdf,,1,0,∞,0%,,56,2
ronaldo motivational,,1,0,∞,0%,,1,
rocky balboa quotes getting back up,,1,0,∞,0%,,4,
will smith you have a dream,∞,1,0,∞,0%,,7,
rocky quoyes,∞,1,0,∞,0%,,1,
snoopy quotes for facebook,∞,1,0,∞,0%,,4,
how to tell someone you don't want to do something,∞,1,0,∞,0%,,18,
mewto quotes,∞,1,0,∞,0%,,1,
nick vajicic,-67%,1,0,∞,0%,,11,-3
three character classic,-50%,1,0,-100%,0%,-50,28,-10
"nicholas james ""nick"" vujicic",,1,0,∞,0%,,17,-6
rocky motivation,,1,0,∞,0%,,40,-1
motivational speech transcript,∞,1,0,∞,0%,,37,
henry thoreau,∞,1,0,∞,0%,,1,
spend a little time,∞,1,0,∞,0%,,5,
niki vujicic,-50%,1,0,∞,0%,,11,-5
steve jobs live your own life,∞,1,0,∞,0%,,4,
the man in arena,,1,0,∞,0%,,4,
socrates quotes on success,∞,1,0,∞,0%,,3,
rocky quote how hard you hit,-67%,1,0,∞,0%,,3,1
stephen hawking quote from the theory of everything,∞,1,0,∞,0%,,30,
rocky quates,∞,1,0,∞,0%,,1,
motivation ronaldo,∞,1,0,∞,0%,,1,
when i'm sad awesome,∞,1,0,∞,0%,,17,
rocky balboa pics,∞,1,0,∞,0%,,1,
strong ideas,∞,1,0,∞,0%,,2,
nike vujicic,-67%,1,0,∞,0%,,11,
get on the phone and start dialing,∞,1,0,∞,0%,,10,
mindset change quotes,-75%,1,0,∞,0%,,3,
sunshine and rainbows rocky,,1,0,∞,0%,,8,
i took the one less travelled by,∞,1,0,∞,0%,,10,
love quotes by socrates,,1,0,∞,0%,,2,
you can't do something,∞,1,0,∞,0%,,1,
life ain't all rainbows and sunshine,-50%,1,0,∞,0%,,1,
socrates quote death,∞,1,0,∞,0%,,7,
quotes from rocky 2,∞,1,0,∞,0%,,6,
make something of yourself,∞,1,0,∞,0%,,10,
think & grow rich by napoleon hill pdf,,1,0,∞,0%,,59,
rocky balboa sunshine and rainbows,-86%,1,0,∞,0%,,3,2
socrates wise quotes,∞,1,0,∞,0%,,4,
man fuck wolf,∞,1,0,∞,0%,,46,
when someone does something they tell you not to do,∞,1,0,∞,0%,,2,
the unexamined life is not,∞,1,0,∞,0%,,10,
some inspiration quotes,∞,1,0,∞,0%,,9,
motivation cristiano ronaldo,∞,1,0,∞,0%,,1,
isaac newton if i have seen further,-67%,1,0,∞,0%,,7,8
quotes about your mindset,∞,1,0,∞,0%,,3,
nick vujacic,-94%,1,0,∞,0%,,11,-2
the one where everything goes wrong,∞,1,0,∞,0%,,10,
wolf of wall street leonardo dicaprio quotes,∞,1,0,∞,0%,,10,
nicky vujicic,-75%,1,0,∞,0%,,11,-5
nik vujcic,-90%,1,0,∞,0%,,1,7
street pick up fuck,∞,1,0,∞,0%,,9,
rocky quote life ain't all sunshine,∞,1,0,∞,0%,,1,
when im sad i stop being sad and be awesome instead übersetzung,∞,1,0,∞,0%,,2,
socrates quote wisdom,∞,1,0,∞,0%,,5,
