"UNIQUE WORDs","FREQUENCY COUNT","CHARACTER COUNT","Summed Impressions","Summed Clicks","Summed CTR","Summed Avg. position"
"t","1775","1","28015","15","0.00053542744958058","13.987176165803"
"a","1475","1","28133","15","0.00053318167276863","14.317700258398"
"i","1290","1","24548","14","0.00057031122698387","12.364896755162"
"s","1171","1","12678","14","0.001104275122259","13.839878234399"
"c","612","1","7232","6","0.00082964601769912","16.727016129032"
"in","518","2","21498","1","4.6515954972556E-5","11.702452316076"
"m","478","1","20602","12","0.00058246772158043","15.173979591837"
"quo","305","3","6199","3","0.00048394902403613","10.913770491803"
"quote","304","5","6198","3","0.00048402710551791","10.916776315789"
"v","263","1","5342","12","0.0022463496817671","15.428806584362"
"he","261","2","20077","5","0.00024904119141306","9.5379487179487"
"at","234","2","2346","11","0.004688832054561","14.406103286385"
"on","233","2","2709","12","0.0044296788482835","20.497619047619"
"the","232","3","19997","5","0.00025003750562584","7.0074712643678"
"re","223","2","19428","5","0.00025736051060325","8.8147540983607"
"quotes","208","6","5684","2","0.00035186488388459","13.544230769231"
"it","183","2","883","0","0","8.3165289256198"
"so","156","2","1419","1","0.00070472163495419","10.498039215686"
"no","156","2","1336","1","0.00074850299401198","15.172413793103"
"rock","148","4","3760","0","0","4.925"
"rocky","147","5","3759","0","0","4.9517006802721"
"or","142","2","3171","0","0","13.67969924812"
"ain","142","3","1424","0","0","5.7405660377358"
"you","128","3","504","1","0.001984126984127","9.0295238095238"
"ma","123","2","18445","0","0","10.239024390244"
"are","111","3","19090","1","5.2383446830801E-5","4.8722222222222"
"is","108","2","1269","5","0.003940110323089","13.842857142857"
"and","100","3","1807","1","0.00055340343110127","8.932"
"do","97","2","2741","1","0.00036483035388544","9"
"me","97","2","670","5","0.0074626865671642","19.509210526316"
"socrates","96","8","1220","0","0","6.421875"
"arena","90","5","18615","0","0","4.4933333333333"
"man","87","3","18248","0","0","8.4183908045977"
"out","80","3","462","0","0","8.4418918918919"
"how","76","3","458","0","0","7.2471428571429"
"not","73","3","670","0","0","16.066197183099"
"tr","72","2","531","3","0.0056497175141243","10.741176470588"
"hard","72","4","453","0","0","7.6794117647059"
"motivation","72","10","757","10","0.013210039630119","20.915277777778"
"sunshine","71","8","1273","0","0","4.6591549295775"
"hit","70","3","292","0","0","4.8046875"
"about","68","5","433","0","0","6.5578125"
"balboa","64","6","2990","0","0","4.1578125"
"rainbow","64","7","1196","0","0","4.825"
"of","63","2","618","5","0.0080906148867314","14.450793650794"
"rainbows","62","8","1152","0","0","4.8274193548387"
"all","62","3","926","3","0.0032397408207343","9.8983870967742"
"to","61","2","307","1","0.003257328990228","10.935294117647"
"if","58","2","508","1","0.0019685039370079","12.535087719298"
"be","57","2","270","1","0.0037037037037037","15.50652173913"
"hil","50","3","1190","0","0","14.52"
"life","50","4","479","0","0","9.088"
"speech","46","6","253","3","0.011857707509881","31.060869565217"
"roosevelt","45","9","3638","0","0","4.4444444444444"
"hill","44","4","1167","0","0","15.486363636364"
"napoleon","43","8","1182","0","0","14.493023255814"
"motivational","42","12","281","4","0.01423487544484","22.497619047619"
"world","40","5","729","0","0","4.6675"
"vi","40","2","249","0","0","14.7225"
"for","39","3","197","0","0","27.705128205128"
"mind","36","4","214","0","0","8.440625"
"poet","35","4","104","0","0","29.370967741935"
"am","34","2","111","1","0.009009009009009","14.566666666667"
"society","31","7","109","0","0","21.461290322581"
"now","29","3","261","1","0.0038314176245211","14.348148148148"
"dead","29","4","92","0","0","30.862068965517"
"try","28","3","62","0","0","7.4"
"can","28","3","153","1","0.0065359477124183","6.9392857142857"
"im","28","2","68","0","0","7.7666666666667"
"poets","27","5","98","0","0","33.730769230769"
"thing","27","5","47","0","0","19.952"
"minds","26","5","151","0","0","9.8909090909091"
"get","25","3","77","0","0","4.428"
"one","25","3","309","1","0.0032362459546926","16.508"
"go","25","2","116","0","0","12.392"
"theodore","24","8","2143","0","0","4.2541666666667"
"we","23","2","118","0","0","11.454545454545"
"keep","23","4","164","0","0","4.1173913043478"
"moving","22","6","160","0","0","3.9863636363636"
"forward","22","7","160","0","0","3.9863636363636"
"best","21","4","121","0","0","14.052631578947"
"don","21","3","51","0","0","8.975"
"us","21","2","104","0","0","18.582352941176"
"as","21","2","147","0","0","28.29"
"vujicic","20","7","277","0","0","8.315"
"nick","19","4","273","0","0","8.9684210526316"
"think","19","5","576","0","0","24.647368421053"
"sad","19","3","63","0","0","13.684615384615"
"our","19","3","99","0","0","16.588235294118"
"know","19","4","202","0","0","15.152941176471"
"rich","18","4","560","0","0","29.24375"
"when","17","4","200","0","0","11.276470588235"
"by","17","2","290","0","0","34.717647058824"
"that","17","4","104","1","0.0096153846153846","6.7882352941176"
"love","17","4","155","1","0.0064516129032258","4.9529411764706"
"mew","16","3","228","0","0","5.6625"
"two","16","3","228","0","0","5.6625"
"true","16","4","257","0","0","7.65625"
"your","15","4","86","0","0","19.915384615385"
"character","15","9","202","0","0","14.166666666667"
"men","15","3","240","5","0.020833333333333","39.453333333333"
"yoda","15","4","25","1","0.04","6.9333333333333"
"set","15","3","74","0","0","4.6333333333333"
"grow","14","4","553","0","0","32.064285714286"
"change","14","6","38","0","0","20.771428571429"
"something","14","9","28","0","0","9.7"
"mewtwo","14","6","222","0","0","5.8428571428571"
"jack","13","4","122","0","0","5.7166666666667"
"wisdom","13","6","204","0","0","7.7307692307692"
"test","13","4","207","0","0","7.5846153846154"
"what","13","4","157","0","0","8.1909090909091"
"ronaldo","13","7","131","0","0","3.0923076923077"
"job","12","3","67","1","0.014925373134328","9.7833333333333"
"tim","12","3","52","0","0","10.24"
"ever","12","4","21","0","0","22.6"
"tell","12","4","22","0","0","12.191666666667"
"john","11","4","27","0","0","36.445454545455"
"winning","11","7","41","0","0","7.2272727272727"
"snoopy","11","6","44","0","0","4.5090909090909"
"discuss","11","7","82","0","0","17.571428571429"
"wall","11","4","40","3","0.075","20.390909090909"
"let","11","3","19","0","0","11.481818181818"
"les","11","3","109","0","0","15.945454545455"
"from","11","4","174","0","0","34.436363636364"
"mindset","10","7","56","0","0","4.36"
"steve","10","5","59","0","0","8.23"
"little","10","6","50","0","0","7.175"
"time","10","4","50","0","0","7.175"
"jobs","9","4","58","0","0","7.2555555555556"
"picture","9","7","22","0","0","1.6666666666667"
"less","9","4","107","0","0","8.6"
"trying","9","6","32","0","0","12.642857142857"
"mean","9","4","23","0","0","30.333333333333"
"see","9","3","57","1","0.017543859649123","7.9777777777778"
"ideas","9","5","86","0","0","16.666666666667"
"knowledge","8","9","178","0","0","5.4375"
"circumstances","8","13","42","1","0.023809523809524","16.875"
"aint","8","4","33","0","0","4.2625"
"positive","8","8","40","0","0","4.5875"
"quincy","8","6","22","0","0","5.6125"
"mentalist","8","9","230","5","0.021739130434783","26.7875"
"adams","8","5","22","0","0","5.6125"
"spend","8","5","50","0","0","7.175"
"work","8","4","16","0","0","44.6"
"qoute","8","5","26","0","0","3.75"
"poem","8","4","28","0","0","8.15"
"meaning","7","7","19","0","0","36.471428571429"
"done","7","4","32","0","0","6.7428571428571"
"fail","7","4","21","0","0","5.6166666666667"
"success","7","7","116","0","0","7.6714285714286"
"being","7","5","17","0","0","21.428571428571"
"way","7","3","22","1","0.045454545454545","9.1571428571429"
"qoutes","7","6","24","0","0","3.2857142857143"
"strong","7","6","86","0","0","17.285714285714"
"stop","7","4","17","0","0","21.428571428571"
"make","7","4","14","0","0","28.928571428571"
"people","7","6","86","0","0","11.9"
"ought","7","5","76","0","0","5.4714285714286"
"tree","7","4","18","3","0.16666666666667","22.657142857143"
"its","7","3","31","0","0","7.8285714285714"
"words","7","5","25","0","0","6.0285714285714"
"pictures","6","8","19","0","0","1"
"weak","6","4","82","0","0","7.75"
"wolf","6","4","12","3","0.25","25.55"
"hits","6","4","29","0","0","8.9666666666667"
"leaving","6","7","30","0","0","22"
"will","6","4","45","1","0.022222222222222","21.233333333333"
"every","6","5","9","0","0","27.583333333333"
"live","6","4","12","0","0","5.8333333333333"
"come","6","4","75","0","0","18.983333333333"
"street","6","6","12","3","0.25","25.55"
"hear","6","4","39","0","0","75.5"
"watching","6","8","175","0","0","4.7833333333333"
"who","6","3","48","0","0","34.3"
"gain","6","4","21","0","0","19.9"
"credit","6","6","88","0","0","6.3833333333333"
"there","5","5","11","0","0","4"
"teddy","5","5","18","0","0","3.08"
"overcoming","5","10","81","0","0","8.98"
"body","5","4","31","0","0","18.1"
"powerful","5","8","9","0","0","2.5"
"thoreau","5","7","14","0","0","9.86"
"failure","5","7","19","0","0","4.94"
"goes","5","4","10","0","0","5.16"
"leadership","5","10","18","0","0","5.68"
"does","5","4","146","0","0","50.16"
"images","5","6","7","0","0","1"
"with","5","4","7","0","0","21.3"
"hopelessness","5","12","81","0","0","8.98"
"god","5","3","40","0","0","3.34"
"cristiano","5","9","85","0","0","2.5"
"thought","5","7","54","0","0","4.32"
"yourself","5","8","13","0","0","5.64"
"death","5","5","35","0","0","4.76"
"more","5","4","28","0","0","6.88"
"van","4","3","35","1","0.028571428571429","50.1"
"my","4","2","12","0","0","26.525"
"other","4","5","5","0","0","2.875"
"übersetzung","4","11","14","0","0","4.85"
"impress","4","7","26","0","0","8.125"
"twice","4","5","10","0","0","3.075"
"up","4","2","6","0","0","7.3333333333333"
"children","4","8","13","0","0","7.45"
"poetry","4","6","8","0","0","7.125"
"braveheart","4","10","18","0","0","110.5"
"script","4","6","10","3","0.3","23.075"
"arean","4","5","381","0","0","2.8"
"birth","4","5","32","1","0.03125","25.725"
"5","4","1","51","0","0","5.05"
"say","4","3","49","0","0","5.525"
"things","4","6","3","0","0","87.5"
"education","4","9","29","0","0","4.4"
"only","3","4","16","0","0","8.3666666666667"
"fact","3","4","10","0","0","7.3666666666667"
"gospel","3","6","6","0","0","16.666666666667"
"inspirational","3","13","12","0","0","5.2"
"wealth","3","6","6","0","0","16.666666666667"
"great","3","5","8","0","0","13.6"
"thoughts","3","8","6","0","0","3.1666666666667"
"cinderella","3","10","6","0","0","26.1"
"famous","3","6","11","0","0","8.6333333333333"
"desire","3","6","9","0","0","5.1"
"once","3","4","8","0","0","12.5"
"grind","3","5","4","0","0","36"
"enough","3","6","12","0","0","5.6"
"everything","3","10","6","0","0","3.1666666666667"
"someone","3","7","3","0","0","19.666666666667"
"pain","3","4","9","0","0","6.9333333333333"
"most","3","4","3","0","0","6.3333333333333"
"kind","3","4","86","1","0.011627906976744","51.966666666667"
"transcript","3","10","4","1","0.25","27.666666666667"
"woods","3","5","6","0","0","9"
"speak","3","5","9","0","0","2.1"
"take","3","4","11","0","0","6.4"
"pdf","3","3","3","0","0","97"
"already","3","7","9","0","0","9.9333333333333"
"even","3","4","74","0","0","15.333333333333"
"choose","3","6","6","1","0.16666666666667","17.1"
"always","3","6","7","1","0.14285714285714","14.933333333333"
"become","3","6","6","0","0","17.1"
"lie","3","3","11","0","0","15.533333333333"
"day","3","3","84","0","0","6.6666666666667"
"sm","3","2","69","0","0","10.2"
"tried","3","5","10","0","0","7.3666666666667"
"holtz","3","5","3","0","0","62.666666666667"
"going","3","5","13","0","0","3.1"
"instead","3","7","13","0","0","16.333333333333"
"awesome","3","7","13","0","0","16.333333333333"
"teamwork","3","8","12","0","0","29.533333333333"
"matter","3","6","20","0","0","10.9"
"arrogant","3","8","12","0","0","3.2"
"dream","3","5","40","0","0","8.9666666666667"
"6","3","1","25","0","0","2.7"
"deep","3","4","18","0","0","6.7666666666667"
"9gag","3","4","6","2","0.33333333333333","17.566666666667"
"happened","3","8","6","0","0","7.7666666666667"
"lou","3","3","3","0","0","62.666666666667"
"before","3","6","9","0","0","2.1"
"fucking","3","7","3","0","0","24"
"wallpaper","3","9","23","0","0","1"
"text","3","4","17","0","0","7.0333333333333"
"voice","2","5","6","0","0","6.5"
"commencement","2","12","2","0","0","179"
"teresa","2","6","2","0","0","3"
"maninthe","2","8","20","0","0","6.5"
"photo","2","5","2","0","0","2"
"mother","2","6","2","0","0","3"
"notke","2","5","2","0","0","22.5"
"hong","2","4","2","0","0","7.5"
"friendship","2","10","2","0","0","6.5"
"listen","2","6","1","0","0","20"
"understand","2","10","4","0","0","14.65"
"meet","2","4","2","0","0","77.5"
"somebody","2","8","2","0","0","22"
"everyone","2","8","2","0","0","77.5"
"tumblr","2","6","2","0","0","2.5"
"opportunity","2","11","2","0","0","105"
"much","2","4","2","0","0","5.5"
"jiang","2","5","2","0","0","7.5"
"3","2","1","2","0","0","12.5"
"should","2","6","3","0","0","5"
"simple","2","6","2","0","0","5"
"poems","2","5","3","0","0","7.25"
"born","2","4","2","0","0","4"
"captain","2","7","4","0","0","22"
"talk","2","4","4","0","0","10"
"2","2","1","4","0","0","11"
"bargained","2","9","3","0","0","47"
"penny","2","5","3","0","0","47"
"comp","2","4","3","0","0","94"
"classic","2","7","2","0","0","59.5"
"those","2","5","3","0","0","87.5"
"each","2","4","4","0","0","15.75"
"moment","2","6","3","0","0","1.75"
"wrong","2","5","4","0","0","2.25"
"napolian","2","8","4","0","0","7.5"
"went","2","4","5","0","0","8.5"
"hide","2","4","9","0","0","8.55"
"goal","2","4","9","0","0","9.55"
"never","2","5","9","0","0","8.55"
"have","2","4","37","0","0","20.95"
"trap","2","4","12","0","0","6.4"
"dreams","2","6","37","0","0","11.95"
"worth","2","5","8","0","0","5.65"
"average","2","7","73","0","0","13.5"
"areana","2","6","185","0","0","2.8"
"where","2","5","85","1","0.011764705882353","7.95"
"hugs","2","4","85","1","0.011764705882353","7.95"
"paint","2","5","8","0","0","5.9"
"but","2","3","9","0","0","5.5"
"belongs","2","7","80","0","0","7.5"
"avoid","2","5","11","0","0","3.65"
"die","2","3","11","0","0","3.65"
"road","2","4","29","0","0","8.9"
"napolean","2","8","24","0","0","9.4"
"saying","2","6","36","0","0","3.8"
"plan","2","4","35","0","0","4.5"
"feel","2","4","26","0","0","6.5"
"into","2","4","31","0","0","6.55"
"tedxnovisad","2","11","18","0","0","7.95"
"good","2","4","20","0","0","5.7"
"fear","2","4","16","0","0","6.85"
"remembering","2","11","11","0","0","3.65"
"gogh","2","4","12","0","0","79.25"
"smiling","2","7","68","0","0","6.3"
"marrow","2","6","24","0","0","10.35"
"vincent","2","7","12","0","0","79.25"
"irrelevant","2","10","23","1","0.043478260869565","20.95"
"events","2","6","73","0","0","13.5"
"william","2","7","5","0","0","34"
"wallace","2","7","5","0","0","34"
"fighting","1","8","1","0","0","140"
"nothing","1","7","1","0","0","140"
"battle","1","6","1","0","0","140"
"welcome","1","7","1","0","0","50"
"speeches","1","8","1","0","0","220"
"poker","1","5","1","0","0","7"
"henry","1","5","1","0","0","10"
"group","1","5","1","0","0","8"
"連詩雅","1","3","1","0","0","19"
"said","1","4","1","0","0","19"
"views","1","5","1","0","0","11"
"opinion","1","7","1","0","0","34"
"someday","1","7","36","0","0","7.9"
"david","1","5","1","0","0","10"
"synchronized","1","12","1","0","0","8"
"ones","1","4","41","0","0","7.3"
"majack","1","6","1","0","0","1"
"reply","1","5","1","0","0","20"
"kalidas","1","7","42","0","0","4.6"
"brown","1","5","1","0","0","96"
"faith","1","5","36","0","0","7.9"
"problem","1","7","1","0","0","20"
"swimming","1","8","1","0","0","8"
"leave","1","5","1","0","0","10"
"exercise","1","8","1","0","0","350"
"biggest","1","7","1","0","0","20"
"communication","1","13","1","0","0","20"
"truth","1","5","1","0","0","8"
"business","1","8","1","0","0","4"
"poor","1","4","1","0","0","5"
"actually","1","8","1","0","0","9"
"entrepreneurship","1","16","1","0","0","10"
"alibaba","1","7","34","0","0","2.6"
"crazy","1","5","1","0","0","3"
"bravehart","1","9","1","0","0","240"
"definite","1","8","33","0","0","7"
"physically","1","10","25","0","0","8"
"song","1","4","1","0","0","5"
"riding","1","6","1","0","0","4"
"man’s","1","5","32","0","0","4.7"
"101","1","3","1","0","0","10"
"opening","1","7","1","0","0","11"
"churchill","1","9","1","0","0","45"
"reality","1","7","1","0","0","34"
"exodia","1","6","1","0","0","10"
"charlie","1","7","1","0","0","30"
"chaplin","1","7","1","0","0","30"
"was","1","3","1","0","0","8"
"book","1","4","1","0","0","4"
"stanford","1","8","1","0","0","340"
"basketball","1","10","1","0","0","160"
"through","1","7","36","0","0","7.9"
"teeth","1","5","1","0","0","410"
"chattering","1","10","1","0","0","410"
"cold","1","4","1","0","0","410"
"law","1","3","1","0","0","4"
"breakfast","1","9","1","0","0","34"
"knows","1","5","1","0","0","15"
"berns","1","5","1","1","1","28"
"rise","1","4","1","0","0","19"
"difficult","1","9","1","1","1","34"
"nepoleon","1","8","1","0","0","4"
"ripples","1","7","1","0","0","2"
"head","1","4","1","0","0","7"
"giants","1","6","1","0","0","5"
"special","1","7","1","0","0","18"
"bob","1","3","1","0","0","5"
"supposed","1","8","1","0","0","7"
"sex","1","3","1","0","0","48"
"shoulders","1","9","1","0","0","5"
"佐敦彩福欣宴","1","6","1","0","0","27"
"gandhi","1","6","21","1","0.047619047619048","6.9"
"lennon","1","6","1","0","0","320"
"madden","1","6","1","0","0","17"
"master","1","6","1","0","0","63"
"fate","1","4","1","0","0","63"
"invictus","1","8","1","0","0","63"
"china","1","5","1","0","0","9"
"lazy","1","4","1","1","1","34"
"person","1","6","1","1","1","34"
"ied小學常識","1","7","1","0","0","8"
"luhrmann","1","8","1","0","0","330"
"sunscreen","1","9","1","0","0","330"
"advice","1","6","1","0","0","95"
"13","1","2","1","0","0","18"
"compil","1","6","1","0","0","18"
"fei","1","3","1","0","0","10"
"生于忧患，死于安乐","1","9","1","0","0","17"
"”","1","1","72","0","0","2"
"sam","1","3","1","1","1","28"
"knock","1","5","1","0","0","200"
"doesn","1","5","1","0","0","200"
"three","1","5","1","0","0","49"
"yue","1","3","1","0","0","10"
"dear","1","4","1","0","0","34"
"club","1","4","1","0","0","34"
"mr","1","2","1","0","0","34"
"donot","1","5","1","0","0","1"
"vernon","1","6","1","0","0","34"
"build","1","5","1","0","0","200"
"door","1","4","1","0","0","200"
"hurt","1","4","1","0","0","5"
"stay","1","4","1","0","0","7"
"alive","1","5","1","0","0","7"
"politics","1","8","1","0","0","10"
"marley","1","6","1","0","0","5"
"these","1","5","1","0","0","7"
"romance","1","7","1","0","0","7"
"jackma","1","6","1","0","0","11"
"sadness","1","7","25","0","0","8"
"wooden","1","6","1","0","0","35"
"“strong","1","7","72","0","0","2"
"beauty","1","6","1","0","0","7"
"screws","1","6","1","0","0","7"
"naploeon","1","8","1","0","0","11"
"chop","1","4","6","0","0","5.3"
"carnegie","1","8","3","0","0","8"
"hours","1","5","6","0","0","5.3"
"nine","1","4","6","0","0","5.3"
"because","1","7","3","0","0","3.3"
"had","1","3","6","0","0","5.3"
"andrew","1","6","3","0","0","8"
"gym","1","3","3","0","0","1"
"understanding","1","13","3","0","0","9.3"
"arrogante","1","9","6","0","0","2.2"
"down","1","4","6","0","0","5.3"
"contact","1","7","3","0","0","410"
"gift","1","4","3","0","0","10"
"page","1","4","3","0","0","410"
"influence","1","9","3","0","0","3.3"
"plant","1","5","2","0","0","2"
"failing","1","7","2","0","0","9"
"start","1","5","2","0","0","2.5"
"prepare","1","7","2","0","0","9"
"preparing","1","9","2","0","0","9"
"this","1","4","2","0","0","1.5"
"right","1","5","7","0","0","6"
"fill","1","4","2","0","0","2.5"
"toss","1","4","2","0","0","14"
"soul","1","4","2","0","0","24"
"socratesquotes","1","14","6","0","0","5.3"
"care","1","4","2","0","0","9.5"
"tough","1","5","2","0","0","9.5"
"coxswain","1","8","2","0","0","14"
"believe","1","7","6","0","0","8.8"
"yellow","1","6","6","0","0","5.3"
"robert","1","6","6","0","0","5.3"
"forgivable","1","10","5","0","0","2.8"
"has","1","3","5","0","0","2.8"
"younger","1","7","4","0","0","9"
"generation","1","10","4","0","0","9"
"james","1","5","5","0","0","1.4"
"mistakes","1","8","5","0","0","2.8"
"courage","1","7","5","0","0","2.8"
"admit","1","5","5","0","0","2.8"
"–","1","1","5","0","0","4.2"
"ain’t","1","5","5","0","0","4.2"
"1976","1","4","5","0","0","4.2"
"tested","1","6","5","0","0","3.6"
"greatest","1","8","4","0","0","8.8"
"them","1","4","5","0","0","2.8"
"busy","1","4","3","0","0","1.7"
"improving","1","9","3","0","0","1.7"
"define","1","6","3","0","0","45"
"jordan","1","6","5","0","0","2"
"sayings","1","7","3","0","0","3"
"michael","1","7","5","0","0","2"
"wise","1","4","6","0","0","6.8"
"accept","1","6","5","0","0","2"
"生於憂患死於安樂","1","8","3","0","0","27"
"孟子","1","2","3","0","0","27"
"nicholas","1","8","5","0","0","1.4"
"napolion","1","8","3","0","0","3.7"
"lyrics","1","6","5","0","0","9"
"dwayne","1","6","3","0","0","5"
"pride","1","5","3","0","0","5"
"johnson","1","7","3","0","0","5"
"main","1","4","2","0","0","5"
"trapped","1","7","2","0","0","7.5"
"leonardo","1","8","1","0","0","10"
"patz","1","4","1","0","0","30"
"dicaprio","1","8","1","0","0","10"
"thousand","1","8","1","0","0","70"
"others","1","6","1","0","0","3"
"lived","1","5","1","0","0","3"
"lincoln","1","7","1","0","0","30"
"traduction","1","10","11","0","0","8"
"thinking","1","8","10","0","0","5.3"
"motivate","1","8","2","0","0","2.5"
"face","1","4","2","0","0","170"
"accounting","1","10","1","0","0","8"
"honours","1","7","1","0","0","8"
"profession","1","10","1","0","0","8"
"living","1","6","1","0","0","3"
"university","1","10","1","0","0","18"
"maninthearena","1","13","19","0","0","5"
"excerpt","1","7","1","0","0","30"
"consultancy","1","11","23","0","0","430"
"else","1","4","1","0","0","3"
"away","1","4","1","0","0","7"
"fall","1","4","1","0","0","7"
"means","1","5","1","0","0","10"
"money","1","5","19","0","0","9.8"
"austin","1","6","1","0","0","18"
"texas","1","5","1","0","0","18"
"2014","1","4","1","0","0","18"
"address","1","7","1","0","0","18"
"cr7","1","3","4","0","0","1"
"nepolian","1","8","1","0","0","4"
"mewtwos","1","7","2","0","0","5"
"岫岩","1","2","2","0","0","7.5"
"getting","1","7","7","0","0","7"
"slues","1","5","2","0","0","23"
"made","1","4","2","0","0","5"
"possible","1","8","2","0","0","5"
"like","1","4","8","0","0","2.1"
"simpler","1","7","2","0","0","5"
"tijuana","1","7","2","0","0","23"
"loser","1","5","2","0","0","4"
"hundred","1","7","2","0","0","8"
"dogma","1","5","2","0","0","7.5"
"family","1","6","2","0","0","8"
"surnames","1","8","2","0","0","8"
"winner","1","6","2","0","0","4"
"wife","1","4","7","0","0","6"
"pay","1","3","2","0","0","4.5"
"looks","1","5","8","0","0","2.1"
"anybody","1","7","2","0","0","29"
"teach","1","5","2","0","0","29"
"anything","1","8","2","0","0","29"
"三字经","1","3","10","0","0","7.4"
"citati","1","6","2","0","0","1"
"says","1","4","2","0","0","6"
"cannot","1","6","2","0","0","29"
"english","1","7","10","0","0","7.4"
"paid","1","4","9","0","0","6.1"
"philosophy","1","10","9","0","0","3.8"
"español","1","7","9","0","0","2"
"benjamin","1","8","2","0","0","2"
"translation","1","11","10","0","0","7.4"
"franklin","1","8","2","0","0","2"
"seo","1","3","23","0","0","430"
