Queries,Clicks,Impressions,CTR,Position
xxnx,274,7728,4%,5.5
taiwan fu da precision co ltd,135,215,63%,1.0
huahong holdings ltd,134,1175,11%,2.1
shangkun,132,217,61%,1.0
telesin,63,284,22%,2.0
merry tools,56,169,33%,1.4
ireadygo,56,227,25%,1.5
davismicro,50,479,10%,2.8
shangkun co. ltd china,49,73,67%,1.0
hxd electronics co,44,130,34%,1.0
tricheer,43,406,11%,5.5
readtube,42,2418,2%,8.2
company shangkun,39,56,70%,1.0
tube8,39,5010,1%,9.9
longrich international,36,477,8%,6.7
ck telecom ltd,35,142,25%,1.1
tubesex,35,359,10%,42
hxd electronics co.,35,78,45%,1.1
huahong holdings,34,172,20%,2.0
buyeasy,33,425,8%,3.6
tbea sunoasis,31,76,41%,1.7
wilphen fashion,29,42,69%,1.0
xxx sexy,29,126,23%,3.7
ck telecom,28,260,11%,3.3
youpron,27,590,5%,41
paragon child products,26,45,58%,1.0
xuji,26,213,12%,1.6
aces connector,25,120,21%,2.8
japan av,24,211,11%,79
anhui tongfeng electronics co. ltd,24,43,56%,1.0
yellowknife cable,23,64,36%,2.7
pantyhose tube,23,65,35%,72
xpuzmag,23,126,18%,2.7
shangkun co. ltd,23,28,82%,1.0
chen yan health product,23,39,59%,1.1
orientronic manufacturing,22,36,61%,1.0
hitech electronics corp,22,39,56%,1.0
kocom,22,1176,2%,6.7
youpont,22,3492,1%,8.6
group-tek,21,43,49%,1.7
hdxxx,21,324,6%,59
superinworld,21,120,18%,4.3
fumakilla malaysia berhad,21,86,24%,2.8
kingwave,21,60,35%,2.8
xxxvideo,20,353,6%,9.6
hubdic,20,158,13%,3.6
xxx video,20,399,5%,9.8
1.2344 steel equivalent,20,42,48%,1.1
dapu motor,20,77,26%,1.1
tube9,20,954,2%,28
emanco,19,252,8%,6.3
prem international ahmedabad,19,21,90%,17
guangzhou hedy digital technology,19,36,53%,1.0
company shangkun in china,19,28,68%,1.1
huayu holdings ltd,18,67,27%,1.1
huayu ltd,18,106,17%,2.1
prominent image sdn bhd,18,33,55%,1.3
andon health,18,64,28%,2.0
wanlida group,17,41,41%,1.0
ansen electronics,17,52,33%,1.9
free porn,17,188,9%,24
iwon international inc,17,36,47%,1.0
fumakilla malaysia,17,48,35%,1.9
bailing instrument,17,105,16%,3.1
tianjin nesolar photovoltaic technology co. ltd,17,25,68%,1.0
shangkun in china,16,21,76%,1.1
pantyhosetube,16,54,30%,15
tricheer 4g,16,108,15%,5.3
milano trading,16,43,37%,3.1
nusky n1gs,16,78,21%,4.2
anygo,16,37,43%,1.0
huake trad ltd,16,28,57%,1.0
foryou,16,703,2%,5.6
sure promise limited,16,97,16%,4.0
xxxl sex,15,121,12%,26
k & m fashion company,15,56,27%,2.1
ansen electronics company,15,39,38%,1.9
triumph cable,15,33,45%,1.2
kingwave technology,15,30,50%,1.6
"lavender tex co.,limited",15,24,62%,1.0
mw style manufacturing sdn bhd,15,20,75%,1.0
"shenzhen wfd technology co.,ltd",15,18,83%,1.0
china electronics shenzhen company,15,152,10%,3.3
"zhuhai singyes green building technology co., ltd",15,29,52%,1.1
chinaxxx,15,160,9%,23
hoco technology limited,15,27,56%,1.6
zoo sex tube,14,48,29%,55
guangdong aoqi industrial corporation,14,31,45%,1.0
chongqing dajiang power equipment co. ltd,14,35,40%,1.1
wanlida,14,39,36%,2.2
42crmo,14,159,9%,7.8
golden china international co,14,20,70%,1.0
illume lighting,14,144,10%,8.2
zhongxin tools,14,24,58%,1.0
mobi antenna,14,42,33%,2.5
mtk6753,14,104,13%,13
kaifeng trading group,14,160,9%,4.1
34crnimo4,14,34,41%,1.0
pantyhose tubes,13,30,43%,47
adult flash games,13,109,12%,48
animel sex,13,291,4%,19
thc zipper,13,19,68%,1.1
newj. ltd,13,22,59%,1.0
shenzhen bater explosion-proof technology co. ltd,13,83,16%,2.8
gospell,12,320,4%,4.7
koniycoi,12,34,35%,2.0
jk corporation,12,34,35%,2.0
sexy xxx,12,69,17%,4.0
yuntong battery,12,38,32%,3.7
gb14048.3,12,33,36%,3.0
egoman,12,293,4%,4.5
dapu,12,151,8%,7.9
hsuan mao,12,122,10%,3.0
connaught hong kong group limited,12,24,50%,2.1
marwin industries sdn bhd,12,21,57%,1.2
leixen n8,12,48,25%,6.6
huake,12,59,20%,2.8
nanma manufacturing co ltd,12,114,11%,3.5
sf-tc240t-9370-t,12,78,15%,5.4
boriyuan leather co. ltd,12,28,43%,3.6
group tek,12,26,46%,2.0
japantube,12,173,7%,26
sexi photo,11,109,10%,42
capdase international limited,11,55,20%,3.1
5kw 240v electric motor,11,30,37%,3.1
china xxx,11,93,12%,33
proware technologies co ltd,11,60,18%,2.6
3cr14,11,21,52%,1.7
shangkun china,11,14,79%,1.1
adel group (asia) ltd,11,17,65%,1.9
xuxx,11,245,4%,43
ambang china,11,26,42%,1.0
nylon feet tube,11,32,34%,37
din 967,11,135,8%,9.1
ningbo origin century import & export co. ltd,11,18,61%,1.0
newj ltd,11,17,65%,1.0
zhejiang xingyue vehicle co. ltd,11,25,44%,1.5
rtl8723bu datasheet,11,16,69%,1.7
haining home point furniture company,11,26,42%,1.0
huason holdings ltd,11,20,55%,1.0
seoul commtech,11,16,69%,1.5
1080p porn,10,103,10%,53
xxxsexy,10,27,37%,29
allen electronics,10,30,33%,1.5
zhuhai singyes green building technology,10,17,59%,1.2
jaeger industrial,10,22,45%,2.4
changzhou mulin electric equipment co. ltd,10,15,67%,1.0
sunbay company ltd,10,18,56%,1.0
yujing glassware,10,34,29%,5.6
global sterling products limited,10,40,25%,4.2
pt dwi prima sentosa,10,35,29%,3.1
fdl technology,10,17,59%,1.5
rtl8723as,10,66,15%,1.0
wellpart,10,14,71%,1.1
everest appliances,10,15,67%,4.6
test rite international,10,38,26%,4.0
global card systems company limited,10,13,77%,1.0
aldc12,10,48,21%,3.9
joost van der post jepara,10,65,15%,4.1
mogi jeans,10,164,6%,8.1
jolly baby,10,60,17%,5.5
35150-26900,10,31,32%,3.0
shanghai hong feng intl,10,32,31%,2.7
cancio furniture,10,26,38%,3.1
real star umbrella,10,21,48%,1.2
surepromise,10,161,6%,6.5
aihua capacitor,10,20,50%,2.2
chen yan product,10,23,43%,1.3
nova electronics company,10,22,45%,1.0
wangye,10,108,9%,5.2
119653-77950,10,59,17%,5.3
xinri,10,41,24%,4.0
nanchang howard electric appliances manufactory,10,48,21%,4.3
tranbo,9,27,33%,1.7
suka pandawa bali,9,17,53%,1.1
bf864c55,9,30,30%,4.9
hydrochloric solvent,9,35,26%,4.4
savanini,9,33,27%,5.6
zhongshan broad ocean motor co parts,9,76,12%,2.8
42cr4,9,27,33%,1.9
skyuan,9,21,43%,1.0
shenzhen everwin precision technology co. ltd,9,21,43%,1.5
"shangkun co.,ltd",9,14,64%,1.0
xxxlsex,9,37,24%,20
gospell digital technology,9,28,32%,2.3
hdsexporn,9,45,20%,20
zhengzhou alliance to choose trade,9,24,38%,3.0
ongr mall co. ltd,9,37,24%,3.5
boytube,9,75,12%,27
everwin precision,9,12,75%,1.3
mini sex doll,9,25,36%,41
"wyd industrial co., limited",9,43,21%,2.1
shenzhen lightake technology co. ltd,9,13,69%,1.2
"guangzhou hedy digital technology co., ltd",9,20,45%,1.0
transtek china,9,10,90%,1.1
yuntong power co. ltd,9,14,64%,1.1
xxlsex,9,34,26%,46
yueerda,9,19,47%,1.6
zheijang maya fabric. co.ltd,9,16,56%,1.0
cooco,9,360,2%,5.1
shangkun company,9,14,64%,1.0
sextub,9,87,10%,39
andon health co. ltd,9,19,47%,1.8
aces electronics co. ltd,9,18,50%,2.9
feitun,9,67,13%,5.1
xxhd,9,171,5%,18
"qingdao bensheng import & export co.,ltd",9,40,22%,2.4
1.2344,8,85,9%,8.1
pp md20,8,24,33%,2.3
din 1.2344,8,11,73%,1.4
everwin precision technology ltd,8,16,50%,1.0
din 968,8,66,12%,6.6
keke lover,8,256,3%,3.0
xiamen unibest import and export,8,13,62%,1.3
videoxxx,8,124,6%,5.9
iwon international,8,18,44%,1.1
milo enterprises inc,8,37,22%,4.0
globe tools,8,52,15%,3.2
aces connectors,8,28,29%,2.6
hxd electronics,8,11,73%,1.0
arkino hitop,8,10,80%,1.0
pantyhosetubes,8,24,33%,8.9
sexy vedio,8,96,8%,19
koway,8,35,23%,1.0
oriox olive lotion,8,30,27%,6.7
k14900d filter,8,32,25%,5.2
nexx wireless,8,10,80%,1.7
xiamen solex high-tech industries co. ltd,8,22,36%,1.0
winru,8,35,23%,1.6
hong feng intl co,8,14,57%,1.4
long sheng logistics,8,12,67%,3.1
12cr1movg,8,16,50%,5.6
film xxxl,8,28,29%,36
hua hong holdings pte. ltd,8,14,57%,3.8
visionari llc,8,12,67%,1.0
1.2343 steel,8,25,32%,5.2
switches gb14048.3,8,15,53%,3.8
fenda technology,8,25,32%,2.3
wangye scooter,8,40,20%,3.5
chuan shun electric,8,19,42%,2.3
anlaishun,8,18,44%,1.0
mercari phone number,8,14,57%,13
diyomate,8,42,19%,5.4
265650004r,8,28,29%,4.8
shanghai xietong (group) co. ltd,8,13,62%,1.0
jollybaby,8,45,18%,5.4
hunan tea group company limited,8,16,50%,1.5
kissongroup,8,13,62%,1.3
zcx international,8,30,27%,1.1
troily 1.2 v 40mah,8,19,42%,2.1
p5v04aa,8,23,35%,1.8
www.sex .com,7,159,4%,38
bellcorp,7,96,7%,6.2
alexander's wear international corporation,7,50,14%,2.4
bellcorp technology (m) sdn bhd,7,18,39%,1.2
sonca products limited,7,13,54%,2.1
cancio contract furniture corporation,7,21,33%,3.0
see box,7,30,23%,1.5
shenzhen bater explosion-proof technology co,7,29,24%,2.5
japanesetube,7,64,11%,26
wizmart,7,40,18%,5.8
"evalue technology,",7,8,88%,1.3
easyland group,7,8,88%,1.0
hussar usb,7,10,70%,1.0
tensen china,7,12,58%,1.2
sino electronics,7,7,100%,1.3
blue sky imports,7,103,7%,8.1
harvest sources int'l ltd,7,13,54%,3.4
jiangyin city seamless steel tube factory,7,28,25%,1.9
shenzhen bater explosion-proof technology,7,23,30%,2.2
huisda,7,15,47%,1.1
wai fung holdings ltd,7,8,88%,3.3
sure promise,7,42,17%,6.6
sposa wang dress shop,7,18,39%,3.6
everwin precision technology,7,17,41%,1.1
myworld group,7,7,100%,1.1
yb international,7,17,41%,1.4
davis micro,7,58,12%,3.0
940.0094.02,7,17,41%,2.4
yk international,7,21,33%,1.8
gussmann technologies sdn bhd,7,45,16%,4.4
don connex,7,38,18%,2.1
unitop electronics,7,9,78%,1.0
xiamen comfort science & technology,7,9,78%,1.3
rnt international,7,12,58%,1.0
apollo ups,7,59,12%,5.3
sanno mobile,7,55,13%,9.2
hotsexphotos,7,72,10%,29
handson sofa,7,17,41%,9.2
shenzhen evenwin precision technology,7,41,17%,2.3
mayslynn recycling,7,12,58%,2.5
weihai wall clock,7,18,39%,1.6
v sun,7,131,5%,2.4
tricheer website,7,9,78%,1.6
amthi,7,24,29%,1.3
p355nl,7,51,14%,6.2
"dongguan chuangguan industrial co., ltd",7,8,88%,1.0
sonca products ltd,7,13,54%,1.7
tricheer 4g router,7,20,35%,3.3
hunan tea group,7,9,78%,1.7
wifi pool thermometer,7,13,54%,14
abini technic inc,7,12,58%,1.3
hdsexvideo,7,331,2%,27
power first,7,94,7%,5.5
"goodtouch electronics co.,ltd",7,20,35%,2.0
shenzhen gongjin electronics,7,106,7%,3.8
netxeon,7,43,16%,2.6
proware technologies,7,43,16%,4.1
wattac,7,21,33%,4.2
animalsexdog,7,38,18%,14
panashiba,7,70,10%,7.3
fujian anxi foreign trade corporation,7,21,33%,1.0
zenith appliances,7,12,58%,1.3
andon health co ltd,7,23,30%,2.1
ak-rk02s,7,8,88%,9.0
jeenda,7,25,28%,2.0
sexanimal,7,32,22%,47
boch precision machine co.ltd.,7,7,100%,1.0
gpon media converter,7,12,58%,2.7
sonca,7,66,11%,3.9
weinimei cosmetics co. ltd,7,9,78%,1.0
japan tube,7,38,18%,62
qihan,7,236,3%,8.2
haiyu shoes,7,34,21%,4.7
sexhorse,7,29,24%,35
rtl8723bu,7,52,13%,3.1
youwon ltd,7,9,78%,1.0
738h steel,7,10,70%,2.0
itzr,6,44,14%,5.4
jeenda controls,6,9,67%,2.1
mht company limited,6,20,30%,2.0
aomeijia,6,12,50%,1.0
zhuhai singyes green building technology co. ltd,6,24,25%,1.0
dollsex,6,11,55%,54
hijabsex,6,13,46%,48
streamax,6,147,4%,6.4
see box corporation,6,10,60%,1.1
rattm motor,6,13,46%,9.2
wuxi hongguang capacitor,6,12,50%,2.1
leci rs601d,6,13,46%,3.8
lad glass,6,13,46%,3.2
hoco (hk) technology limited,6,8,75%,1.0
novatek 78326,6,10,60%,2.3
veryhotsex,6,10,60%,42
rixi group,6,10,60%,1.0
luminex lighting,6,43,14%,6.0
ultra quick bbq coconut shell charcoal,6,33,18%,4.5
porn hd,6,86,7%,6.8
yanji huifeng drilling equipment,6,25,24%,2.6
dickens and hawthorne,6,50,12%,6.4
weifang yuchuan machinery co ltd,6,8,75%,2.8
nsn bearing,6,10,60%,1.0
dazawa shoes,6,33,18%,7.7
kross electronics,6,16,38%,3.2
e-lead electronic co. ltd,6,14,43%,4.2
bright led,6,76,8%,8.8
xinder,6,144,4%,10
1.2343 equivalent,6,14,43%,3.1
suzhou goldengreen technologies ltd,6,62,10%,7.9
phoenix hitarget,6,13,46%,5.4
hoyoma,6,38,16%,5.4
royal ct tactical,6,8,75%,4.4
boriyuan,6,45,13%,8.7
hong kong honserv limited,6,11,55%,1.9
best time trading co,6,18,33%,1.0
"shangkun co.,ltd.",6,7,86%,1.0
american global health group,6,11,55%,2.4
shin crest pte ltd,6,9,67%,1.2
hyundai it,6,62,10%,6.0
feiyingmodel,6,12,50%,4.3
biswift,6,37,16%,2.8
tungsten carbide mold parts,6,6,100%,9.7
1.2344 steel,6,17,35%,4.1
mb685019,6,15,40%,7.9
shenzhen xinghecheng technology limited,6,71,8%,6.6
vastmickey,6,12,50%,1.9
extreme bikini fashion,6,18,33%,18
hyundai it corp,6,16,38%,2.3
kingcher,6,11,55%,2.4
gussmann gps,6,8,75%,2.9
japanav,6,16,38%,52
yellowknife cables,6,11,55%,2.5
genesis lite corp,6,13,46%,1.3
din 1.2080,6,11,55%,2.6
0258017025,6,21,29%,6.0
shunde textiles import and export,6,9,67%,2.0
xxx movies,6,92,7%,8.1
putti atti,6,21,29%,1.7
animal women sex,6,19,32%,50
hw902540p,6,24,25%,4.5
extreme micro bikini,6,14,43%,62
sexredtube,6,11,55%,33
marshell,6,337,2%,4.1
illume lighting company,6,18,33%,3.0
scp finish,6,7,86%,1.1
shivex traders ltd,6,21,29%,4.2
k14900d,6,25,24%,4.9
ansen electronics co,6,8,75%,1.5
tongfeng electronics,6,15,40%,1.0
cforbetter,6,10,60%,5.2
hooyu,6,21,29%,1.0
tricheer lh92,6,19,32%,4.8
aces electronics,6,25,24%,3.4
power first treadmill,6,32,19%,5.2
nlt international ltd,6,9,67%,4.3
l1450r,6,13,46%,1.8
ece r27,6,11,55%,3.1
"5kw, 240v electric motor",6,6,100%,2.8
diamec,6,77,8%,5.4
mandiri tackle store,6,17,35%,3.2
zhongshan broad-ocean motor replacement,6,94,6%,3.0
hk unique,6,20,30%,5.4
saxixxx,6,12,50%,13
you pron,6,21,29%,81
huayun holdings ltd,6,18,33%,2.6
j k corporation,6,17,35%,2.0
akt lighting,6,19,32%,3.8
tube8xxx,5,28,18%,29
sk & company clothing,5,6,83%,1.0
sex hd,5,8,62%,33
lntech,5,20,25%,5.7
skyworth stb,5,16,31%,4.8
wtg-016,5,6,83%,7.0
wentronic asia pacific limited,5,16,31%,3.5
guan ying electronic,5,6,83%,1.0
asus li-polymer battery pack c11-me172v,5,8,62%,1.9
mobi antenna technologies,5,9,56%,2.3
1080p porn videos,5,21,24%,40
hubdic thermometer,5,26,19%,5.8
kaper electrical co. ltd,5,9,56%,1.2
lifelike sex dolls,5,7,71%,50
shenzhen skyworth,5,8,62%,4.3
huahong holding group co. ltd,5,27,19%,2.2
tricheer lt66,5,15,33%,3.5
blue balls fucking machine,5,11,45%,2.5
xiamen solex,5,9,56%,1.1
falchion box,5,84,6%,1.5
preteen model,5,21,24%,140
wonder electronics,5,9,56%,3.0
solar wide industrial ltd,5,7,71%,2.1
masters international ltd,5,6,83%,6.3
jintech,5,32,16%,4.7
umenda clothing,5,10,50%,2.5
orientronic,5,7,71%,1.0
makena electronics,5,7,71%,1.9
shenzhen yang feng industrial co. ltd.china,5,19,26%,2.3
din 1.2343,5,9,56%,1.4
jianfengyuan toys,5,6,83%,1.0
6 october house ware factories,5,8,62%,2.5
don connex e162690,5,9,56%,1.0
china dragon technology limited,5,11,45%,2.4
orientronic manufacturing ltd,5,8,62%,1.0
zte holdings,5,7,71%,1.0
xxxhd,5,33,15%,62
ustc wire,5,7,71%,4.0
nakedtube,5,19,26%,33
xhq-pt,5,6,83%,1.8
kingclean,5,40,12%,4.3
bf4500,5,34,15%,8.0
micasa trading limited,5,5,100%,1.6
unistation,5,10,50%,5.7
qihan technology co ltd,5,8,62%,2.8
yuyue,5,95,5%,5.5
"wanlida group co., ltd",5,12,42%,1.0
wealth metal,5,22,23%,4.3
din967,5,21,24%,2.4
fujian tourist trading company,5,21,24%,5.0
bequator corporation limited,5,16,31%,4.3
nvp2431h,5,20,25%,8.6
xian wellwork industrial co. ltd,5,16,31%,6.6
skywood electronics,5,14,36%,6.7
shimano stella 20000fa,5,8,62%,2.5
home point furniture,5,8,62%,1.4
shaanxi blower,5,6,83%,2.2
keep ahead backpack,5,15,33%,5.1
maxwell co.ltd,5,16,31%,3.6
body action enterprise co. ltd,5,6,83%,2.2
changzhou globe tools co. ltd,5,9,56%,2.2
one village trading,5,25,20%,4.3
andon health co ltd china,5,9,56%,1.1
danmini doorbell,5,12,42%,9.3
sex hijab hot,5,5,100%,37
saipwell,5,69,7%,5.9
isus mobile,5,37,14%,3.8
orans sanitary ware,5,11,45%,4.7
prominent image,5,8,62%,1.0
lk corporation,5,7,71%,1.0
2202703106,5,13,38%,3.5
yeniya,5,9,56%,2.0
ccivo,5,14,36%,6.2
evalue technologies pvt ltd,5,27,19%,6.6
naked young tube,5,8,62%,23
iso 14581,5,21,24%,12
nova electronics,5,156,3%,8.5
royalcttactical,5,10,50%,7.3
linkrich,5,50,10%,7.8
ailipu,5,14,36%,4.8
peter point bag,5,9,56%,1.0
pro prp kit,5,8,62%,4.8
herba gra,5,39,13%,3.0
tricheer router,5,9,56%,3.0
delta potentiometer,5,16,31%,3.8
myhotbook,5,17,29%,33
kj tech korea,5,6,83%,1.3
p13n05b,5,7,71%,6.1
fronti,5,66,8%,5.5
obo mobile phone,5,11,45%,1.0
yiwu sunshine trade co ltd,5,6,83%,3.5
paiter,5,38,13%,9.5
hk-unique company,5,8,62%,5.8
0261210,5,14,36%,9.8
shine glory lighting,5,20,25%,7.8
"chongqing unisplendour chemical co., ltd.",5,30,17%,3.3
l&g jewelry,5,8,62%,1.0
fumakilla malaysia bhd,5,7,71%,1.9
nude 01 kyra,5,8,62%,1.0
long rich international,5,22,23%,4.3
jiangmen foreign trade group co ltd,5,30,17%,4.1
shenzhen skyworth digital technology,5,23,22%,2.7
minn kota powermax 36,5,8,62%,7.3
sako international,5,13,38%,4.8
fedelite,5,14,36%,1.0
s355j2n,5,28,18%,4.9
hxd electronics co. ltd,5,8,62%,1.1
yazilind jewelry ltd,5,31,16%,8.5
bitfury bf4500,5,19,26%,8.6
topconn,5,8,62%,1.8
massage sexy,5,9,56%,4.4
"tbea sunoasis co., ltd",5,5,100%,1.0
fumakilla,5,105,5%,8.0
digital integrated system sdn bhd,5,10,50%,1.1
xxltv,5,9,56%,77
xxxvideos,5,23,22%,5.7
mmkp82,5,21,24%,5.9
foryou car audio,5,21,24%,2.0
suzhou medical appliance factory,5,14,36%,1.0
well lead trading co. ltd,5,7,71%,1.0
jis g3312,5,14,36%,6.5
animalpass,5,38,13%,32
nova musicians,5,19,26%,6.8
semtoni speakers,5,10,50%,3.3
korea bone bank,5,10,50%,3.1
lr27a,5,22,23%,4.6
shenzhen xingjiexun electronics co.ltd,5,36,14%,2.5
josco international co. ltd,5,10,50%,1.4
papiya bali,5,12,42%,1.9
xiamen kangdali ltd,5,9,56%,1.0
private label flat irons,5,12,42%,8.0
girls without dress,5,12,42%,83
pt lucky maju jaya,5,10,50%,4.5
tricheer 4g portable router,5,12,42%,2.9
shanghai moons,5,11,45%,3.0
poly-products industries co ltd,5,13,38%,1.3
guangzhou sunda international trading co ltd,5,14,36%,3.8
"qingdao bensheng import&export co.,ltd",5,38,13%,3.4
ali m3510e,4,5,80%,3.4
yanmar d18,4,5,80%,6.0
tp241mc01g,4,11,36%,8.6
upad 6,4,7,57%,2.3
13003bd,4,8,50%,1.1
shun xin dress,4,9,44%,4.6
dolltube,4,10,40%,9.7
xxxhotsex,4,26,15%,30
onlytec,4,6,67%,2.0
kanmax,4,6,67%,5.0
umenda,4,15,27%,1.0
16601-28050,4,8,50%,4.9
linqing sanhe textiles group co ltd,4,20,20%,4.5
red devil fuck machine,4,8,50%,4.5
738h steel equivalent,4,5,80%,1.0
enercal plus price,4,6,67%,1.3
keisound,4,5,80%,1.6
fiberhome international,4,34,12%,9.8
chuanghuihua electronics co ltd,4,29,14%,5.3
jiaguan,4,15,27%,1.2
dr's secret bio herbs coffee,4,6,67%,3.8
swosc-v,4,8,50%,6.4
hw752035p,4,7,57%,7.7
xiamen phone,4,6,67%,2.0
video xxx china,4,4,100%,63
"beihai yutian frozen food co., ltd.",4,7,57%,4.1
foshan carro electrical co. ltd,4,30,13%,3.4
foreen industries ltd,4,6,67%,1.0
xxx.com,4,5,80%,47
sea of ice jewelry,4,13,31%,9.2
shenzhen bater explosion-proof technology co.ltd,4,17,24%,2.9
hdsex,4,14,29%,31
3cr14 stainless steel,4,6,67%,2.0
din 1715,4,6,67%,3.0
kingwave dvr,4,8,50%,2.6
sexgirls,4,16,25%,11
tricheer telecommunication ltd,4,10,40%,2.0
linethink,4,8,50%,6.1
sex xxx usa,4,6,67%,37
anaglyph porn,4,5,80%,36
din968,4,10,40%,4.5
jojo lighting,4,11,36%,3.1
photosex,4,8,50%,61
slion tape,4,15,27%,4.3
elinke,4,5,80%,2.0
global sterling products ltd,4,8,50%,3.6
alienware m20x,4,8,50%,1.0
shenghuo technology ltd,4,8,50%,3.0
sans electronic co ltd,4,15,27%,5.1
hirosy,4,9,44%,6.0
ailipu technology co. ltd,4,9,44%,2.3
rukma industries limited,4,6,67%,1.0
md319791,4,6,67%,1.0
you won ltd,4,6,67%,1.0
bright led electronics,4,12,33%,2.8
"www,sexcom",4,5,80%,85
jh trading,4,20,20%,4.6
din 985 iso,4,8,50%,7.3
dogma xm 9.9 - carbon 65hm3k torayca® - xm01,4,24,17%,6.8
9043201606,4,7,57%,4.0
mature bikini,4,7,57%,71
kcodes corporation,4,14,29%,2.3
bhntcp impex,4,6,67%,5.8
1.4003,4,45,9%,8.6
aihua group,4,5,80%,1.8
1080 p porn,4,10,40%,49
lavender tex co. limited,4,4,100%,1.0
416474-001,4,38,11%,8.6
500223-001,4,13,31%,4.3
animal sex cartoon,4,10,40%,24
golden international sources company limited,4,15,27%,2.9
dapu motor 250w,4,5,80%,3.0
"g&g concept co.,ltd",4,10,40%,3.0
kortech water dispenser,4,8,50%,9.5
techsum,4,13,31%,1.1
zhejiang xingyue scooter,4,10,40%,1.3
precision mold parts,4,4,100%,35
zhejiang chun-an foreign trade co. ltd,4,21,19%,2.3
gres monococcion floor tiles,4,7,57%,7.4
xxx china,4,15,27%,42
orvibo switch,4,5,80%,17
superinworld tablet,4,11,36%,3.3
acousma underwear,4,8,50%,4.0
lucky star enterprises,4,14,29%,4.4
dpt group,4,12,33%,5.1
omega juicer jakarta,4,7,57%,2.7
free porn videos,4,47,9%,6.7
fiberhome philippines,4,11,36%,8.9
ambarella a7la70,4,9,44%,33
sex xxxl,4,37,11%,33
shemale sex dolls,4,5,80%,28
shenzhen click technology co. ltd,4,20,20%,5.0
mtk 6753,4,35,11%,10
winstar electronics,4,7,57%,3.0
ningbo johnshen stationery co ltd,4,32,12%,3.4
"dongguan kechenda electronic technology co.,ltd",4,15,27%,4.4
jinghua glass block,4,16,25%,7.6
niton xl2 goldd price,4,7,57%,4.6
li-ion battery 25.2 v 6.9 ah,4,12,33%,6.5
san neng bakeware,4,8,50%,2.0
wellparts,4,5,80%,3.8
venusta coffee machine,4,5,80%,6.6
jinan meide casting co. ltd,4,27,15%,5.8
cock ring,4,5,80%,26
gussmann technologies,4,14,29%,5.7
zhongli sci-tech group,4,5,80%,1.8
sweet ceramics dinnerware,4,11,36%,2.0
3w7e-12a366-aa,4,8,50%,5.0
huawei b593 adsl,4,6,67%,4.2
da0um3mb8e0,4,7,57%,3.7
animal sex toys,4,8,50%,25
simax sports,4,12,33%,3.7
shiny pantyhose tube,4,6,67%,20
wolvesfleet,4,10,40%,9.7
shengyi motor,4,9,44%,9.2
ln-bt02,4,12,33%,7.7
foretech,4,27,15%,6.4
pittasoft co ltd,4,11,36%,4.5
hubdic co. ltd,4,9,44%,2.0
mimaki chip resetter,4,11,36%,7.6
green packaging co. ltd,4,5,80%,1.2
japan av video,4,11,36%,38
a-0701,4,8,50%,9.5
saip electric group company limited,4,11,36%,1.4
hkhonda,4,17,24%,3.6
hangzhou china arts industrial corp,4,18,22%,2.0
"shandong fengshou industrial group co., ltd.",4,9,44%,1.0
palette nude kyra,4,8,50%,3.4
switronic,4,42,10%,4.1
sema electronics,4,6,67%,2.3
changzhou jutai electronic co ltd,4,28,14%,4.7
hengxing caps & garments co. ltd,4,29,14%,4.6
porn 3d 1080p,4,4,100%,19
hi-speed lockstitch sewing machine definition,4,33,12%,8.6
kocom korea,4,8,50%,2.6
ledicon,4,8,50%,1.6
globalgrow,4,6,67%,4.0
resetear cartuchos hp 662,4,7,57%,19
chuango ip116,4,21,19%,5.5
leica tcrp 1201 price,4,6,67%,5.5
wealth metal factory,4,12,33%,4.7
liou yuane,4,9,44%,2.6
kinven,4,22,18%,5.4
langwei,4,12,33%,2.2
"andon health co., ltd",4,5,80%,1.4
hzp-ktswp-87a14,4,7,57%,2.3
ds maref,4,20,20%,6.2
diyomate tv box,4,16,25%,4.2
luminex led,4,9,44%,2.6
formike,4,24,17%,3.0
xxxmovies,4,28,14%,16
shida battery,4,11,36%,5.5
gold gain intl group limited,4,17,24%,3.6
shanghai hongfeng international,4,15,27%,2.7
jeylin corporation,4,7,57%,4.7
sirius group holdings limited,4,27,15%,5.7
usaxxx,4,12,33%,42
6ga2491-1a,4,6,67%,2.8
venezina,4,38,11%,2.1
p245gh,4,78,5%,7.4
nylon girl tube,4,4,100%,24
wvc1200,4,7,57%,3.0
wuhan yeniya garment ltd,4,6,67%,1.0
leaderbridal,4,13,31%,3.2
hebei longsheng metals & minerals co. ltd,4,56,7%,7.6
global lover,4,89,4%,5.2
hijab sex,4,4,100%,83
ug221h-le4,4,7,57%,14
royal garments industries (pvt) ltd,4,13,31%,3.4
sex xxxl 2015,4,5,80%,4.8
thinkview,4,13,31%,4.5
nirvana wigs,4,10,40%,11
8tube,4,60,7%,44
pp-md20,4,9,44%,2.3
zk4000 fingerprint reader,4,6,67%,2.0
stun gun kit,4,10,40%,6.8
mobis auto parts,4,7,57%,6.4
hc-03 bluetooth,4,7,57%,6.1
leica gps 1200 price,4,12,33%,8.5
"shenzhen bater explosion-proof technology co., ltd",4,33,12%,3.0
1.2344 tool steel,4,7,57%,2.7
highway shoes,4,12,33%,2.2
coshine group,4,15,27%,3.1
shunde textiles import and export company of guangdong,4,9,44%,1.0
brightbulb led,4,7,57%,2.3
chuan shun electric transformer,4,12,33%,1.0
advanced electronics energy limited,4,27,15%,7.3
colomdo,4,16,25%,2.8
juxing technology,4,10,40%,1.9
wiltronic corporation,4,11,36%,6.4
"ailipu technology co., ltd.",4,6,67%,3.5
"xi'an mohai trading co.,ltd",4,20,20%,3.1
kambo security products ltd,4,4,100%,2.3
derock linear actuator,4,9,44%,1.7
dong hung industrial joint stock company,4,29,14%,6.6
zcj,4,27,15%,3.8
lomoflex co. ltd,4,6,67%,1.8
topstar lighting,4,20,20%,3.1
fumakilla malaysia berhad website,4,13,31%,2.4
asap technology (jiangxi) co ltd,4,10,40%,8.4
cezio humidifier,4,8,50%,2.5
omega excel,4,27,15%,7.9
oval exhaust pipe supplier,4,5,80%,8.0
10 pin mini din to rca cable,4,6,67%,9.0
huake trading ltd,4,6,67%,1.0
euro-asia international inc. limited,4,18,22%,2.8
"redsun international co., ltd.",4,15,27%,4.6
genitop,4,9,44%,3.1
pinkporno,4,35,11%,12
chin up hydroponics,4,7,57%,1.4
electric tobacco shredder,4,6,67%,25
1.2343,4,41,10%,9.6
transformer radiator manufacturing process,4,24,17%,6.1
fly globe,4,4,100%,4.3
e1442,4,119,3%,6.7
"higher glory imp & exp co., ltd",4,31,13%,6.7
vippergirls,4,26,15%,1.0
jiuhua battery,4,9,44%,3.7
hw752025p,4,6,67%,10
56540-0u500,4,5,80%,1.6
accu service,4,11,36%,6.1
phasefale tacm,4,11,36%,5.3
elifon,4,13,31%,2.1
photoluminescent thread,4,10,40%,8.6
sexsport,4,7,57%,49
wooku,4,8,50%,7.0
jeyoo,4,9,44%,2.0
dobby sex,4,4,100%,200
e-tek,4,26,15%,10
alohawebcam,4,8,50%,2.5
gim triple seven sdn bhd,4,5,80%,4.2
jing sheng zhou,4,21,19%,7.4
yg international,3,9,33%,2.8
spectrum z510 price,3,5,60%,4.4
svt21228cxb,3,8,38%,7.4
joy technology,3,4,75%,4.8
sensoderm soap,3,4,75%,1.3
streamax cctv,3,6,50%,2.0
anhui feida industry stock co. ltd,3,18,17%,2.0
sunhokey,3,6,50%,11
96352650,3,4,75%,8.5
adl fabrik company turkey,3,9,33%,10
nikebrandsell,3,6,50%,2.0
ubmt,3,12,25%,3.2
epic es-809l,3,4,75%,4.8
trg bestnets hong kong limited,3,13,23%,3.7
zhejiang jiajia ride on co,3,4,75%,4.3
wyd industrial co. limited,3,10,30%,2.0
laurina mini fridge,3,5,60%,1.2
boda power tools,3,13,23%,8.2
hisilicon 3718,3,6,50%,6.5
saip electric group co. ltd,3,9,33%,1.6
icoo tablet,3,21,14%,7.2
gucbir generator,3,18,17%,4.6
yangjie,3,12,25%,6.3
1.4003 equivalent grade,3,15,20%,4.7
goodtouch electronics,3,9,33%,2.1
huawei shoes,3,5,60%,1.0
antai shoes,3,4,75%,5.3
hubei yihua group,3,4,75%,8.8
"aide diagnostic co., ltd.",3,7,43%,2.6
taiheng switch,3,9,33%,5.9
chtc auto,3,10,30%,5.1
hitvision,3,10,30%,2.3
reach auto parts,3,6,50%,6.7
techniche uae,3,5,60%,7.4
jenn feng,3,15,20%,4.9
benchi shoes,3,17,18%,4.3
mg holdings,3,7,43%,10
adel group,3,14,21%,6.2
taiyo cylinder distributors,3,6,50%,6.3
koda electronics,3,5,60%,2.0
tubepantyhose,3,4,75%,12
obo mobile,3,4,75%,1.3
provizer pharma,3,14,21%,11
rantle east electronic,3,4,75%,4.0
kasrrow,3,9,33%,5.4
enlers,3,3,100%,1.0
axus stationery (shanghai) company limited,3,15,20%,3.9
xxx.video,3,28,11%,4.8
sex zoo tube,3,5,60%,34
1756-ba,3,4,75%,4.3
kia mobis,3,10,30%,8.5
nail dryer table,3,4,75%,30
campvalley (xiamen) co. ltd,3,7,43%,2.7
harmony apparel,3,4,75%,1.3
jiangsu seagull cooling tower co. ltd,3,19,16%,3.8
atc energytech corporation limited,3,34,9%,6.4
yx-ni-mh 022144-tn,3,7,43%,5.3
i.b.c trading co. ltd,3,21,14%,5.2
j&j accessories,3,5,60%,1.4
powerfirst treadmill,3,9,33%,2.9
animal sexwomen,3,3,100%,21
higold furniture,3,14,21%,7.4
yamane yacht,3,7,43%,3.4
monococcion floor tiles,3,10,30%,5.1
sex animal women,3,3,100%,40
enameled aluminum wire,3,6,50%,4.2
shenzhen rita lighting technology limited,3,21,14%,5.0
aimily bags,3,15,20%,5.2
kondo chain block,3,7,43%,8.7
create new technology,3,4,75%,1.0
young yak enterprise co ltd,3,3,100%,1.3
icr 14650 battery,3,6,50%,8.5
frontier flare fl02a,3,8,38%,6.0
hcb batteries,3,5,60%,3.8
sakura thread,3,5,60%,3.2
sunco tools,3,6,50%,2.3
healong,3,21,14%,5.7
imax marketing global ltd.,3,7,43%,3.7
nbjx usa,3,8,38%,2.9
tricheer allnetwork,3,6,50%,5.2
toppik wholesale,3,4,75%,6.5
soft lines international ltd,3,5,60%,3.4
angle cleat sizes,3,10,30%,5.7
milo enterprises inc.,3,3,100%,4.0
company shangkun in china.,3,4,75%,1.0
royal led,3,5,60%,4.8
catic shenzhen company,3,5,60%,5.6
"anhui yinfeng pharmaceutical co., ltd.",3,13,23%,2.5
chuan shun electric company,3,4,75%,3.3
pofoko backpack,3,5,60%,5.4
yamei wigs,3,4,75%,1.0
omi home appliances,3,6,50%,1.0
hottech,3,17,18%,3.2
tofee trading co. llc,3,11,27%,6.3
uniscope mobile,3,6,50%,4.5
sunyuu,3,5,60%,1.4
sex tube zoo,3,5,60%,30
mercari contact number,3,14,21%,9.0
realsexdolls,3,8,38%,15
testrite,3,96,3%,6.5
re531436,3,5,60%,2.2
84465105,3,4,75%,13
wys international,3,8,38%,3.5
mk 962 keyboard,3,5,60%,3.4
durable king helicopter,3,4,75%,7.3
longtron,3,15,20%,4.7
orvibo smart switch,3,6,50%,15
laminated ips screen,3,3,100%,5.3
syil t3,3,4,75%,4.8
0280202208,3,5,60%,7.6
121/2x21/4 tire,3,4,75%,6.5
xxxsex,3,15,20%,2.4
animal sex girl,3,7,43%,16
p&e electronics,3,4,75%,7.5
uic 864-1,3,6,50%,5.2
kaiyang international trade company,3,15,20%,3.6
nexx router,3,8,38%,9.3
toyota intelligent tester,3,3,100%,17
1080p porn video,3,10,30%,41
sangtai 5168,3,14,21%,4.4
zhonghao industry limited,3,6,50%,2.8
casting tube,3,8,38%,69
sinoway industrial co. ltd,3,9,33%,4.7
tin packing,3,15,20%,2.7
bio herbs coffee dr's secret,3,5,60%,3.2
naatchiar textile exporters,3,5,60%,6.0
gm8283,3,7,43%,9.3
vplgp0114,3,8,38%,5.5
haier international business corporation limited,3,9,33%,8.7
"feitai international trade co., ltd.",3,5,60%,1.0
"hongkong yuancheng gongchuang technology co., limited",3,15,20%,7.1
estar led,3,8,38%,5.4
star five group llc,3,5,60%,3.6
aweite battery,3,4,75%,3.0
animaltube,3,35,9%,33
sunscreen company limited,3,5,60%,4.8
adult baby stories,3,8,38%,69
fujian star-net communication co. ltd,3,22,14%,2.2
sae 4135,3,12,25%,6.1
shinetex,3,6,50%,1.5
shandong hengfeng rubber & plastic co. ltd,3,43,7%,5.7
fcd50,3,9,33%,7.4
animalsexgirl,3,8,38%,36
asny craft factory,3,11,27%,6.9
sampo furniture,3,8,38%,4.4
h&e performance,3,6,50%,3.7
06h121008,3,11,27%,6.4
gitter box,3,5,60%,7.2
a21-1601020,3,3,100%,4.7
cyclone precision,3,7,43%,4.4
semtoni,3,22,14%,6.3
soken rk1-01,3,4,75%,12
uhin sofa sdn bhd,3,8,38%,4.9
enema machine,3,5,60%,24
mannheim furnace,3,4,75%,11
japan av sex,3,7,43%,62
"ongr mall co.,ltd",3,12,25%,2.8
huahong holding,3,3,100%,2.3
intimate jewelry,3,5,60%,50
pumpkin peeling machine,3,3,100%,17
j&l bike parts,3,8,38%,3.4
vogue manlin,3,9,33%,2.4
hailin diesel engine,3,6,50%,6.0
latest automotive technology sdn bhd,3,17,18%,5.4
ab worldwide sdn bhd,3,5,60%,3.0
saidon fashion,3,10,30%,9.0
hing lung motor mfy,3,5,60%,2.6
la spaziale s9 price,3,3,100%,18
"wuhan chancay machinery & electronics co., ltd.",3,13,23%,1.9
441534-001,3,4,75%,2.3
amitime,3,10,30%,6.5
mp3cool,3,82,4%,11
"realsun commerce co.,ltd",3,6,50%,2.0
angel latex,3,5,60%,25
hoyol,3,10,30%,2.8
yiwu sunshine trade co. ltd,3,6,50%,3.5
g&j paper co. ltd,3,5,60%,5.0
seair impex private limited,3,6,50%,5.2
"smlpretty technology co., limited",3,26,12%,2.0
packs4u,3,8,38%,3.0
pp md 20,3,4,75%,2.0
265600004r,3,5,60%,5.4
indigo beautie company limited,3,8,38%,6.8
shandong hongsheng rubber co. ltd,3,19,16%,5.8
fried ice cream machine,3,7,43%,19
suzhou goldengreen technologies,3,44,7%,7.5
china electronics zhejiang company,3,44,7%,5.2
foshan junjing industrial co ltd,3,32,9%,6.8
duta pesona jaya,3,11,27%,1.5
ondoing pet products,3,5,60%,4.8
huaptec,3,5,60%,6.2
delei fire,3,11,27%,2.0
9cr14mov,3,5,60%,8.2
lh92 4g,3,5,60%,9.8
hk honda,3,7,43%,4.7
kedu switches distributors,3,10,30%,3.4
jwt connector,3,14,21%,10
xxxpic,3,16,19%,42
aliexport,3,29,10%,5.7
kocom co. ltd,3,4,75%,2.0
edac power,3,21,14%,4.3
pedicure bench,3,5,60%,42
telescopic gazebo,3,11,27%,5.5
comdaq industries,3,6,50%,3.3
everest lighting,3,12,25%,2.0
foryou car stereo,3,4,75%,1.8
test rite international co. ltd,3,28,11%,4.0
dwi prima sentosa,3,10,30%,3.3
eve energy,3,200,2%,6.2
iready go,3,4,75%,1.3
adel group (asia) limited,3,4,75%,1.0
jomoo,3,23,13%,8.7
