"UNIQUE WORDs","FREQUENCY COUNT","CHARACTER COUNT","Summed Impressions","Summed Clicks","Summed CTR","Summed Avg. position"
"r","655","1","7900","29","0.003670886075949367","101.1587257617729"
"a","404","1","4469","24","0.005370328932647125","108.7903448275862"
"google","152","6","2904","10","0.003443526170798898","95.46842105263158"
"check","139","5","2478","3","0.001210653753026634","119.9920863309353"
"in","138","2","2110","0","0","134.241935483871"
"rank","131","4","2354","0","0","155.3307692307692"
"serp","105","4","3575","21","0.005874125874125874","111.5933333333333"
"on","82","2","2018","2","0.0009910802775024777","90.77215189873418"
"to","70","2","1505","22","0.01461794019933555","76.71764705882352"
"checker","67","7","1503","0","0","130.7164179104478"
"keyword","67","7","964","0","0","179.6417910447761"
"ranking","64","7","1130","0","0","161.765625"
"pr","55","2","2637","7","0.002654531664770573","43.34727272727273"
"tool","53","4","1244","7","0.005627009646302251","85.81509433962263"
"track","46","5","483","0","0","171.0652173913043"
"seo","39","3","1316","0","0","102.6666666666667"
"position","34","8","875","0","0","142.9411764705882"
"enterprise","26","10","1743","0","0","49.61538461538461"
"snippet","26","7","632","6","0.00949367088607595","18"
"search","21","6","612","0","0","105.9714285714286"
"web","21","3","142","4","0.02816901408450704","84.0952380952381"
"heat","20","4","140","1","0.007142857142857143","46.955"
"tracker","20","7","306","0","0","167.2"
"map","20","3","140","1","0.007142857142857143","46.955"
"analytics","19","9","284","1","0.00352112676056338","58.84736842105263"
"doc","19","3","159","0","0","27.04210526315789"
"tracking","17","8","91","0","0","169.7647058823529"
"url","16","3","49","0","0","33.8625"
"preview","16","7","760","7","0.009210526315789473","16.94375"
"of","16","2","122","0","0","131.5"
"serps","16","5","138","0","0","100.23125"
"q","15","1","70","3","0.04285714285714286","35.86666666666667"
"docs","15","4","132","0","0","29.19333333333333"
"sheet","14","5","106","0","0","43.30769230769231"
"code","14","4","64","0","0","39.57142857142857"
"query","14","5","69","3","0.04347826086956522","37.85714285714285"
"link","13","4","52","0","0","43.23076923076923"
"software","13","8","117","0","0","153.9230769230769"
"status","13","6","140","0","0","35.28461538461539"
"jquery","13","6","39","3","0.07692307692307693","23.84615384615385"
"async","12","5","36","3","0.08333333333333333","24"
"load","12","4","38","3","0.07894736842105263","18.83333333333333"
"site","11","4","64","3","0.046875","108.2636363636364"
"xml","11","3","237","0","0","43.36363636363637"
"for","11","3","161","0","0","73.54545454545455"
"import","10","6","221","0","0","42.7"
"website","10","7","63","3","0.04761904761904762","115.19"
"page","9","4","41","0","0","66.11111111111111"
"engine","9","6","535","0","0","106.2222222222222"
"training","9","8","623","0","0","49.66666666666666"
"importxml","9","9","220","0","0","42.55555555555556"
"spreadsheet","9","11","101","0","0","42.33333333333334"
"keywords","9","8","89","0","0","222.2222222222222"
"links","8","5","43","0","0","45.5"
"free","8","4","33","0","0","41.75"
"optimization","8","12","531","0","0","24.125"
"open","8","4","61","1","0.01639344262295082","26.2625"
"image","7","5","16","0","0","18.42857142857143"
"heatmap","7","7","61","0","0","30.57142857142857"
"http","7","4","43","0","0","38.14285714285715"
"response","7","8","25","0","0","37.42857142857143"
"script","7","6","72","2","0.02777777777777778","26"
"com","6","3","14","0","0","156.1666666666667"
"service","6","7","105","0","0","85.33333333333333"
"tools","6","5","13","0","0","122.5"
"broken","6","6","44","0","0","52.01666666666667"
"meta","6","4","71","2","0.02816901408450704","23.33333333333333"
"tag","6","3","56","0","0","101.4666666666667"
"simulator","6","9","213","15","0.07042253521126761","7.433333333333334"
"description","6","11","71","2","0.02816901408450704","23.33333333333333"
"source","5","6","30","0","0","18.4"
"list","5","4","14","3","0.2142857142857143","33.98"
"synchronous","5","11","10","0","0","20"
"asynchronous","4","12","7","0","0","19.5"
"test","4","4","17","0","0","82.5"
"rankings","4","8","70","0","0","142.25"
"vorschau","4","8","8","0","0","29"
"server","4","6","18","0","0","40.75"
"canonical","4","9","33","0","0","156.75"
"services","4","8","29","0","0","43"
"urls","4","4","5","0","0","42"
"find","4","4","62","0","0","109"
"hyperlink","3","9","6","0","0","36"
"excel","3","5","92","0","0","41.66666666666666"
"404","3","3","4","0","0","39"
"asynchronously","3","14","6","0","0","18.33333333333333"
"title","3","5","42","0","0","12.93333333333333"
"extract","3","7","18","0","0","28.66666666666667"
"checking","3","8","48","0","0","193.3333333333333"
"consulting","3","10","31","0","0","94.66666666666667"
"best","3","4","6","0","0","114"
"checklist","3","9","11","3","0.2727272727272727","31.63333333333334"
"sheets","3","6","4","0","0","46.66666666666666"
"firm","3","4","22","0","0","80.66666666666667"
"with","2","4","5","0","0","299"
"background","2","10","6","0","0","1"
"login","2","5","6","0","0","1"
"images","2","6","8","0","0","8.5"
"user","2","4","6","0","0","1"
"onpage","2","6","6","0","0","36.5"
"full","2","4","4","0","0","55.5"
"codes","2","5","4","0","0","48"
"usability","2","9","18","0","0","155"
"companies","2","9","7","0","0","34.5"
"report","2","6","13","0","0","113.5"
"consultant","2","10","35","0","0","33.5"
"all","2","3","2","0","0","29"
"level","2","5","419","0","0","13.5"
"firms","2","5","21","0","0","102.5"
"function","2","8","2","0","0","41"
"snippets","2","8","9","0","0","16"
"anchor","2","6","2","0","0","43.5"
"solution","2","8","391","0","0","34"
"finder","2","6","43","0","0","140"
"how","2","3","25","0","0","116"
"extractor","2","9","17","0","0","23"
"into","1","4","1","0","0","49"
"loader","1","6","1","0","0","23"
"loading","1","7","1","0","0","16"
"reports","1","7","1","0","0","7"
"consultancy","1","11","1","0","0","40"
"cell","1","4","1","0","0","49"
"functions","1","9","1","0","0","42"
"top","1","3","1","0","0","130"
"and","1","3","1","0","0","520"
"combine","1","7","1","0","0","520"
"results","1","7","1","0","0","40"
"insert","1","6","1","0","0","49"
"owa","1","3","1","0","0","36"
"searched","1","8","1","0","0","130"
"hyperlinks","1","10","1","0","0","21"
"remove","1","6","1","0","0","21"
"another","1","7","1","0","0","49"
"speed","1","5","1","0","0","37"
"www","1","3","1","0","0","8"
"text","1","4","1","0","0","72"
"display","1","7","1","0","0","43"
"basic","1","5","1","0","0","350"
"waterfall","1","9","1","0","0","37"
"advanced","1","8","14","0","0","92"
"dem","1","3","18","0","0","86"
"mit","1","3","18","0","0","86"
"example","1","7","19","0","0","37"
"screaming","1","9","18","0","0","86"
"frog","1","4","18","0","0","86"
"marketing","1","9","14","0","0","53"
"dead","1","4","16","0","0","50"
"consultants","1","11","20","0","0","38"
"country","1","7","27","0","0","110"
"uk","1","2","56","0","0","80"
"solutions","1","9","339","0","0","31"
"aesthetics","1","10","9","3","0.3333333333333333","4.9"
"heatmaptool","1","11","30","0","0","28"
"websites","1","8","28","0","0","25"
"by","1","2","27","0","0","110"
"rankingkeyword","1","14","28","0","0","25"
"tags","1","4","11","0","0","210"
"webpagetest","1","11","11","0","0","71"
"raking","1","6","2","0","0","99"
"button","1","6","2","0","0","79"
"share","1","5","2","0","0","79"
"between","1","7","2","0","0","43"
"saas","1","4","2","0","0","10"
"serpsimulator","1","13","2","0","0","22"
"aup","1","3","2","0","0","10"
"facebook","1","8","2","0","0","79"
"cheker","1","6","3","0","0","140"
"program","1","7","7","0","0","39"
"businesses","1","10","8","0","0","190"
"maps","1","4","6","0","0","160"
"analyze","1","7","5","0","0","96"
"authorship","1","10","4","0","0","44"
"snippettool","1","11","5","0","0","5"
"openwebanalytics","1","16","1","0","0","43"
