Query,Impressions,Change,Clicks,Change,CTR,Change,Avg. position,Change
the motivation mentalist,90,4%,3,75%,3%,2,8,
motivation mentalist,123,21%,2,200%,2%,8,1,0.2
wolf of wall street motivational speech script,6,-18%,2,∞,33%,10,9.3,
9gag motivational quotes,3,27%,2,∞,67%,2,7.7,
i love the kind of hugs where you can,60,8%,1,50%,2%,0.6,7.9,
i see now that the circumstances of one's birth are irrelevant gandhi,21,-28%,1,50%,5%,5,6.9,0.1
yoda motivation,3,-25%,1,-50%,33%,-0.6,8,0.1
wolf of wall street speech transcript,2,-7%,1,100%,50%,2,15,0.6
sam berns quote,1,14%,1,,100%,-0.1,28,-0.1
i will always choose a lazy person to do a difficult job,1,16%,1,∞,100%,5,34,
the man in the arena,7556,-47%,0,,0%,3,2.7,1
man in the arena,6525,-50%,0,∞,0%,7,3,-0.3
rocky balboa quotes,2054,∞,0,∞,0%,50,1.2,
theodore roosevelt man in the arena,808,∞,0,∞,0%,50,2.7,
roosevelt man in the arena,624,-75%,0,∞,0%,100,2,-2
napoleon hill quotes,565,-35%,0,∞,0%,,3.7,-0.3
theodore roosevelt the man in the arena,362,42%,0,∞,0%,,2.7,-0.2
think and grow rich quotes,351,-18%,0,∞,0%,,3.5,5
the world ain't all sunshine and rainbows,265,34%,0,∞,0%,,1.8,7
socrates quotes,231,131%,0,∞,0%,,6.9,
mewtwo quotes,173,60%,0,∞,0%,,2.4,10
roosevelt the man in the arena,171,37%,0,∞,0%,,2.1,9
in the arena,161,2%,0,∞,0%,,8.1,-3
nick vujicic quotes,149,-24%,0,∞,0%,,2.1,1
man in the arena roosevelt,145,19%,0,∞,0%,,2,1
theodore roosevelt quotes man in the arena,144,-27%,0,∞,0%,,5.9,-9
roosevelt arena,142,112%,0,∞,0%,,7.1,10
rocky balboa motivational,131,176%,0,∞,0%,,1.5,2
the man in the arena theodore roosevelt,127,-33%,0,∞,0%,,2,-5
man in the arena theodore roosevelt,126,-7%,0,∞,0%,,2,-4
man in arena,124,17%,0,∞,0%,,3.8,3
theodore roosevelt arena,120,2833%,0,∞,0%,,6.1,20
quotes by socrates,111,61%,0,∞,0%,,4.4,4
the true test of a man's character is what he does when no one is watching,109,181%,0,-100%,0%,-3,4.4,1
napoleon hill think and grow rich quotes,108,33%,0,∞,0%,,7.1,-7
the man in the arean,107,28%,0,∞,0%,,2.6,-10
theodore roosevelt in the arena,103,39%,0,∞,0%,,4,-20
the man in the areana,93,-56%,0,∞,0%,,2.6,-4
man in the areana,92,91%,0,∞,0%,,3,-6
man in the arean,89,-3%,0,∞,0%,,3,3
roosevelt in the arena,88,67%,0,∞,0%,,4.6,3
the man in the arena roosevelt,86,-5%,0,∞,0%,,2.5,-3
rocky balboa it's not about how hard,83,-6%,0,∞,0%,,7.4,-3
theodore roosevelt quotes the man in the arena,82,-6%,0,∞,0%,,4.3,-3
the credit belongs to the man in the arena,79,260%,0,∞,0%,,6,5
rocky quotes it's not about how hard,76,13%,0,∞,0%,,7,-10
quotes from rocky balboa,75,-15%,0,∞,0%,,1.8,7
quotes from socrates,74,49%,0,∞,0%,,4.4,2
"“strong minds discuss ideas, average minds discuss events, weak minds discuss people.”",72,49%,0,∞,0%,,2,-6
rocky balboa quotes it's not about how hard you hit,69,-23%,0,-100%,0%,-2,4,1
rocky balboa motivation,69,22%,0,∞,0%,,1,-10
napoleon hill,68,79%,0,∞,0%,,11,20
napoleon hill quotes think and grow rich,65,10%,0,∞,0%,,7.8,-30
life ain't all sunshine and rainbows rocky,62,309%,0,∞,0%,,3.3,-2
in the arena roosevelt,60,∞,0,∞,0%,,5.1,
sunshine and rainbows rocky,60,-4%,0,∞,0%,,7.7,2
napoleon hill success,59,54%,0,∞,0%,,6.3,-5
cristiano ronaldo motivation,59,273%,0,∞,0%,,1.7,-3
tr man in the arena,59,550%,0,∞,0%,,4,10
socrates knowledge quote,58,6%,0,∞,0%,,5.1,-3
socrates wisdom quote,58,-17%,0,∞,0%,,7.9,-6
quotes of socrates,57,∞,0,∞,0%,,3.4,
life is not sunshine and rainbows,55,300%,0,∞,0%,,4.9,80
"""the man in the arena""",55,64%,0,∞,0%,,2.8,-6
the man in the arena by theodore roosevelt,54,800%,0,∞,0%,,2.7,-30
the arena roosevelt,51,143%,0,∞,0%,,4.3,-2
theodore roosevelt the arena,50,-21%,0,∞,0%,,4.7,-6
the world is not sunshine and rainbows quote,48,-11%,0,∞,0%,,8.7,10
a man in the arena,48,18%,0,∞,0%,,1.8,-5
napoleon hill's quotes,47,-42%,0,∞,0%,,4.1,-10
life is not rainbows and sunshine,47,7%,0,∞,0%,,4,-4
it is the man in the arena,46,10%,0,∞,0%,,2,0.4
rocky balboa quotes the world ain't all sunshine and rainbows,43,78%,0,∞,0%,,1,-20
roosevelt quotes man in the arena,43,14%,0,∞,0%,,5.3,-8
rocky 5 quotes,43,-31%,0,∞,0%,,4.2,
kalidas quotes,42,7%,0,∞,0%,,4.6,-20
napoleon hill thought of the day,42,63%,0,∞,0%,,6.4,-10
socrates quotes knowledge,42,7%,0,∞,0%,,5.2,-6
the man in arena,42,67%,0,∞,0%,,4,-9
are the ones who do,41,11%,0,∞,0%,,7.3,0.3
quotes by napoleon hill,40,∞,0,∞,0%,,3.8,
rocky balboa the world ain't all sunshine,40,222%,0,∞,0%,,2,-7
rocky life is not all sunshine and rainbows,40,26%,0,∞,0%,,7.3,-10
the mind of napoleon,38,190%,0,∞,0%,,10,-10
socrates true wisdom quote,37,12%,0,∞,0%,,9.7,3
have faith in your dreams and someday your rainbow will come smiling through,36,-68%,0,∞,0%,,7.9,-20
keep moving forward rocky,36,-61%,0,∞,0%,,2.7,-2
socrates quotes on love,36,4%,0,∞,0%,,1.6,-50
theodore roosevelt quotes arena,35,65%,0,∞,0%,,3.2,-0.6
the world is not sunshine and rainbows,35,-13%,0,∞,0%,,6.3,-10
life ain't all sunshine and rainbows,35,-4%,0,∞,0%,,4.1,-50
rocky life ain't all sunshine rainbows,35,575%,0,∞,0%,,2.7,-20
the world ain't all sunshine and rainbows rocky,34,17%,0,∞,0%,,2.8,6
jack ma quotes,34,23%,0,∞,0%,,1.8,3
ronaldo motivation,34,117%,0,∞,0%,,1.1,5
alibaba jack ma quotes,34,4%,0,∞,0%,,2.6,-5
rocky balboa saying,33,-10%,0,∞,0%,,4.6,-10
definite plan,33,8%,0,∞,0%,,7,-70
wisdom socrates,33,∞,0,∞,0%,,7.6,
quotes rocky balboa,33,400%,0,∞,0%,,1.4,-10
rocky the world ain't all sunshine,33,-19%,0,∞,0%,,1,-10
the arena theodore roosevelt,32,∞,0,∞,0%,,4.8,
the true test of a man’s character is what he does when no one is watching,32,-8%,0,-100%,0%,-4,4.7,0.8
come smiling,32,380%,0,∞,0%,,4.7,-20
nick vujicic overcoming hopelessness,31,2300%,0,∞,0%,,6.9,7
rocky balboa keep moving forward,31,380%,0,∞,0%,,5.4,-2
roosevelt quotes arena,31,77%,0,∞,0%,,8.2,-6
the world ain't sunshine and rainbows,30,-32%,0,∞,0%,,2.8,-7
steve jobs socrates,30,2200%,0,∞,0%,,2,-10
man in the arena speech by theodore roosevelt,30,-12%,0,∞,0%,,5.5,2
rocky keep moving forward,30,∞,0,∞,0%,,2.8,
it ain't how hard you hit speech,29,35%,0,∞,0%,,3,-40
into the arena,27,28%,0,∞,0%,,5.1,80
the true test of a man,26,-29%,0,∞,0%,,6.2,-3
rocky the world ain't all sunshine and rainbows,26,∞,0,∞,0%,,2.9,
"""man in the arena""",26,175%,0,∞,0%,,3,6
balboa quotes,26,162%,0,∞,0%,,4.2,20
socrates best quotes,26,91%,0,∞,0%,,3.3,-0.5
i love the kind of hugs where you can physically feel the sadness leaving your body,25,-32%,0,∞,0%,,8,-4
it's not the man in the arena,24,-32%,0,∞,0%,,5.6,-4
nick vujicic education,23,∞,0,∞,0%,,9.3,
life ain't sunshine and rainbows,23,-9%,0,∞,0%,,3,-5
seo consultancy,23,110%,0,∞,0%,,430,-10
quotes by rocky balboa,23,∞,0,∞,0%,,1,
motivation rocky balboa,23,-38%,0,∞,0%,,1,-2
it's not all sunshine and rainbows,22,150%,0,∞,0%,,6,-8
best of socrates,22,-46%,0,∞,0%,,8.3,-4
socrates quotes wisdom,22,-37%,0,∞,0%,,5,-7
to the man in the arena,22,38%,0,∞,0%,,2,-3
rocky balboa motivational speech,22,125%,0,∞,0%,,3.5,-7
rocky balboa sunshine and rainbows,21,-31%,0,∞,0%,,8.5,3
socrates quote on knowledge,20,31%,0,-100%,0%,-30,4,0.2
arena man,20,-6%,0,∞,0%,,7.9,-8
rocky vi quotes,20,∞,0,∞,0%,,5.1,
rocky balboa life,20,-82%,0,∞,0%,,7.8,-20
the world is not all sunshine and rainbows,20,42%,0,∞,0%,,6.4,-2
wisdom of socrates,19,-19%,0,∞,0%,,11,-10
maninthearena,19,-39%,0,∞,0%,,5,-6
man on the arena,19,∞,0,∞,0%,,4.9,
jack ma quote,19,23%,0,∞,0%,,1.3,-2
mindset quotes positive,19,433%,0,∞,0%,,4.2,-10
rocky sunshine and rainbows,19,220%,0,∞,0%,,8.1,-40
jack ma money,19,1500%,0,∞,0%,,9.8,-30
rocky 6 motivation,19,14%,0,∞,0%,,1.9,20
life ain't all sunshine and rainbows rocky balboa,19,129%,0,∞,0%,,5.1,-10
character when no one is watching,19,100%,0,-100%,0%,-10,5.1,-20
the man in the arena quote,18,-20%,0,∞,0%,,1.5,3
it's the man in the arena,18,275%,0,∞,0%,,3.6,10
napoleon hill s the road to success,18,150%,0,∞,0%,,8.9,-0.2
success the best of napoleon hill,18,-17%,0,∞,0%,,8.2,0.7
the world ain't all sunshine and rainbows speech,18,200%,0,∞,0%,,2.2,-10
socrates quotes on god,18,1300%,0,∞,0%,,2.1,-60
you ought to spend a little more time,18,600%,0,∞,0%,,7.9,9
roosevelt the arena,18,-71%,0,∞,0%,,3.6,-0.4
overcoming hopelessness nick vujicic,17,-30%,0,∞,0%,,9.1,-3
spend a little less time trying to impress,17,-39%,0,∞,0%,,5.2,-20
the world is not all sunshine and rainbows rocky,17,40%,0,∞,0%,,6.5,-20
napolean hill quotes,17,-24%,0,∞,0%,,3.8,-70
rocky quote the world ain't all sunshine,17,-54%,0,∞,0%,,2.5,-3
rocky balboa that's how winning is done speech,17,,0,∞,0%,,8.1,-3
in the arena theodore roosevelt,17,∞,0,∞,0%,,5.2,
cristiano ronaldo motivational quotes,17,62%,0,∞,0%,,1.3,2
snoopy motivation,16,160%,0,∞,0%,,8.6,0.7
overcoming hopelessness nick vujicic at tedxnovisad,16,∞,0,∞,0%,,8.4,
good mindset quotes,16,8%,0,∞,0%,,3.6,-1
socrates quotes death,16,160%,0,∞,0%,,3.6,-30
quotes napoleon hill,16,225%,0,∞,0%,,3.3,-10
socrates true knowledge,16,550%,0,∞,0%,,9.5,-10
keep moving forward rocky balboa,15,300%,0,∞,0%,,2.1,-8
rocky balboa motivational speech text,15,-8%,0,∞,0%,,8.1,
mewtwo quotes i see now that,15,-20%,0,∞,0%,,6.8,3
overcoming hopelessness,15,-56%,0,∞,0%,,13,-5
the world aint all sunshine and rainbows,15,-37%,0,∞,0%,,1.3,-10
braveheart motivational speech,14,-57%,0,∞,0%,,32,-3
world ain't all sunshine and rainbows,14,-48%,0,∞,0%,,2.9,-20
socrates motivational quotes,13,-58%,0,∞,0%,,3.4,0.5
dead poets society marrow,13,,0,∞,0%,,11,-80
socrates quotes on knowledge,13,120%,0,∞,0%,,3.9,-7
character is when no one is watching,13,-8%,0,-100%,0%,-20,4.5,1
roosevelt speech man in the arena,12,175%,0,∞,0%,,8.2,-5
socrates quotes about knowledge,12,∞,0,∞,0%,,5.8,
rocky quotes sunshine and rainbows,12,-21%,0,∞,0%,,3.5,-9
quotes socrates,12,233%,0,∞,0%,,3.3,-8
the man in the arena wallpaper,12,-67%,0,∞,0%,,1,-10
arena roosevelt,12,-81%,0,∞,0%,,7.3,-3
rocky quotes life hits hard,11,∞,0,∞,0%,,8.4,
theodore man,11,-53%,0,∞,0%,,4.8,40
road to success napoleon hill,11,∞,0,∞,0%,,8.9,
deep poets society,11,80%,0,∞,0%,,8.5,5
when i'm sad i stop being sad and be awesome instead traduction,11,12%,0,∞,0%,,8,10
quotes about socrates,11,∞,0,∞,0%,,3.4,
dead poets society marrow quote,11,-53%,0,∞,0%,,9.7,-6
theodore roosevelt man in the arena speech,11,∞,0,∞,0%,,6.7,
socrates quote knowledge,11,-53%,0,∞,0%,,5.5,-20
how to say vincent van gogh,11,∞,0,∞,0%,,8.5,
steve jobs fear,11,∞,0,∞,0%,,4.9,
teddy roosevelt man in the arena,11,-44%,0,∞,0%,,2.1,-7
rocky balboa qoutes,11,-84%,0,∞,0%,,1.2,-3
rocky balboa quotes life,11,167%,0,∞,0%,,3.3,-10
socrates quotes about god,11,-11%,0,-100%,0%,-10,2.1,-0.5
it ain't all sunshine and rainbows,11,33%,0,∞,0%,,1.3,-6
john quincy adams leadership quote,10,700%,0,∞,0%,,6.4,300
remembering that you are going to die is the best way i know to avoid the trap of thinking,10,-11%,0,∞,0%,,5.3,-2
the true test of a man's character,10,-38%,0,∞,0%,,8.9,-1
rocky hard,10,60%,0,∞,0%,,8.4,100
三字经 english translation,10,100%,0,∞,0%,,7.4,-10
dead poets society poem,10,300%,0,∞,0%,,8.9,-30
the world ain't all sunshine,10,-74%,0,∞,0%,,2.1,-20
man in the arena by theodore roosevelt,10,-42%,0,∞,0%,,2,-1
best quotes of socrates,10,∞,0,∞,0%,,2.5,
man in the arena quote,10,-84%,0,∞,0%,,1.7,-6
quotes of rocky balboa,9,75%,0,∞,0%,,1,5
poem from dead poets society,9,∞,0,∞,0%,,8.1,
rocky quotes it's not about how hard you can hit,9,-63%,0,∞,0%,,3.1,-30
life is no sunshine and rainbows,9,133%,0,∞,0%,,7.2,1
man in the arena wallpaper,9,75%,0,∞,0%,,1,-4
quotes on teamwork and change,9,50%,0,∞,0%,,5.6,-2
rocky no matter how hard you get hit,9,∞,0,∞,0%,,6.9,
rocky sunshine and rainbows quote,9,500%,0,∞,0%,,4.8,-50
rocky balboa it's not about how hard you can get hit,9,-70%,0,∞,0%,,5.8,-10
socrates death quotes,9,500%,0,∞,0%,,2.6,20
life is not all sunshine and rainbows,9,-25%,0,∞,0%,,3.8,7
socrates quotes on children,9,-54%,0,-100%,0%,-8,6.8,1
the man in the arena español,9,-60%,0,∞,0%,,2,-1
rocky balboa quotes about life,9,-40%,0,∞,0%,,2.7,
quotes of napoleon hill,9,500%,0,∞,0%,,2.6,10
snoopy i love you pictures,9,,0,∞,0%,,1,8
no paid no gain,9,-38%,0,∞,0%,,6.1,-5
positive mindset,9,150%,0,∞,0%,,2,
socrates philosophy quotes,9,∞,0,∞,0%,,3.8,
it's all sunshine and rainbows,9,67%,0,∞,0%,,6.4,-4
rocky it ain't how hard you hit speech,8,,0,∞,0%,,5.5,-20
napoleon words,8,∞,0,∞,0%,,3.1,
jack ma looks like,8,-82%,0,∞,0%,,2.1,-4
socrates wisdom quotes,8,-90%,0,∞,0%,,3.9,-20
i never tried to hide the fact that my only goal is to be the best,8,-75%,0,∞,0%,,9.1,-10
socrates god quotes,8,400%,0,∞,0%,,2,-10
life is ain't about sunshine and rainbow,8,150%,0,∞,0%,,1.6,-20
no matter how hard you hit rocky,8,-91%,0,∞,0%,,5.8,-6
socrates quote wisdom,8,-84%,0,-100%,0%,-20,7.8,-5
it's not how hard you get hit rocky quote,7,25%,0,∞,0%,,8.1,-1
socrates strong minds,7,,0,∞,0%,,13,-5
rocky get hit and keep moving forward,7,∞,0,∞,0%,,6,
job change motivation,7,33%,0,∞,0%,,8.1,0.6
it's not about getting hit rocky,7,300%,0,∞,0%,,7,0.5
nick vujicic,7,∞,0,∞,0%,,11,
napolean hill,7,-20%,0,∞,0%,,15,-5
nick vujicic worth,7,∞,0,∞,0%,,8.3,
socrates and wisdom,7,-56%,0,∞,0%,,10,1
rocky balboa quote about life,7,300%,0,∞,0%,,2.5,2
socrates wife quote,7,∞,0,∞,0%,,6,
mewtwo i see now that the circumstances of one's birth,7,-78%,0,∞,0%,,12,-3
you only live once but if you do it right once is enough übersetzung,7,-20%,0,∞,0%,,6,5
man the arena,6,300%,0,∞,0%,,6,-1
no paint no gain,6,∞,0,∞,0%,,5.8,
rocky how hard you get hit speech,6,-33%,0,∞,0%,,8.2,-5
life hits you hard rocky,6,∞,0,∞,0%,,16,
true test of a man quotes,6,∞,0,∞,0%,,9,
hill believe,6,-75%,0,∞,0%,,8.8,20
socrates knowledge quotes,6,-82%,0,∞,0%,,4.5,3
deep quotes about society,6,∞,0,∞,0%,,6.8,
rich man rich mind,6,∞,0,∞,0%,,8,
snoopy quotes and pictures,6,50%,0,∞,0%,,1,4
famous quotes napoleon hill,6,∞,0,∞,0%,,6.6,
life is not all about sunshine and rainbows,6,-80%,0,∞,0%,,5.4,-5
sunshine hard,6,∞,0,∞,0%,,8,
socratesquotes,6,-86%,0,∞,0%,,5.3,-10
napoleon hill failure,6,,0,∞,0%,,8.3,-3
think grow rich quotes,6,-40%,0,∞,0%,,5.5,-0.4
if i had nine hours to chop down a tree,6,∞,0,∞,0%,,5.3,
arrogante quotes,6,∞,0,∞,0%,,2.2,
it ain't about how hard you hit,6,-40%,0,∞,0%,,7.5,-6
quotes think and grow rich,6,200%,0,∞,0%,,5.5,9
napoleon hill thought for the day,6,200%,0,∞,0%,,5.7,2
dead poets society thoreau quote,6,,0,∞,0%,,9.3,7
yellow robert mentalist,6,-50%,0,∞,0%,,5.3,-70
socrates wise quotes,6,50%,0,∞,0%,,6.8,0.5
the world ain't all sunshine and rainbows.,6,-73%,0,∞,0%,,1.5,-1
mew two quotes,5,∞,0,∞,0%,,5.8,
life ain't about sunshine and rainbows,5,50%,0,∞,0%,,2.2,20
i can accept failure michael jordan meaning,5,∞,0,∞,0%,,2,
the world ain't no sunshine and rainbows,5,∞,0,∞,0%,,5.3,
rocky quotes about life,5,-60%,0,∞,0%,,2,-20
rocky balboa inspirational speech lyrics,5,-78%,0,∞,0%,,9,-6
the world is no sunshine and rainbows,5,,0,∞,0%,,7.6,-4
cristiano ronaldo motivational,5,100%,0,∞,0%,,1,-10
desire motivational,5,,0,∞,0%,,5,-3
nicholas james vujicic quotes,5,∞,0,∞,0%,,1.4,
all sunshine and rainbows,5,∞,0,∞,0%,,4,
napoleon hill quotes life,5,∞,0,∞,0%,,4.4,
steve jobs arrogant quotes,5,,0,∞,0%,,6.4,-1
rocky balboa keep moving forward quote,5,-33%,0,∞,0%,,4,-5
mistakes are always forgivable if one has the courage to admit them meaning,5,100%,0,∞,0%,,2.8,
napoleon hill think twice before you speak,5,-50%,0,∞,0%,,2,6
man in the arena theodore,5,,0,∞,0%,,2.8,-5
a true man's character is tested quote,5,-89%,0,∞,0%,,3.6,-20
inspirational,5,∞,0,∞,0%,,4.6,
socrates fear of death quote,5,-78%,0,∞,0%,,8.8,10
rocky quote that how winning is done,5,∞,0,∞,0%,,5.8,
sunshine and rainbows quote,5,∞,0,∞,0%,,4,
quotes by nick vujicic,5,∞,0,∞,0%,,1,
mewtwo i see now that the circumstances,5,∞,0,∞,0%,,7.6,
napoleon hill quotes failure success,5,∞,0,∞,0%,,7.4,
socrates quotes love,5,∞,0,∞,0%,,1.2,
it ain't about how hard you hit it's about how you can get hit and keep moving forward übersetzung,5,∞,0,∞,0%,,5.4,
a true test of character,5,∞,0,∞,0%,,7.8,
take the hits and keep moving forward,5,-78%,0,∞,0%,,8.4,-4
rocky (1976) – it ain’t how hard you hit,5,100%,0,∞,0%,,4.2,-7
best mentalist quotes,5,∞,0,∞,0%,,3,
rocky balboa how hard you hit,5,-60%,0,∞,0%,,6.3,-0.7
man arena,5,-75%,0,∞,0%,,15,-0.1
let me tell you something you already know the world ain't all sunshine and rainbows,5,100%,0,∞,0%,,9.8,-30
weak mind quotes,4,-67%,0,∞,0%,,1.5,-10
nick vujicic best quotes,4,,0,∞,0%,,3.3,-40
spend a little more time trying to make something of yourself and a little less time trying to impress people.,4,-85%,0,∞,0%,,9.5,-10
life ain't all about sunshine and rainbows,4,,0,∞,0%,,1,-20
william wallace speech,4,∞,0,∞,0%,,50,
think rich grow rich quotes,4,100%,0,∞,0%,,7,-1
ronaldo motivational quotes,4,-50%,0,∞,0%,,3.3,-7
"""in the arena""",4,-60%,0,∞,0%,,7.8,-20
rocky motivational speech,4,∞,0,∞,0%,,3.8,
socrates quote on education,4,∞,0,∞,0%,,2.3,
rocky quote it's not about how hard you hit,4,100%,0,∞,0%,,3.8,5
cr7 motivation,4,∞,0,∞,0%,,1,
i am not what happened to me i am what i choose to become,4,∞,0,∞,0%,,6.3,
you ought to spend a little less time trying to impress people,4,∞,0,∞,0%,,8.8,
it a lie to think you are not good enough,4,-80%,0,∞,0%,,7.8,-7
steve jobs voice,4,-89%,0,∞,0%,,7,-30
keep it up rocky 5,4,∞,0,∞,0%,,7,
rocky quote it ain't about how hard,4,∞,0,∞,0%,,5.3,
rocky quotes the world ain't all sunshine and rainbows,4,-75%,0,∞,0%,,1.5,-5
man in the arena quote theodore roosevelt,4,,0,∞,0%,,2,-5
napoleon hill qoutes,4,-94%,0,∞,0%,,4.3,1
rocky motivational,4,∞,0,∞,0%,,2,
i went into the woods dead poets society,4,-67%,0,∞,0%,,8,-8
it ain't about how hard you can hit,4,∞,0,∞,0%,,1,
life hits hard rocky balboa,4,-67%,0,∞,0%,,11,-20
socrates words of wisdom,4,,0,∞,0%,,6.8,-4
john quincy adams quotes on leadership,4,∞,0,∞,0%,,7,
theodore roosevelt quote man in the arena,4,,0,∞,0%,,3.3,4
the world's not all sunshine and rainbows,4,∞,0,∞,0%,,7.5,
spend a little more time trying to make something of yourself,4,,0,∞,0%,,4,-3
the credit goes to the man in the arena,4,,0,∞,0%,,6.8,-2
positive mind set quotes,4,∞,0,∞,0%,,6.5,
change mindset quotes,4,∞,0,∞,0%,,2.3,
socrates greatest quotes,4,∞,0,∞,0%,,8.8,
rocky it ain't about how hard you hit,4,-80%,0,∞,0%,,4.5,10
do or don't there is no try,4,,0,∞,0%,,1.8,10
famous quotes by napoleon hill,4,,0,∞,0%,,8.3,-9
keep moving forward quotes rocky,4,∞,0,∞,0%,,2.8,
socrates quotes on younger generation,4,-67%,0,∞,0%,,9,-7
rocky balboa motivation speech,4,∞,0,∞,0%,,2.3,
steve jobs motivation,3,∞,0,∞,0%,,26,
rocky that's how winning is done speech,3,-50%,0,∞,0%,,9.3,-2
words about dream,3,∞,0,∞,0%,,3,
i love snoopy,3,-91%,0,∞,0%,,1,-1
be so busy improving yourself quote,3,,0,∞,0%,,1.7,-80
teddy roosevelt arena,3,∞,0,∞,0%,,4.3,
it ain't about how hard you hit it's about how hard you can get hit and keep moving forward,3,∞,0,∞,0%,,2.3,
socrates quotes on life,3,∞,0,∞,0%,,3,
napolion hill quotes,3,∞,0,∞,0%,,3.7,
go for it rocky 5,3,-50%,0,∞,0%,,6,-1
rocky it's not about how hard you hit quote,3,,0,-100%,0%,-100,3.3,-20
cinderella quotes,3,,0,∞,0%,,6.3,2
desire motivation quotes,3,∞,0,∞,0%,,6.3,
yoda there is no try,3,∞,0,∞,0%,,4.7,
true test of a man,3,-88%,0,∞,0%,,8.7,-6
discuss quotes,3,-50%,0,∞,0%,,8,-30
mind of napoleon,3,∞,0,∞,0%,,9,
dwayne johnson motivational speech,3,∞,0,∞,0%,,5,
socrates quotes about death,3,-75%,0,∞,0%,,3.3,-20
socrates words,3,∞,0,∞,0%,,4,
rocky winning speech,3,,0,∞,0%,,8,5
pride motivational quotes,3,,0,∞,0%,,5,-8
let me tell you something you already know. the world ain't all sunshine and rainbows,3,∞,0,∞,0%,,10,
孟子 生於憂患死於安樂,3,∞,0,∞,0%,,27,
quote man in the arena,3,∞,0,∞,0%,,2,
success quotes napoleon hill,3,-75%,0,∞,0%,,5,-6
the world aint all sunshine,3,,0,∞,0%,,2,-9
motivational quotes,3,-92%,0,∞,0%,,3,-1
napoleon hill thoughts,3,-50%,0,∞,0%,,6,-20
dead poets society poets,3,∞,0,∞,0%,,8.3,
it's not hard you can hit quote rocky,3,∞,0,∞,0%,,4.3,
rocky quote keep moving forward,3,∞,0,∞,0%,,3.3,
world ain't sunshine and rainbows,3,,0,∞,0%,,2.7,10
rocky quotes the world ain't all sunshine,3,∞,0,∞,0%,,2.3,
define mentalist,3,∞,0,∞,0%,,45,
life ain't rainbows and sunshine,3,,0,∞,0%,,2.7,-2
quote from socrates,3,,0,∞,0%,,7,-2
sayings of socrates,3,-75%,0,∞,0%,,3,-3
what does balboa mean,3,-67%,0,∞,0%,,7.7,-10
roosevelt man in the arena quote,3,∞,0,∞,0%,,2.3,
napolian hill quotes,3,∞,0,∞,0%,,4,
theodore roosevelt man in the arena quote,3,∞,0,∞,0%,,3.7,
quotes by socrates on love,3,∞,0,∞,0%,,1,
great minds talk about ideas socrates,3,∞,0,∞,0%,,15,
your mind is a powerful thing quotes,3,∞,0,∞,0%,,2,
socrates understanding of wisdom,3,∞,0,∞,0%,,9.3,
a true test of a man,3,∞,0,∞,0%,,3,
socrates quotes about love,3,,0,∞,0%,,2,-20
rocky balboa winning speech,3,∞,0,∞,0%,,6.3,
yoda do or do not,3,∞,0,∞,0%,,6.3,
dead poets society quotes,3,∞,0,∞,0%,,150,
"no matter what people tell you, words and ideas can change the world",3,-50%,0,∞,0%,,20,-20
socrates change quote,3,,0,∞,0%,,5.3,10
dead poets society thoreau,3,∞,0,∞,0%,,10,
think and grow rich best quotes,3,∞,0,∞,0%,,13,
the men in the arena,3,-80%,0,∞,0%,,2,-4
rocky balboa life speech,3,∞,0,∞,0%,,9.3,
contact page,3,∞,0,∞,0%,,410,
best rocky balboa quotes,3,∞,0,∞,0%,,2,
world is not sunshine and rainbows,3,-50%,0,∞,0%,,8.3,-1
ronaldo quotes,3,,0,∞,0%,,6.3,-7
rocky balboa quotes how hard you hit,3,-50%,0,∞,0%,,3,5
mewtwo gift of life,3,∞,0,∞,0%,,10,
mewtwo quote i see now,3,∞,0,∞,0%,,6,
mewtwo qoutes,3,∞,0,∞,0%,,1,
poem dead poets society,3,-67%,0,∞,0%,,9.7,2
yoda gym,3,∞,0,∞,0%,,1,
andrew carnegie gospel of wealth quotes,3,∞,0,∞,0%,,8,
quotes from rocky 2,3,∞,0,∞,0%,,4,
it's not about how hard you can hit rocky quote,3,∞,0,∞,0%,,4,
rocky it's not about,3,-67%,0,∞,0%,,6.3,6
poetry from dead poets society,3,,0,∞,0%,,10,3
life ain't about how hard you hit quote,3,∞,0,∞,0%,,2.7,
quotes on socrates,3,∞,0,∞,0%,,4.3,
think twice before you speak because your words and influence,3,∞,0,∞,0%,,3.3,
napoleon plant,2,-50%,0,∞,0%,,2,-6
mindset positive,2,∞,0,∞,0%,,3.5,
rocky quote winning,2,∞,0,∞,0%,,9,
9gag i am the captain now,2,∞,0,∞,0%,,20,
socrates strong minds discuss ideas,2,∞,0,∞,0%,,16,
captain of my soul,2,∞,0,∞,0%,,24,
socrates in love quotes,2,∞,0,∞,0%,,1.5,
man in the arena teddy roosevelt,2,∞,0,∞,0%,,2,
i don't care how tough you are,2,,0,∞,0%,,9.5,-10
weak minds,2,,0,,,,3.5,
the world aint sunshine and rainbows,2,,0,,,,3.5,
arena quotes,2,,0,,,,7,
snoopy motivational quotes,2,,0,,,,3,
braveheart speech,2,,0,,,,150,
the world ain't all sunshine and rainbows quote,2,,0,,,,1,
rocky balboa the world ain't all sunshine and rainbows,2,,0,,,,3,
poetry in dead poets society,2,,0,,,,9.5,
rocky speech that's how winning is done,2,,0,,,,8.5,
jack ma life,2,,0,,,,7,
change of mindset quotes,2,,0,,,,3,
rocky v go for it,2,,0,,,,7,
coxswain toss,2,,0,,,,14,
it ain't about how hard you hit it's about how you can get hit and keep moving forward,2,,0,,,,1,
the circumstances of one's birth are irrelevant quote,2,,0,,,,35,
rocky when life hits you,2,,0,,,,6,
socrates success,2,,0,,,,9,
yoda try do,2,,0,,,,4,
it's not about how hard you hit - rocky balboa,2,,0,,,,3,
life is not all rainbows and sunshine,2,,0,,,,7,
"your mind is a powerful thing. when you fill it with positive thoughts, your life will start to change.",2,,0,,,,2.5,
by failing to prepare you are preparing to fail meaning,2,,0,,,,9,
roosevelt quote man in the arena,2,,0,,,,3,
motivational grind,2,,0,,,,39,
this world ain't all sunshine and rainbows,2,,0,,,,1.5,
strong minds discuss ideas,2,,0,,,,46,
cristiano ronaldo best quotes,2,,0,,,,3.5,
tr quote the man in the arena,2,,0,,,,3,
main in the arena,2,,0,,,,5,
don't be trapped by dogma meaning,2,,0,,,,7.5,
hundred family surnames,2,,0,,,,8,
theodore roosevelt speech man in the arena,2,,0,,,,7.5,
in the arena roosevelt speech,2,,0,,,,11,
quotes from cinderella,2,,0,,,,64,
it is not the circumstances of one's birth,2,,0,,,,49,
it ain't how hard you get hit,2,,0,,,,1.5,
you are not born a winner you are not born a loser,2,,0,,,,4,
tijuana slues,2,,0,,,,23,
mewtwo it is not the circumstances,2,,0,,,,7,
think & grow rich quotes,2,,0,,,,5.5,
everything should be made as simple as possible but not simpler meaning,2,,0,,,,5,
teamwork motivational quotes,2,,0,,,,75,
it ain't about how hard you get hit quote,2,,0,,,,1.5,
let me tell you something rocky,2,,0,,,,5.5,
mewtwo i see now,2,,0,,,,7,
rocky balboa that's how winning is done quote,2,,0,,,,4,
poems from dead poet society,2,,0,,,,6.5,
thoreau dead poets society,2,,0,,,,11,
no pay no gain,2,,0,,,,4.5,
its about how hard you can get hit and keep moving forward,2,,0,,,,1,
bargained with life for a penny,2,,0,,,,65,
snoopy quotes images,2,,0,,,,1,
roosevelt man in the arena speech,2,,0,,,,9.5,
mewtwo quote wallpaper,2,,0,,,,1,
life ain't no sunshine and rainbows,2,,0,,,,8,
rocky balboa not how hard you hit,2,,0,,,,7,
rocky balboa get hit quote,2,,0,,,,7,
it's not how hard you get hit rocky,2,,0,,,,6.5,
snoopy love quotes,2,,0,,,,30,
dead poets society poetry,2,,0,,,,2,
do or don't there is no try quote,2,,0,,,,7.5,
quotes about nick,2,,0,,,,6.5,
best socrates quotes,2,,0,,,,6.5,
socrates quotes on wisdom,2,,0,,,,10,
quotes about body,2,,0,,,,9.5,
think and grow rich quotes napoleon hill,2,,0,,,,9,
socrates qoutes,2,,0,,,,6.5,
benjamin franklin motivation,2,,0,,,,2,
speech dead poets society,2,,0,,,,10,
mewtwo quotes i see now,2,,0,,,,5.5,
socrates quotes on death,2,,0,,,,5.5,
that moment when everything goes wrong,2,,0,,,,2.5,
i cannot teach anybody anything socrates meaning,2,,0,,,,29,
socrates quotes god,2,,0,,,,7.5,
rocky that's how winning is done,2,,0,,,,6.5,
thoreau quote dead poets society,2,,0,,,,9,
it's about how hard you can get hit and keep moving forward,2,,0,,,,4.5,
yoda try,2,,0,,,,8,
if you hear a voice that says you can't paint,2,,0,,,,6,
it aint about how hard you can hit,2,,0,,,,4,
nick vujicic quotes images,2,,0,,,,1,
socrates quote on children,2,,0,,,,9,
it ain't all about you,2,,0,,,,7,
rocky let me tell you something,2,,0,,,,6,
rocky balboa citati,2,,0,,,,1,
overcoming hopelessness: nick vujicic at tedxnovisad,2,,0,,,,7.5,
socrates quotes about wisdom,2,,0,,,,6.5,
岫岩,2,,0,,,,7.5,
the credit goes to the man who is in the arena,2,,0,,,,6.5,
john quincy adams quote,2,,0,,,,3.5,
john quincy adams quote leadership,2,,0,,,,7,
mewtwos quote,2,,0,,,,5,
quotes theodore roosevelt man in the arena,2,,0,,,,3.5,
motivate each other quotes,2,,0,,,,2.5,
rocky it's not how hard,2,,0,,,,6,
socrates qoute,2,,0,,,,7,
inspirational quotes when everything is going wrong,2,,0,,,,2,
things work out best for those who make the best of how things work out,2,,0,,,,140,
think and grow rich qoutes,2,,0,,,,4,
nick vujicic motivation,2,,0,,,,5,
in your face comp,2,,0,,,,170,
keep moving forward rocky quote,2,,0,,,,4,
life aint all rainbows and sunshine,2,,0,,,,3.5,
test of character quotes,2,,0,,,,8.5,
napoleon hill quotes failure,2,,0,,,,6,
positive powerful quotes,2,,0,,,,3,
weak minds quotes,2,,0,,,,5.5,
rocky balboa keep moving forward speech,2,,0,,,,11,
gospel of wealth quotes,2,,0,,,,12,
motivation cristiano ronaldo,2,,0,,,,5,
steve jobs you can change the world,2,,0,,,,13,
mewtwo circumstances,2,,0,,,,7.5,
quotes about accounting profession,1,,0,,,,8,
i am william wallace speech,1,,0,,,,18,
rocky it's not about how hard you can hit,1,,0,,,,4,
no dreams in life,1,,0,,,,16,
deep society quotes,1,,0,,,,5,
rocky balboa words,1,,0,,,,2,
socrates education quotes,1,,0,,,,3,
socrates ideas on life,1,,0,,,,7,
john vujicic,1,,0,,,,1,
rocky balboa speech - motivation,1,,0,,,,4,
best ronaldo quotes,1,,0,,,,3,
"i am not what happened to me, i am what i choose to become",1,,0,,,,11,
socrates honours,1,,0,,,,8,
life's not all sunshine and rainbows,1,,0,,,,6,
rock balboa quotes,1,,0,,,,1,
napoleon hill motivation,1,,0,,,,11,
dead poets society,1,,0,,,,10,
lincoln patz,1,,0,,,,30,
mindset motivational quotes,1,,0,,,,7,
leonardo dicaprio im not fucking leaving,1,,0,,,,10,
jack ma live,1,,0,,,,6,
balboa quote,1,,0,,,,4,
rocky it's not about how hard you get hit,1,,0,,,,6,
thousand character classic,1,,0,,,,70,
a life not lived for others is not worth living,1,,0,,,,3,
rocky balboa quote,1,,0,,,,1,
university of texas at austin 2014 commencement address,1,,0,,,,18,
ronaldo best quotes,1,,0,,,,9,
yoda quotes try or try not,1,,0,,,,9,
true test of character quotes,1,,0,,,,10,
dead poet society,1,,0,,,,8,
nepolian hill quotes,1,,0,,,,4,
world is not all sunshine and rainbows,1,,0,,,,5,
naploeon hill,1,,0,,,,11,
lou holtz motivational quotes,1,,0,,,,35,
motivational means,1,,0,,,,10,
gospel of wealth excerpt,1,,0,,,,30,
mentalist,1,,0,,,,110,
rocky balboa picture quotes,1,,0,,,,1,
quotes dead poets society,1,,0,,,,140,
qoutes by socrates,1,,0,,,,4,
snoopy sad quotes,1,,0,,,,1,
rocky quotes let me tell you,1,,0,,,,7,
don't live someone else's life,1,,0,,,,3,
motivational quotes by rocky balboa,1,,0,,,,2,
the mind is a powerful thing,1,,0,,,,2,
no my only goal is to see,1,,0,,,,10,
fall away 3,1,,0,,,,7,
socrates quote i know that i don't know,1,,0,,,,5,
man jiang hong song,1,,0,,,,5,
socrates quotes on friendship,1,,0,,,,9,
riding,1,,0,,,,4,
tim notke,1,,0,,,,41,
when i am sad i stop being sad,1,,0,,,,35,
no pain no gain,1,,0,,,,9,
when i feel sad i stop being sad,1,,0,,,,5,
mother teresa motivational quotes,1,,0,,,,4,
napoleon hill think and grow rich,1,,0,,,,90,
poor minds talk about,1,,0,,,,5,
what i do when no one is watching,1,,0,,,,6,
jack ma entrepreneurship,1,,0,,,,10,
socrates most famous quotes,1,,0,,,,11,
when i'm sad i stop being sad and be awesome instead,1,,0,,,,40,
dead poets society opening poem,1,,0,,,,11,
man in arena quote,1,,0,,,,3,
churchill motivational quotes,1,,0,,,,45,
the world ain't no sunshine and rainbows quote,1,,0,,,,3,
go for it rocky v,1,,0,,,,6,
dead poet society poem,1,,0,,,,4,
napoleon hill think and grow rich pdf,1,,0,,,,160,
mewtwo life quote,1,,0,,,,3,
motivational basketball quotes,1,,0,,,,160,
sad snoopy pictures,1,,0,,,,1,
it ain't about how hard you hit rocky,1,,0,,,,1,
teeth chattering not cold,1,,0,,,,410,
yoda try quote,1,,0,,,,5,
napoleon motivation,1,,0,,,,3,
true wisdom socrates,1,,0,,,,5,
in the arena quote,1,,0,,,,3,
remembering that you are going to die is the best way to avoid,1,,0,,,,2,
dead poets society book quotes,1,,0,,,,4,
strong minds socrates,1,,0,,,,17,
when i'm sad i stop being,1,,0,,,,25,
charlie chaplin motivational,1,,0,,,,30,
business law quotes,1,,0,,,,4,
leave society and live in the woods,1,,0,,,,10,
dead poets society poem i went to the woods,1,,0,,,,9,
once said 連詩雅,1,,0,,,,19,
socrates views,1,,0,,,,11,
napoleon thoughts,1,,0,,,,1,
quote by napoleon hill,1,,0,,,,4,
napolian hill,1,,0,,,,11,
maninthe,1,,0,,,,8,
sunshine motivation,1,,0,,,,19,
jack ma poker,1,,0,,,,7,
braveheart speeches,1,,0,,,,220,
photo of nick vujicic,1,,0,,,,1,
mind hill,1,,0,,,,8,
rocky speech how hard you get hit,1,,0,,,,6,
rocky balboa quotes let me tell you something,1,,0,,,,6,
socrates quotes truth,1,,0,,,,8,
synchronized swimming,1,,0,,,,8,
quotes from dead poets society,1,,0,,,,140,
it aint how hard you hit,1,,0,,,,8,
don't ever let someone tell you you can't do something,1,,0,,,,22,
it's not how hard you hit. it's how hard you get hit...and keep moving forward,1,,0,,,,1,
yoda motivational quotes,1,,0,,,,31,
the biggest communication problem is we do not listen to understand. we listen to reply,1,,0,,,,20,
9gag motivational,1,,0,,,,25,
les brown quotes life,1,,0,,,,96,
who was john quincy adams,1,,0,,,,8,
spend a little more time trying to make something of yourself and a little less time trying to impress people,1,,0,,,,9,
mew two quote,1,,0,,,,3,
"napoleon hill,",1,,0,,,,11,
nick vujicic speech transcript,1,,0,,,,28,
breakfast club quotes dear mr vernon,1,,0,,,,34,
yue fei man jiang hong,1,,0,,,,10,
love quotes socrates,1,,0,,,,1,
socrates quote children,1,,0,,,,9,
tim notke hard work quote,1,,0,,,,4,
change mindset to positive,1,,0,,,,10,
credit goes to the man in the arena,1,,0,,,,4,
rocky it's not how hard you get hit,1,,0,,,,6,
you are not steve jobs,1,,0,,,,2,
leadership quote john quincy adams,1,,0,,,,4,
if opportunity doesn't knock build a door meaning,1,,0,,,,200,
rocky balboa best quotes,1,,0,,,,1,
lou holtz motivation,1,,0,,,,150,
it ain't about how hard you're hit,1,,0,,,,6,
jackma,1,,0,,,,11,
it's how much you can take and keep moving forward,1,,0,,,,8,
quotes about cinderella,1,,0,,,,8,
spend a little more time trying to make something of yourself tumblr,1,,0,,,,4,
the world is not all sunshine and rainbows quote,1,,0,,,,9,
poetry beauty romance love these are what we stay alive for,1,,0,,,,7,
rocky balboa motivational quotes,1,,0,,,,1,
socrates quotes on politics,1,,0,,,,10,
c ronaldo motivation,1,,0,,,,1,
motivation for change quotes,1,,0,,,,200,
rocky motivational speech text,1,,0,,,,5,
man in the arena quote roosevelt,1,,0,,,,2,
rocky keep moving forward quote,1,,0,,,,2,
braveheart speech transcript,1,,0,,,,40,
motivational quotes with images,1,,0,,,,1,
a true test of a man character,1,,0,,,,15,
hard compil 13 special sm,1,,0,,,,18,
the arena quote,1,,0,,,,4,
i am sad you are leaving,1,,0,,,,2,
nick vujicic sex,1,,0,,,,48,
rocky balboa life is not about,1,,0,,,,5,
it ain't about how hard you hit it's about how hard you can get hit,1,,0,,,,7,
all the,1,,0,,,,10,
on the shoulders of giants,1,,0,,,,5,
rocky quote it's about how hard you hit,1,,0,,,,3,
socrates love quote,1,,0,,,,2,
quote the man in the arena,1,,0,,,,2,
everyone you will ever meet knows something you don't,1,,0,,,,15,
socrates children quote,1,,0,,,,5,
rise and grind motivation,1,,0,,,,19,
men in the arena,1,,0,,,,4,
dead poet society poems,1,,0,,,,8,
quotes of nick vujicic,1,,0,,,,3,
motivational speech rocky balboa,1,,0,,,,3,
rocky 6 quotes,1,,0,,,,2,
rocky balboa speech text,1,,0,,,,8,
teddy roosevelt man in the arena quote,1,,0,,,,5,
when i'm sad i stop being sad,1,,0,,,,36,
make the most of every moment,1,,0,,,,1,
man in the arena speech,1,,0,,,,4,
change your mindset quotes,1,,0,,,,3,
socrates all i know quote,1,,0,,,,9,
im not fucking leaving wolf of wall street,1,,0,,,,30,
mother teresa ripples,1,,0,,,,2,
the arena teddy roosevelt,1,,0,,,,2,
motivational,1,,0,,,,1,
character when no one is watching quote,1,,0,,,,4,
nepoleon hill quotes,1,,0,,,,4,
socrates quote education,1,,0,,,,3,
rocky motivational pictures,1,,0,,,,1,
rocky it ain't how hard you hit,1,,0,,,,8,
佐敦彩福欣宴,1,,0,,,,27,
rocky balboa sunshine and rainbows quote,1,,0,,,,5,
on the arena,1,,0,,,,8,
yoda do try,1,,0,,,,5,
don't ever let somebody tell you,1,,0,,,,25,
it's not about how hard you hit rocky,1,,0,,,,7,
quotes from rocky 5,1,,0,,,,3,
ied小學常識,1,,0,,,,8,
opportunity motivation,1,,0,,,,10,
weak minds discuss people,1,,0,,,,9,
try do yoda,1,,0,,,,3,
napoleon hil,1,,0,,,,11,
i am not what happened to me,1,,0,,,,6,
luhrmann sunscreen,1,,0,,,,330,
leadership quotes john quincy adams,1,,0,,,,4,
quotes dead poets,1,,0,,,,130,
the man in the photo,1,,0,,,,3,
rocky balboa winning quote,1,,0,,,,9,
ma advice,1,,0,,,,95,
don't ever let somebody tell you you can't do something not even me,1,,0,,,,19,
rocky motivational quotes,1,,0,,,,5,
the world is ain't all sunshine and rainbows,1,,0,,,,1,
a positive mindset,1,,0,,,,5,
nick vujicic images,1,,0,,,,1,
wolf of wall street i'm not fucking leaving,1,,0,,,,32,
napoleon motivational quotes,1,,0,,,,4,
jack ma china,1,,0,,,,9,
"napoleon, twice",1,,0,,,,6,
life ain't always sunshine and rainbows,1,,0,,,,8,
don't try do yoda quote,1,,0,,,,6,
you don't know what you don't know quote socrates,1,,0,,,,10,
rocky quote sunshine and rainbows,1,,0,,,,3,
it's not about how hard you can get hit quote,1,,0,,,,1,
wolf of wall street steve madden speech,1,,0,,,,17,
the world ain't all sunshine rocky,1,,0,,,,2,
wolf of wall street leaving speech,1,,0,,,,50,
napoleon rich,1,,0,,,,11,
quotes by john lennon,1,,0,,,,320,
socrates love life,1,,0,,,,10,
i am the master of my fate invictus,1,,0,,,,63,
motivational quotes images,1,,0,,,,1,
mentalist best quotes,1,,0,,,,9,
what screws us up most in life is the picture in our head of how it is supposed to be übersetzung,1,,0,,,,7,
quotes by vincent van gogh,1,,0,,,,150,
the credit goes to the man in the arena quote,1,,0,,,,6,
rocky life is not rainbows,1,,0,,,,11,
great minds discuss ideas socrates,1,,0,,,,17,
get hit and keep moving forward,1,,0,,,,6,
socrates quotes friendship,1,,0,,,,4,
mind is a powerful thing quotes,1,,0,,,,3,
motivational quotes rocky balboa,1,,0,,,,1,
let me tell you something about life rocky balboa,1,,0,,,,6,
quotes from dead poets,1,,0,,,,130,
quotes job change,1,,0,,,,10,
the true character of a man,1,,0,,,,9,
quote of socrates,1,,0,,,,6,
arrogant quotes tumblr,1,,0,,,,1,
i bargained with life for a penny,1,,0,,,,29,
rocky balboa it's not about how hard you hit,1,,0,,,,2,
bob marley hurt,1,,0,,,,5,
socrates god quote,1,,0,,,,3,
napoleon hill picture,1,,0,,,,1,
ain't about how hard you hit,1,,0,,,,2,
i love snoopy pictures,1,,0,,,,1,
it ain't about how hard you get hit,1,,0,,,,1,
things work out best for those who make the best of how things work out. ~john wooden,1,,0,,,,35,
rocky balboa how winning is done,1,,0,,,,5,
think grow rich napoleon hill pdf,1,,0,,,,67,
rocky motivation speech,1,,0,,,,4,
ronaldo motivational,1,,0,,,,1,
motivation quo,1,,0,,,,10,
it's about how much you can get hit and keep moving forward,1,,0,,,,3,
生于忧患，死于安乐,1,,0,,,,17,
rocky quote life hits hard,1,,0,,,,4,
trying hard now,1,,0,,,,48,
socrates about love,1,,0,,,,7,
do not try yoda,1,,0,,,,3,
desire motivation,1,,0,,,,4,
three character classic,1,,0,,,,49,
rocky it's about how hard,1,,0,,,,6,
rocky motivation,1,,0,,,,38,
man of the arena,1,,0,,,,11,
do or donot there is no try,1,,0,,,,1,
think twice before you speak quotes,1,,0,,,,1,
majack jack,1,,0,,,,1,
mentalist quotes,1,,0,,,,33,
exercise motivational,1,,0,,,,350,
it's not how hard you hit rocky quote,1,,0,,,,4,
welcome to the grind,1,,0,,,,50,
be kind for everyone you meet is fighting a hard battle you know nothing about,1,,0,,,,140,
rocky balboa it ain't about how hard you hit,1,,0,,,,5,
change quotes socrates,1,,0,,,,5,
let me tell you something you already know. the world ain't all sunshine and rainbows.,1,,0,,,,10,
spend a little time with you,1,,0,,,,9,
henry david thoreau dead poets society,1,,0,,,,10,
"strong minds discuss ideas, average minds discuss events, weak minds discuss people",1,,0,,,,25,
group quotes teamwork,1,,0,,,,8,
it's not how hard you can hit rocky quote,1,,0,,,,4,
yoda quote no try,1,,0,,,,5,
someone's opinion of you does not have to become your reality,1,,0,,,,34,
nick vujicic exodia,1,,0,,,,10,
theodore roosevelt speech the man in the arena,1,,0,,,,10,
i see now that the circumstances,1,,0,,,,10,
strong ideas,1,,0,,,,2,
i never tried to hide the fact,1,,0,,,,8,
quincy adams quotes,1,,0,,,,5,
steve jobs failure quotes,1,,0,,,,1,
quotes ronaldo,1,,0,,,,3,
how hard you hit rocky quote,1,,0,,,,6,
all men are socrates,1,,0,,,,10,
commencement speech stanford,1,,0,,,,340,
steve jobs crazy enough to change the world,1,,0,,,,3,
think & grow rich by napoleon hill pdf,1,,0,,,,64,
rocky vi speech,1,,0,,,,6,
snoopy in love pictures,1,,0,,,,1,
the credit belongs to the man who is actually in the arena,1,,0,,,,9,
it's not how hard you hit it's how hard you can get hit and keep moving forward,1,,0,,,,1,
yoda there is not try,1,,0,,,,5,
bravehart speech,1,,0,,,,240,
it ain't about hard you can hit,1,,0,,,,3,
101 motivational quotes,1,,0,,,,10,
quotes lou holtz,1,,0,,,,3,
fact tried,1,,0,,,,5,
when im sad i stop being sad and be awesome instead übersetzung,1,,0,,,,1,
qoutes of socrates,1,,0,,,,2,
a man's true character,1,,0,,,,8,
