Example for Attribute-Set: Apparel and Accessories;;;;;;;;;;;;;;;;;;;;;;;;;;;;;;;
Main;;;;;Variation;;;Product Specification;;;Additional Product Attributes;;;--- No Display Group Set ---;;;;;Description;;;;;Images;;;;;;;
Name;PrimaryCategory;Brand;Categories;Color;ParentSku;SellerSku;Quantity;ColorFamily;Sizesystembrand;CompositionMaterial;Gender;Season;Year;Price;SalePrice;SaleStartDate;SaleEndDate;Variation;Description;CareLabel;Measurements;Modeiswearing;Modelbodymeasurements;MainImage;Image2;Image3;Image4;Image5;Image6;Image7;Image8
Lucky Point Blue Tie with white and blue stripes ;5793;Thursday Suits;5878;Blue, white;TIE001S;TIE001S;2;Blue;International;Silk for texture and Polyester for lining;Male;Year Round;2014;17.9;;;;;"Formal Lucky Point Blue Tie with white and blue stripes made from silk with polyester lining. Suitable for formal ocassions.<br>


<br>
- Texture: Silk<br>
- Lining Material: Polyester<br>
- White and Blue stripes";;S : 6.5cm on the longest width <br> M : 8cm on the longest width;S, 6.5cm;;;;;;;;;
Lucky Point Blue Tie with white and blue stripes ;5793;Thursday Suits;5878;Blue, white;TIE001S;TIE001M;2;Blue;International;Silk for texture and Polyester for lining;Male;Year Round;2014;17.9;;;;;"Formal Lucky Point Blue Tie with white and blue stripes made from silk with polyester lining. Suitable for formal ocassions.<br>


<br>
- Texture: Silk<br>
- Lining Material: Polyester<br>
- White and Blue stripes";;S : 6.5cm on the longest width <br> M : 8cm on the longest width;S, 6.5cm;;;;;;;;;
Midnight Express Navy Blue Tie with stripes pattern ;5793;Thursday Suits;5878;Navy blue;TIE002S;TIE002S;2;Blue;International;Silk for texture and Polyester for lining;Male;Year Round;2014;15.9;;;;;"Formal Midnight Express Navy Blue Tie with stripes pattern made from silk with polyester lining. Suitable for formal ocassions.<br>


<br>
- Texture: Silk<br>
- Lining Material: Polyester<br>
- White and Blue stripes";;S : 6.5cm on the longest width <br> M : 8cm on the longest width;S, 6.5cm;;;;;;;;;
Midnight Express Navy Blue Tie with stripes pattern ;5793;Thursday Suits;5878;Navy blue;TIE002S;TIE002M;2;Blue;International;Silk for texture and Polyester for lining;Male;Year Round;2014;15.9;;;;;"Formal Midnight Express Navy Blue Tie with stripes pattern made from silk with polyester lining. Suitable for formal ocassions.<br>


<br>
- Texture: Silk<br>
- Lining Material: Polyester<br>
- White and Blue stripes";;S : 6.5cm on the longest width <br> M : 8cm on the longest width;S, 6.5cm;;;;;;;;;
Mulled Wine Blue Tie with white and blue stripes pattern;5793;Thursday Suits;5878;Blue, white;TIE003S;TIE003S;2;Blue;International;Silk for texture and Polyester for lining;Male;Year Round;2014;15.9;;;;;"Formal Mulled Wine Blue Tie with white and blue stripes pattern made from silk with polyester lining. Suitable for formal ocassions.<br>


<br>
- Texture: Silk<br>
- Lining Material: Polyester<br>
- White and Blue stripes";;S : 6.5cm on the longest width <br> M : 8cm on the longest width;S, 6.5cm;;;;;;;;;
Mulled Wine Blue Tie with white and blue stripes pattern;5793;Thursday Suits;5878;Blue, white;TIE003S;TIE003M;2;Blue;International;Silk for texture and Polyester for lining;Male;Year Round;2014;16.9;;;;;"Formal Mulled Wine Blue Tie with white and blue stripes pattern made from silk with polyester lining. Suitable for formal ocassions.<br>


<br>
- Texture: Silk<br>
- Lining Material: Polyester<br>
- White and Blue stripes";;S : 6.5cm on the longest width <br> M : 8cm on the longest width;S, 6.5cm;;;;;;;;;
Chantilly Pink Tie with stripes ;5793;Thursday Suits;5878;Pink;TIE004S;TIE004S;2;Pink;International;Silk for texture and Polyester for lining;Male;Year Round;2014;16.9;;;;;"Formal Chantilly Pink Tie with stripes made from silk with polyester lining. Suitable for formal ocassions.<br>


<br>
- Texture: Silk<br>
- Lining Material: Polyester<br>
- White and Blue stripes";;S : 6.5cm on the longest width <br> M : 8cm on the longest width;S, 6.5cm;;;;;;;;;
Chantilly Pink Tie with stripes ;5793;Thursday Suits;5878;Pink;TIE004S;TIE004S;2;Pink;International;Silk for texture and Polyester for lining;Male;Year Round;2014;14.9;;;;;"Formal Chantilly Pink Tie with stripes made from silk with polyester lining. Suitable for formal ocassions.<br>


<br>
- Texture: Silk<br>
- Lining Material: Polyester<br>
- White and Blue stripes";;S : 6.5cm on the longest width <br> M : 8cm on the longest width;S, 6.5cm;;;;;;;;;
Steel Blue Tie with light blue stripes ;5793;Thursday Suits;5878;Blue;TIE005S;TIE005S;2;Blue;International;Silk for texture and Polyester for lining;Male;Year Round;2014;14.9;;;;;"Formal Steel Blue Tie with light blue stripes made from silk with polyester lining. Suitable for formal ocassions.<br>


<br>
- Texture: Silk<br>
- Lining Material: Polyester<br>
- White and Blue stripes";;S : 6.5cm on the longest width <br> M : 8cm on the longest width;S, 6.5cm;;;;;;;;;
Steel Blue Tie with light blue stripes ;5793;Thursday Suits;5878;Blue;TIE005S;TIE005M;2;Blue;International;Silk for texture and Polyester for lining;Male;Year Round;2014;14.9;;;;;"Formal Steel Blue Tie with light blue stripes made from silk with polyester lining. Suitable for formal ocassions.<br>


<br>
- Texture: Silk<br>
- Lining Material: Polyester<br>
- White and Blue stripes";;S : 6.5cm on the longest width <br> M : 8cm on the longest width;S, 6.5cm;;;;;;;;;
Raven Light Grey Tie with stripes and pattern ;5793;Thursday Suits;5878;Grey;TIE006S;TIE006S;2;Grey;International;Silk for texture and Polyester for lining;Male;Year Round;2014;14.9;;;;;"Formal Raven Light Grey Tie with stripes and pattern made from silk with polyester lining. Suitable for formal ocassions.<br>


<br>
- Texture: Silk<br>
- Lining Material: Polyester<br>
- White and Blue stripes";;S : 6.5cm on the longest width <br> M : 8cm on the longest width;S, 6.5cm;;;;;;;;;
Raven Light Grey Tie with stripes and pattern ;5793;Thursday Suits;5878;Grey;TIE006S;TIE006M;2;Grey;International;Silk for texture and Polyester for lining;Male;Year Round;2014;15.9;;;;;"Formal Raven Light Grey Tie with stripes and pattern made from silk with polyester lining. Suitable for formal ocassions.<br>


<br>
- Texture: Silk<br>
- Lining Material: Polyester<br>
- White and Blue stripes";;S : 6.5cm on the longest width <br> M : 8cm on the longest width;S, 6.5cm;;;;;;;;;
East Side Violet with light blue stripes ;5793;Thursday Suits;5878;Pink,blue;TIE007S;TIE007S;2;Pink;International;Silk for texture and Polyester for lining;Male;Year Round;2014;15.9;;;;;"Formal East Side Violet with light blue stripes  made from silk with polyester lining. Suitable for formal ocassions.<br>


<br>
- Texture: Silk<br>
- Lining Material: Polyester<br>
- White and Blue stripes";;S : 6.5cm on the longest width <br> M : 8cm on the longest width;S, 6.5cm;;;;;;;;;
East Side Violet with light blue stripes ;5793;Thursday Suits;5878;Pink,blue;TIE007S;TIE007M;2;Pink;International;Silk for texture and Polyester for lining;Male;Year Round;2014;15.9;;;;;"Formal East Side Violet with light blue stripes  made from silk with polyester lining. Suitable for formal ocassions.<br>


<br>
- Texture: Silk<br>
- Lining Material: Polyester<br>
- White and Blue stripes";;S : 6.5cm on the longest width <br> M : 8cm on the longest width;S, 6.5cm;;;;;;;;;
Arsenic Grey Tie with black line pattern ;5793;Thursday Suits;5878;Grey,black;TIE008S;TIE008S;2;Grey;International;Silk for texture and Polyester for lining;Male;Year Round;2014;15.9;;;;;"Formal Arsenic Grey Tie with black line pattern made from silk with polyester lining. Suitable for formal ocassions.<br>


<br>
- Texture: Silk<br>
- Lining Material: Polyester<br>
- White and Blue stripes";;S : 6.5cm on the longest width <br> M : 8cm on the longest width;S, 6.5cm;;;;;;;;;
Arsenic Grey Tie with black line pattern ;5793;Thursday Suits;5878;Grey,black;TIE008S;TIE008M;2;Grey;International;Silk for texture and Polyester for lining;Male;Year Round;2014;15.9;;;;;"Formal Arsenic Grey Tie with black line pattern made from silk with polyester lining. Suitable for formal ocassions.<br>


<br>
- Texture: Silk<br>
- Lining Material: Polyester<br>
- White and Blue stripes";;S : 6.5cm on the longest width <br> M : 8cm on the longest width;S, 6.5cm;;;;;;;;;
Azure Blue Ties with blue and white stripes and patterns;5793;Thursday Suits;5878;Blue, white;TIE009S;TIE009S;2;Blue;International;Silk for texture and Polyester for lining;Male;Year Round;2014;15.9;;;;;"Formal Azure Blue Ties with blue and white stripes and patterns made from silk with polyester lining. Suitable for formal ocassions.<br>


<br>
- Texture: Silk<br>
- Lining Material: Polyester<br>
- White and Blue stripes";;S : 6.5cm on the longest width <br> M : 8cm on the longest width;S, 6.5cm;;;;;;;;;
Azure Blue Ties with blue and white stripes and patterns;5793;Thursday Suits;5878;Blue, white;TIE009S;TIE009M;2;Blue;International;Silk for texture and Polyester for lining;Male;Year Round;2014;17.9;;;;;"Formal Azure Blue Ties with blue and white stripes and patterns made from silk with polyester lining. Suitable for formal ocassions.<br>


<br>
- Texture: Silk<br>
- Lining Material: Polyester<br>
- White and Blue stripes";;S : 6.5cm on the longest width <br> M : 8cm on the longest width;S, 6.5cm;;;;;;;;;
Cinder Black Tie with stripes and patterns ;5793;Thursday Suits;5878;Black;TIE010S;TIE010S;2;Black;International;Silk for texture and Polyester for lining;Male;Year Round;2014;17.9;;;;;"Formal Cinder Black Tie with stripes and patterns made from silk with polyester lining. Suitable for formal ocassions.<br>


<br>
- Texture: Silk<br>
- Lining Material: Polyester<br>
- White and Blue stripes";;S : 6.5cm on the longest width <br> M : 8cm on the longest width;S, 6.5cm;;;;;;;;;
Cinder Black Tie with stripes and patterns ;5793;Thursday Suits;5878;Black;TIE010S;TIE010M;2;Black;International;Silk for texture and Polyester for lining;Male;Year Round;2014;14.9;;;;;"Formal Cinder Black Tie with stripes and patterns made from silk with polyester lining. Suitable for formal ocassions.<br>


<br>
- Texture: Silk<br>
- Lining Material: Polyester<br>
- White and Blue stripes";;S : 6.5cm on the longest width <br> M : 8cm on the longest width;S, 6.5cm;;;;;;;;;
Cloud Burst Blue Tie with stripes ;5793;Thursday Suits;5878;Blue;TIE011S;TIE011S;2;Blue;International;Silk for texture and Polyester for lining;Male;Year Round;2014;14.9;;;;;"Formal Cloud Burst Blue Tie with stripes made from silk with polyester lining. Suitable for formal ocassions.<br>


<br>
- Texture: Silk<br>
- Lining Material: Polyester<br>
- White and Blue stripes";;S : 6.5cm on the longest width <br> M : 8cm on the longest width;S, 6.5cm;;;;;;;;;
Cloud Burst Blue Tie with stripes ;5793;Thursday Suits;5878;Blue;TIE011S;TIE011M;2;Blue;International;Silk for texture and Polyester for lining;Male;Year Round;2014;15.9;;;;;"Formal Cloud Burst Blue Tie with stripes made from silk with polyester lining. Suitable for formal ocassions.<br>


<br>
- Texture: Silk<br>
- Lining Material: Polyester<br>
- White and Blue stripes";;S : 6.5cm on the longest width <br> M : 8cm on the longest width;S, 6.5cm;;;;;;;;;
Victoria Violet Tie with square patterns ;5793;Thursday Suits;5878;Pink;TIE012S;TIE012S;2;Pink;International;Silk for texture and Polyester for lining;Male;Year Round;2014;15.9;;;;;"Formal Victoria Violet Tie with square patterns made from silk with polyester lining. Suitable for formal ocassions.<br>


<br>
- Texture: Silk<br>
- Lining Material: Polyester<br>
- White and Blue stripes";;S : 6.5cm on the longest width <br> M : 8cm on the longest width;S, 6.5cm;;;;;;;;;
Victoria Violet Tie with square patterns ;5793;Thursday Suits;5878;Pink;TIE012S;TIE012M;2;Pink;International;Silk for texture and Polyester for lining;Male;Year Round;2014;17.9;;;;;"Formal Victoria Violet Tie with square patterns made from silk with polyester lining. Suitable for formal ocassions.<br>


<br>
- Texture: Silk<br>
- Lining Material: Polyester<br>
- White and Blue stripes";;S : 6.5cm on the longest width <br> M : 8cm on the longest width;S, 6.5cm;;;;;;;;;
Sanguine Red Tie with stripes and patterns ;5793;Thursday Suits;5878;Red;TIE013S;TIE013S;2;Red;International;Silk for texture and Polyester for lining;Male;Year Round;2014;17.9;;;;;"Formal Sanguine Red Tie with stripes and patterns made from silk with polyester lining. Suitable for formal ocassions.<br>


<br>
- Texture: Silk<br>
- Lining Material: Polyester<br>
- White and Blue stripes";;S : 6.5cm on the longest width <br> M : 8cm on the longest width;S, 6.5cm;;;;;;;;;
Sanguine Red Tie with stripes and patterns ;5793;Thursday Suits;5878;Red;TIE013S;TIE013M;2;Red;International;Silk for texture and Polyester for lining;Male;Year Round;2014;15.9;;;;;"Formal Sanguine Red Tie with stripes and patterns made from silk with polyester lining. Suitable for formal ocassions.<br>


<br>
- Texture: Silk<br>
- Lining Material: Polyester<br>
- White and Blue stripes";;S : 6.5cm on the longest width <br> M : 8cm on the longest width;S, 6.5cm;;;;;;;;;
Revolver Black Tie with silver stripes ;5793;Thursday Suits;5878;Black, white;TIE014S;TIE014S;2;Black;International;Silk for texture and Polyester for lining;Male;Year Round;2014;15.9;;;;;"Formal Revolver Black Tie with silver stripes made from silk with polyester lining. Suitable for formal ocassions.<br>


<br>
- Texture: Silk<br>
- Lining Material: Polyester<br>
- White and Blue stripes";;S : 6.5cm on the longest width <br> M : 8cm on the longest width;S, 6.5cm;;;;;;;;;
Revolver Black Tie with silver stripes ;5793;Thursday Suits;5878;Black, white;TIE014S;TIE014M;2;Black;International;Silk for texture and Polyester for lining;Male;Year Round;2014;15.9;;;;;"Formal Revolver Black Tie with silver stripes made from silk with polyester lining. Suitable for formal ocassions.<br>


<br>
- Texture: Silk<br>
- Lining Material: Polyester<br>
- White and Blue stripes";;S : 6.5cm on the longest width <br> M : 8cm on the longest width;S, 6.5cm;;;;;;;;;
Jacksons Purple Tie with silver stripes ;5793;Thursday Suits;5878;Purple, white;TIE015S;TIE015S;2;Purple;International;Silk for texture and Polyester for lining;Male;Year Round;2014;15.9;;;;;"Formal Jacksons Purple Tie with silver stripes  made from silk with polyester lining. Suitable for formal ocassions.<br>


<br>
- Texture: Silk<br>
- Lining Material: Polyester<br>
- White and Blue stripes";;S : 6.5cm on the longest width <br> M : 8cm on the longest width;S, 6.5cm;;;;;;;;;
Jacksons Purple Tie with silver stripes ;5793;Thursday Suits;5878;Purple, white;TIE015S;TIE015M;2;Purple;International;Silk for texture and Polyester for lining;Male;Year Round;2014;15.9;;;;;"Formal Jacksons Purple Tie with silver stripes  made from silk with polyester lining. Suitable for formal ocassions.<br>


<br>
- Texture: Silk<br>
- Lining Material: Polyester<br>
- White and Blue stripes";;S : 6.5cm on the longest width <br> M : 8cm on the longest width;S, 6.5cm;;;;;;;;;
White Tie with Chetwode Blue stripes and square patterns ;5793;Thursday Suits;5878;White, blue;TIE016S;TIE016S;2;White;International;Silk for texture and Polyester for lining;Male;Year Round;2014;15.9;;;;;"Formal White Tie with Chetwode Blue stripes and square patterns made from silk with polyester lining. Suitable for formal ocassions.<br>


<br>
- Texture: Silk<br>
- Lining Material: Polyester<br>
- White and Blue stripes";;S : 6.5cm on the longest width <br> M : 8cm on the longest width;S, 6.5cm;;;;;;;;;
White Tie with Chetwode Blue stripes and square patterns ;5793;Thursday Suits;5878;White, blue;TIE016S;TIE016M;2;White;International;Silk for texture and Polyester for lining;Male;Year Round;2014;14.9;;;;;"Formal White Tie with Chetwode Blue stripes and square patterns made from silk with polyester lining. Suitable for formal ocassions.<br>


<br>
- Texture: Silk<br>
- Lining Material: Polyester<br>
- White and Blue stripes";;S : 6.5cm on the longest width <br> M : 8cm on the longest width;S, 6.5cm;;;;;;;;;
Deep Lilac Purple Tie with white stripes ;5793;Thursday Suits;5878;Purple, white;TIE017S;TIE017S;2;Purple;International;Silk for texture and Polyester for lining;Male;Year Round;2014;14.9;;;;;"Formal Deep Lilac Purple Tie with white stripes  made from silk with polyester lining. Suitable for formal ocassions.<br>


<br>
- Texture: Silk<br>
- Lining Material: Polyester<br>
- White and Blue stripes";;S : 6.5cm on the longest width <br> M : 8cm on the longest width;S, 6.5cm;;;;;;;;;
Deep Lilac Purple Tie with white stripes ;5793;Thursday Suits;5878;Purple, white;TIE017S;TIE017M;2;Purple;International;Silk for texture and Polyester for lining;Male;Year Round;2014;16.9;;;;;"Formal Deep Lilac Purple Tie with white stripes  made from silk with polyester lining. Suitable for formal ocassions.<br>


<br>
- Texture: Silk<br>
- Lining Material: Polyester<br>
- White and Blue stripes";;S : 6.5cm on the longest width <br> M : 8cm on the longest width;S, 6.5cm;;;;;;;;;
Russian Black Tie with patterns ;5793;Thursday Suits;5878;Black;TIE018S;TIE018S;2;Black;International;Silk for texture and Polyester for lining;Male;Year Round;2014;16.9;;;;;"Formal Russian Black Tie with patterns made from silk with polyester lining. Suitable for formal ocassions.<br>


<br>
- Texture: Silk<br>
- Lining Material: Polyester<br>
- White and Blue stripes";;S : 6.5cm on the longest width <br> M : 8cm on the longest width;S, 6.5cm;;;;;;;;;
Russian Black Tie with patterns ;5793;Thursday Suits;5878;Black;TIE018S;TIE018M;2;Black;International;Silk for texture and Polyester for lining;Male;Year Round;2014;14.9;;;;;"Formal Russian Black Tie with patterns made from silk with polyester lining. Suitable for formal ocassions.<br>


<br>
- Texture: Silk<br>
- Lining Material: Polyester<br>
- White and Blue stripes";;S : 6.5cm on the longest width <br> M : 8cm on the longest width;S, 6.5cm;;;;;;;;;
Payne's Black Tie with stripes and patterns ;5793;Thursday Suits;5878;Black;TIE019S;TIE019S;2;Black;International;Silk for texture and Polyester for lining;Male;Year Round;2014;17.9;;;;;"Formal Payne's Black Tie with stripes and patterns made from silk with polyester lining. Suitable for formal ocassions.<br>


<br>
- Texture: Silk<br>
- Lining Material: Polyester<br>
- White and Blue stripes";;S : 6.5cm on the longest width <br> M : 8cm on the longest width;S, 6.5cm;;;;;;;;;
Payne's Black Tie with stripes and patterns ;5793;Thursday Suits;5878;Black;TIE019S;TIE019M;2;Black;International;Silk for texture and Polyester for lining;Male;Year Round;2014;17.9;;;;;"Formal Payne's Black Tie with stripes and patterns made from silk with polyester lining. Suitable for formal ocassions.<br>


<br>
- Texture: Silk<br>
- Lining Material: Polyester<br>
- White and Blue stripes";;S : 6.5cm on the longest width <br> M : 8cm on the longest width;S, 6.5cm;;;;;;;;;
Raven Dark Grey Tie with stripes and pattern ;5793;Thursday Suits;5878;Black;TIE020S;TIE020S;2;Black;International;Silk for texture and Polyester for lining;Male;Year Round;2014;14.9;;;;;"Formal Raven Dark Grey Tie with stripes and pattern made from silk with polyester lining. Suitable for formal ocassions.<br>


<br>
- Texture: Silk<br>
- Lining Material: Polyester<br>
- White and Blue stripes";;S : 6.5cm on the longest width <br> M : 8cm on the longest width;S, 6.5cm;;;;;;;;;
Raven Dark Grey Tie with stripes and pattern ;5793;Thursday Suits;5878;Black;TIE020S;TIE020M;2;Black;International;Silk for texture and Polyester for lining;Male;Year Round;2014;14.9;;;;;"Formal Raven Dark Grey Tie with stripes and pattern made from silk with polyester lining. Suitable for formal ocassions.<br>


<br>
- Texture: Silk<br>
- Lining Material: Polyester<br>
- White and Blue stripes";;S : 6.5cm on the longest width <br> M : 8cm on the longest width;S, 6.5cm;;;;;;;;;
Jaguar Black Tie with stripes ;5793;Thursday Suits;5878;Black;TIE021S;TIE021S;2;Black;International;Silk for texture and Polyester for lining;Male;Year Round;2014;19.9;;;;;"Formal Jaguar Black Tie with stripes made from silk with polyester lining. Suitable for formal ocassions.<br>


<br>
- Texture: Silk<br>
- Lining Material: Polyester<br>
- White and Blue stripes";;S : 6.5cm on the longest width <br> M : 8cm on the longest width;S, 6.5cm;;;;;;;;;
Jaguar Black Tie with stripes ;5793;Thursday Suits;5878;Black;TIE021S;TIE021M;2;Black;International;Silk for texture and Polyester for lining;Male;Year Round;2014;19.9;;;;;"Formal Jaguar Black Tie with stripes made from silk with polyester lining. Suitable for formal ocassions.<br>


<br>
- Texture: Silk<br>
- Lining Material: Polyester<br>
- White and Blue stripes";;S : 6.5cm on the longest width <br> M : 8cm on the longest width;S, 6.5cm;;;;;;;;;
Midnight Black Tie with white stripes ;5793;Thursday Suits;5878;Black;TIE022S;TIE022S;2;Black;International;Silk for texture and Polyester for lining;Male;Year Round;2014;19.9;;;;;"Formal Midnight Black Tie with white stripes made from silk with polyester lining. Suitable for formal ocassions.<br>


<br>
- Texture: Silk<br>
- Lining Material: Polyester<br>
- White and Blue stripes";;S : 6.5cm on the longest width <br> M : 8cm on the longest width;S, 6.5cm;;;;;;;;;
Midnight Black Tie with white stripes ;5793;Thursday Suits;5878;Black;TIE022S;TIE022M;2;Black;International;Silk for texture and Polyester for lining;Male;Year Round;2014;19.9;;;;;"Formal Midnight Black Tie with white stripes made from silk with polyester lining. Suitable for formal ocassions.<br>


<br>
- Texture: Silk<br>
- Lining Material: Polyester<br>
- White and Blue stripes";;S : 6.5cm on the longest width <br> M : 8cm on the longest width;S, 6.5cm;;;;;;;;;
Blue Zodiac Tie with double blue stripes ;5793;Thursday Suits;5878;Blue;TIE023S;TIE023S;2;Blue;International;Silk for texture and Polyester for lining;Male;Year Round;2014;17.9;;;;;"Formal Blue Zodiac Tie with double blue stripes made from silk with polyester lining. Suitable for formal ocassions.<br>


<br>
- Texture: Silk<br>
- Lining Material: Polyester<br>
- White and Blue stripes";;S : 6.5cm on the longest width <br> M : 8cm on the longest width;S, 6.5cm;;;;;;;;;
Blue Zodiac Tie with double blue stripes ;5793;Thursday Suits;5878;Blue;TIE023S;TIE023M;2;Blue;International;Silk for texture and Polyester for lining;Male;Year Round;2014;17.9;;;;;"Formal Blue Zodiac Tie with double blue stripes made from silk with polyester lining. Suitable for formal ocassions.<br>


<br>
- Texture: Silk<br>
- Lining Material: Polyester<br>
- White and Blue stripes";;S : 6.5cm on the longest width <br> M : 8cm on the longest width;S, 6.5cm;;;;;;;;;
