"UNIQUE WORDs","FREQUENCY COUNT","CHARACTER COUNT"
"t","1775","1"
"a","1475","1"
"i","1290","1"
"s","1171","1"
"c","612","1"
"in","518","2"
"m","478","1"
"quo","305","3"
"quote","304","5"
"v","263","1"
"he","261","2"
"at","234","2"
"on","233","2"
"the","232","3"
"re","223","2"
"quotes","208","6"
"it","183","2"
"no","156","2"
"so","156","2"
"rock","148","4"
"rocky","147","5"
"or","142","2"
"ain","142","3"
"you","128","3"
"ma","123","2"
"are","111","3"
"is","108","2"
"and","100","3"
"do","97","2"
"me","97","2"
"socrates","96","8"
"arena","90","5"
"man","87","3"
"out","80","3"
"how","76","3"
"not","73","3"
"motivation","72","10"
"hard","72","4"
"tr","72","2"
"sunshine","71","8"
"hit","70","3"
"about","68","5"
"rainbow","64","7"
"balboa","64","6"
"of","63","2"
"rainbows","62","8"
"all","62","3"
"to","61","2"
"if","58","2"
"be","57","2"
"life","50","4"
"hil","50","3"
"speech","46","6"
"roosevelt","45","9"
"hill","44","4"
"napoleon","43","8"
"motivational","42","12"
"vi","40","2"
"world","40","5"
"for","39","3"
"mind","36","4"
"poet","35","4"
"am","34","2"
"society","31","7"
"now","29","3"
"dead","29","4"
"try","28","3"
"can","28","3"
"im","28","2"
"poets","27","5"
"thing","27","5"
"minds","26","5"
"go","25","2"
"get","25","3"
"one","25","3"
"theodore","24","8"
"we","23","2"
"keep","23","4"
"moving","22","6"
"forward","22","7"
"as","21","2"
"best","21","4"
"don","21","3"
"us","21","2"
"vujicic","20","7"
"our","19","3"
"know","19","4"
"sad","19","3"
"think","19","5"
"nick","19","4"
"rich","18","4"
"love","17","4"
"that","17","4"
"by","17","2"
"when","17","4"
"true","16","4"
"two","16","3"
"mew","16","3"
"your","15","4"
"character","15","9"
"set","15","3"
"yoda","15","4"
"men","15","3"
"mewtwo","14","6"
"grow","14","4"
"something","14","9"
"change","14","6"
"jack","13","4"
"test","13","4"
"what","13","4"
"ronaldo","13","7"
"wisdom","13","6"
"job","12","3"
"ever","12","4"
"tell","12","4"
"tim","12","3"
"winning","11","7"
"snoopy","11","6"
"john","11","4"
"les","11","3"
"let","11","3"
"from","11","4"
"discuss","11","7"
"wall","11","4"
"steve","10","5"
"little","10","6"
"mindset","10","7"
"time","10","4"
"see","9","3"
"jobs","9","4"
"trying","9","6"
"less","9","4"
"ideas","9","5"
"mean","9","4"
"picture","9","7"
"qoute","8","5"
"knowledge","8","9"
"positive","8","8"
"spend","8","5"
"mentalist","8","9"
"poem","8","4"
"aint","8","4"
"adams","8","5"
"quincy","8","6"
"work","8","4"
"circumstances","8","13"
"strong","7","6"
"way","7","3"
"being","7","5"
"tree","7","4"
"meaning","7","7"
"done","7","4"
"stop","7","4"
"make","7","4"
"its","7","3"
"ought","7","5"
"qoutes","7","6"
"fail","7","4"
"success","7","7"
"people","7","6"
"words","7","5"
"hits","6","4"
"street","6","6"
"come","6","4"
"weak","6","4"
"watching","6","8"
"credit","6","6"
"will","6","4"
"live","6","4"
"leaving","6","7"
"every","6","5"
"gain","6","4"
"who","6","3"
"wolf","6","4"
"pictures","6","8"
"hear","6","4"
"teddy","5","5"
"there","5","5"
"powerful","5","8"
"thoreau","5","7"
"failure","5","7"
"with","5","4"
"images","5","6"
"does","5","4"
"leadership","5","10"
"goes","5","4"
"god","5","3"
"more","5","4"
"death","5","5"
"thought","5","7"
"body","5","4"
"cristiano","5","9"
"yourself","5","8"
"overcoming","5","10"
"hopelessness","5","12"
"impress","4","7"
"children","4","8"
"other","4","5"
"script","4","6"
"poetry","4","6"
"education","4","9"
"übersetzung","4","11"
"arean","4","5"
"twice","4","5"
"things","4","6"
"my","4","2"
"birth","4","5"
"up","4","2"
"braveheart","4","10"
"5","4","1"
"say","4","3"
"van","4","3"
"woods","3","5"
"wealth","3","6"
"cinderella","3","10"
"instead","3","7"
"famous","3","6"
"most","3","4"
"always","3","6"
"deep","3","4"
"kind","3","4"
"enough","3","6"
"gospel","3","6"
"holtz","3","5"
"someone","3","7"
"thoughts","3","8"
"lou","3","3"
"9gag","3","4"
"inspirational","3","13"
"great","3","5"
"lie","3","3"
"desire","3","6"
"fucking","3","7"
"become","3","6"
"even","3","4"
"once","3","4"
"already","3","7"
"pain","3","4"
"speak","3","5"
"going","3","5"
"pdf","3","3"
"text","3","4"
"matter","3","6"
"everything","3","10"
"transcript","3","10"
"before","3","6"
"day","3","3"
"teamwork","3","8"
"happened","3","8"
"6","3","1"
"dream","3","5"
"fact","3","4"
"only","3","4"
"sm","3","2"
"choose","3","6"
"take","3","4"
"grind","3","5"
"arrogant","3","8"
"awesome","3","7"
"tried","3","5"
"wallpaper","3","9"
"tumblr","2","6"
"went","2","4"
"voice","2","5"
"much","2","4"
"simple","2","6"
"each","2","4"
"irrelevant","2","10"
"notke","2","5"
"mother","2","6"
"wrong","2","5"
"teresa","2","6"
"those","2","5"
"comp","2","4"
"classic","2","7"
"commencement","2","12"
"3","2","1"
"jiang","2","5"
"friendship","2","10"
"hong","2","4"
"moment","2","6"
"penny","2","5"
"understand","2","10"
"listen","2","6"
"captain","2","7"
"2","2","1"
"talk","2","4"
"opportunity","2","11"
"hugs","2","4"
"where","2","5"
"poems","2","5"
"bargained","2","9"
"should","2","6"
"born","2","4"
"photo","2","5"
"maninthe","2","8"
"napolian","2","8"
"everyone","2","8"
"belongs","2","7"
"avoid","2","5"
"events","2","6"
"worth","2","5"
"trap","2","4"
"goal","2","4"
"paint","2","5"
"feel","2","4"
"hide","2","4"
"road","2","4"
"napolean","2","8"
"remembering","2","11"
"fear","2","4"
"vincent","2","7"
"gogh","2","4"
"but","2","3"
"marrow","2","6"
"die","2","3"
"tedxnovisad","2","11"
"good","2","4"
"into","2","4"
"somebody","2","8"
"dreams","2","6"
"average","2","7"
"smiling","2","7"
"areana","2","6"
"wallace","2","7"
"william","2","7"
"meet","2","4"
"have","2","4"
"never","2","5"
"saying","2","6"
"plan","2","4"
"basketball","1","10"
"exercise","1","8"
"law","1","3"
"chattering","1","10"
"business","1","8"
"chaplin","1","7"
"charlie","1","7"
"donot","1","5"
"cold","1","4"
"three","1","5"
"majack","1","6"
"teeth","1","5"
"book","1","4"
"battle","1","6"
"crazy","1","5"
"fall","1","4"
"away","1","4"
"stanford","1","8"
"exodia","1","6"
"actually","1","8"
"else","1","4"
"101","1","3"
"naploeon","1","8"
"means","1","5"
"excerpt","1","7"
"bravehart","1","9"
"song","1","4"
"riding","1","6"
"poor","1","4"
"fighting","1","8"
"welcome","1","7"
"entrepreneurship","1","16"
"opening","1","7"
"leave","1","5"
"nothing","1","7"
"opinion","1","7"
"reality","1","7"
"group","1","5"
"david","1","5"
"henry","1","5"
"churchill","1","9"
"speeches","1","8"
"door","1","4"
"build","1","5"
"ied小學常識","1","7"
"jackma","1","6"
"nepoleon","1","8"
"佐敦彩福欣宴","1","6"
"luhrmann","1","8"
"knock","1","5"
"madden","1","6"
"lennon","1","6"
"china","1","5"
"advice","1","6"
"doesn","1","5"
"sunscreen","1","9"
"ripples","1","7"
"beauty","1","6"
"compil","1","6"
"nepolian","1","8"
"giants","1","6"
"shoulders","1","9"
"special","1","7"
"sex","1","3"
"politics","1","8"
"alive","1","5"
"rise","1","4"
"romance","1","7"
"knows","1","5"
"these","1","5"
"stay","1","4"
"master","1","6"
"fei","1","3"
"synchronized","1","12"
"truth","1","5"
"swimming","1","8"
"biggest","1","7"
"problem","1","7"
"communication","1","13"
"marley","1","6"
"hurt","1","4"
"連詩雅","1","3"
"said","1","4"
"views","1","5"
"wooden","1","6"
"13","1","2"
"poker","1","5"
"bob","1","3"
"supposed","1","8"
"club","1","4"
"breakfast","1","9"
"dear","1","4"
"mr","1","2"
"yue","1","3"
"vernon","1","6"
"fate","1","4"
"invictus","1","8"
"head","1","4"
"reply","1","5"
"brown","1","5"
"was","1","3"
"screws","1","6"
"生于忧患，死于安乐","1","9"
"influence","1","9"
"forgivable","1","10"
"mistakes","1","8"
"james","1","5"
"has","1","3"
"courage","1","7"
"them","1","4"
"admit","1","5"
"nicholas","1","8"
"lyrics","1","6"
"robert","1","6"
"yellow","1","6"
"“strong","1","7"
"wise","1","4"
"accept","1","6"
"jordan","1","6"
"michael","1","7"
"tested","1","6"
"1976","1","4"
"busy","1","4"
"generation","1","10"
"younger","1","7"
"improving","1","9"
"napolion","1","8"
"johnson","1","7"
"dwayne","1","6"
"lazy","1","4"
"person","1","6"
"ain’t","1","5"
"–","1","1"
"Query","1","5"
"cr7","1","3"
"difficult","1","9"
"greatest","1","8"
"arrogante","1","9"
"down","1","4"
"money","1","5"
"maninthearena","1","13"
"ones","1","4"
"kalidas","1","7"
"”","1","1"
"thinking","1","8"
"traduction","1","10"
"consultancy","1","11"
"seo","1","3"
"alibaba","1","7"
"faith","1","5"
"someday","1","7"
"definite","1","8"
"man’s","1","5"
"sadness","1","7"
"physically","1","10"
"三字经","1","3"
"english","1","7"
"socratesquotes","1","14"
"believe","1","7"
"right","1","5"
"had","1","3"
"nine","1","4"
"chop","1","4"
"hours","1","5"
"wife","1","4"
"getting","1","7"
"español","1","7"
"translation","1","11"
"paid","1","4"
"philosophy","1","10"
"like","1","4"
"looks","1","5"
"pride","1","5"
"孟子","1","2"
"anything","1","8"
"anybody","1","7"
"teach","1","5"
"says","1","4"
"citati","1","6"
"mewtwos","1","7"
"岫岩","1","2"
"cannot","1","6"
"franklin","1","8"
"possible","1","8"
"made","1","4"
"slues","1","5"
"simpler","1","7"
"gandhi","1","6"
"benjamin","1","8"
"pay","1","3"
"motivate","1","8"
"face","1","4"
"living","1","6"
"others","1","6"
"lived","1","5"
"university","1","10"
"texas","1","5"
"2014","1","4"
"austin","1","6"
"thousand","1","8"
"dicaprio","1","8"
"profession","1","10"
"accounting","1","10"
"honours","1","7"
"lincoln","1","7"
"leonardo","1","8"
"patz","1","4"
"tijuana","1","7"
"loser","1","5"
"because","1","7"
"carnegie","1","8"
"andrew","1","6"
"through","1","7"
"plant","1","5"
"care","1","4"
"soul","1","4"
"gym","1","3"
"gift","1","4"
"sayings","1","7"
"define","1","6"
"生於憂患死於安樂","1","8"
"understanding","1","13"
"berns","1","5"
"page","1","4"
"contact","1","7"
"tough","1","5"
"sam","1","3"
"dogma","1","5"
"trapped","1","7"
"main","1","4"
"hundred","1","7"
"family","1","6"
"winner","1","6"
"surnames","1","8"
"this","1","4"
"preparing","1","9"
"toss","1","4"
"coxswain","1","8"
"fill","1","4"
"start","1","5"
"prepare","1","7"
"failing","1","7"
"address","1","7"
