"UNIQUE WORDs","FREQUENCY COUNT","CHARACTER COUNT","SUMMED TRAFFIC SHARE"
"e","1167","1","0.9901573554086954"
"i","895","1","0.9850756004288328"
"a","754","1","0.4200621371073324"
"in","277","2","0.3147484909291625"
"or","272","2","0.3149774293031283"
"epi","254","3","0.8543040348104293"
"ore","230","3","0.3080809237711781"
"epic","225","4","0.8223148483827805"
"centre","210","6","0.7332370936991219"
"epicent","195","7","0.7835287714613869"
"sing","187","4","0.2995179130112225"
"singa","182","5","0.2979289296597084"
"apple","171","5","0.09041717073531298"
"singapore","169","9","0.2902491301644717"
"epicentre","147","9","0.66885074913097"
"on","114","2","0.06800359624992364"
"to","77","2","0.03909080071983297"
"center","73","6","0.1445092151440339"
"service","59","7","0.04332179844292879"
"mac","59","3","0.02356275920402164"
"store","58","5","0.0338848155042177"
"ion","50","3","0.02217703941782661"
"epicenter","46","9","0.1141000440836852"
"phone","45","5","0.04140120255916284"
"iphone","43","6","0.04097901123790269"
"air","38","3","0.01310321968194561"
"pro","37","3","0.01594474906782164"
"book","35","4","0.01354380880016891"
"wheel","34","5","0.01481625133354841"
"lock","34","4","0.01481625133354841"
"wheelock","30","8","0.01346928572918632"
"is","30","2","0.01144794191412904"
"macbook","29","7","0.01122824728414363"
"me","25","2","0.007261469270821977"
"at","24","2","0.008051443965740713"
"ipad","23","4","0.01326464656204139"
"rd","22","2","0.008008336286572082"
"repair","21","6","0.006148138024811252"
"6","20","1","0.01377365098100596"
"lay","19","3","0.03109493169622594"
"promo","19","5","0.008218122046867336"
"malaysia","17","8","0.0299232179055694"
"orchard","17","7","0.00611608835595564"
"2","16","1","0.005477110678007839"
"it","16","2","0.005808569918183192"
"sell","16","4","0.01330007703196559"
"promotion","15","9","0.005999262910230273"
"sg","15","2","0.01091127483719035"
"1","15","1","0.004535766198789377"
"plaza","14","5","0.008098264845942098"
"di","14","2","0.006393779415940979"
"reseller","14","8","0.01080240803376515"
"5","14","1","0.004145102139483687"
"trade","12","5","0.004128457561795069"
"shop","12","4","0.003389386309966774"
"com","11","3","0.005434502527562237"
"singapura","11","9","0.007145890617692685"
"car","11","3","0.005142385403987874"
"0","11","1","0.003619881440667906"
"nin","11","3","0.003838598256483452"
"location","10","8","0.003684713334660319"
"place","10","5","0.002660285034111008"
"bugis","9","5","0.003757082435260956"
"asia","9","4","0.005244194215582161"
"out","9","3","0.006226154733311192"
"tai","8","3","0.002358519096980663"
"outlet","8","6","0.006024130732643566"
"number","8","6","0.002192891335627155"
"care","8","4","0.003363111961601036"
"opening","8","7","0.003069766014622766"
"funan","8","5","0.005941505443138343"
"picentreasia","7","12","0.004357822064090204"
"somerset","7","8","0.002619859617828767"
"of","7","2","0.002100356627036164"
"retail","7","6","0.002091870095392908"
"mini","7","4","0.003995650801347755"
"installment","7","11","0.001783127913547459"
"outlets","7","7","0.005649123876757009"
"contact","6","7","0.001965880150294761"
"hr","6","2","0.002006833486487764"
"4","6","1","0.001756227342003675"
"the","6","3","0.004766585214660769"
"mall","6","4","0.001424217281336155"
"hours","6","5","0.002434937679045957"
"ipod","6","4","0.001643535740418845"
"ioi","6","3","0.00121418029014081"
"plan","6","4","0.001516478911959704"
"epicentreasia","6","13","0.004201879163281028"
"plus","5","4","0.001799423288639282"
"dealer","5","6","0.002903957996119842"
"pavilion","5","8","0.003349747005369849"
"career","5","6","0.002673327613125578"
"tv","5","2","0.003858121918181287"
"product","5","7","0.002039284934197644"
"jem","5","3","0.001220400953912099"
"authorised","5","10","0.001458584316294525"
"pte","5","3","0.003506605198303291"
"kuala","5","5","0.001661513260708998"
"lumpur","5","6","0.001661513260708998"
"where","5","5","0.002594894380118721"
"curve","5","5","0.003305892608715552"
"buy","5","3","0.001802467604820873"
"2015","5","4","0.001634807056895741"
"retailer","5","8","0.001544171793185001"
"lab","4","3","0.0008798421474822578"
"for","4","3","0.001329313780903364"
"case","4","4","0.001264901450610421"
"nubox","4","5","0.001253188042703146"
"authorized","4","10","0.001098695201632922"
"stock","4","5","0.0008952653313958887"
"stores","4","6","0.001688606345564066"
"christmas","4","9","0.001393556867546782"
"tampines","4","8","0.001007253005409283"
"price","4","5","0.002160365059157878"
"313","4","3","0.001359704481448304"
"premium","4","7","0.0007364134355032446"
"accessories","3","11","0.000483761268700567"
"retina","3","6","0.001660795363169435"
"voucher","3","7","0.002243335350343679"
"8","3","1","0.0008880658284292826"
"draw","3","4","0.001150915883145152"
"lucky","3","5","0.001150915883145152"
"2014","3","4","0.0006531888320160489"
"how","3","3","0.001326844694029599"
"products","3","8","0.001600619102719618"
"ubi","3","3","0.0008446272483190738"
"office","3","6","0.0007906748592079271"
"ltd","3","3","0.003190829366956693"
"near","3","4","0.0008436832226915185"
"kl","3","2","0.0005011919470156041"
"resellers","3","9","0.000860267790103699"
"wheellock","3","9","0.001080316602774331"
"provider","3","8","0.0009700219848245502"
"holdings","3","8","0.0007714307097829617"
"epilife","3","7","0.0009761815434459857"
"city","3","4","0.001024398073202137"
"imac","3","4","0.001442657423960341"
"promotions","3","10","0.001004646631378701"
"marina","3","6","0.0006889077527255924"
"bay","3","3","0.0006889077527255924"
"cd","3","2","0.001180546641901158"
"nex","3","3","0.0006825381797664409"
"devia","2","5","0.0005148877388373056"
"airport","2","7","0.0004912173300606359"
"challenger","2","10","0.000422524472519242"
"distributors","2","12","0.0003252471605052793"
"magsafe","2","7","0.0001558754709314871"
"tradehub","2","8","0.0004620543414556847"
"watch","2","5","0.000840854925478447"
"limited","2","7","0.0005830357073028148"
"centres","2","7","0.0005329648519164159"
"pavillion","2","9","0.0002496783077523578"
"junction","2","8","0.0005770342211037635"
"online","2","6","0.0003252471605052793"
"computer","2","8","0.0005773673723628574"
"applecare","2","9","0.000422524472519242"
"lightning","2","9","0.0003938253859741282"
"sands","2","5","0.0004225919023969314"
"usb","2","3","0.0002759858928185954"
"cable","2","5","0.0003938253859741282"
"classic","2","7","0.0004769496880381428"
"services","2","8","0.0005345197519124326"
"membership","2","10","0.0005346758248795222"
"machines","2","8","0.0003747463785009964"
"qcd","2","3","0.000532631700657322"
"shops","2","5","0.0005291970344152908"
"tech","2","4","0.000532631700657322"
"jurong","2","6","0.0005183575226802149"
"go","2","2","0.0005335757262848773"
"availability","2","12","0.0004035033338125764"
"image","2","5","0.0009308213854872615"
"suntec","2","6","0.0005234149832517108"
"card","2","4","0.0007852014108433042"
"vivo","2","4","0.0008111437700595392"
"register","2","8","0.0009683877585783236"
"warranty","2","8","0.0008611652785344213"
"road","2","4","0.0008880658284292826"
"www","2","3","0.0007957875602270551"
"jimmy","2","5","0.0008928362841664091"
"interest","2","8","0.0009683877585783236"
"epiccentre","2","10","0.002256134575044143"
"epitude","2","7","0.001250124108295297"
"fong","2","4","0.0008928362841664091"
"branches","2","8","0.0008739001074113266"
"5s","2","2","0.001075713118192344"
"exchange","2","8","0.001623952278938479"
"vouchers","2","8","0.001414168004673385"
"show","2","4","0.001091600305664235"
"epiccenter","2","10","0.002087911480249816"
"time","2","4","0.000690782687233156"
"istudio","2","7","0.0007447308400758972"
"bundle","2","6","0.002102673461685555"
"adapter","2","7","0.0003157758313465985"
"providers","2","9","0.0006593036140494477"
"does","2","4","0.002497668998200435"
"biggest","2","7","0.001870819131693515"
"bag","1","3","0.001117786011149481"
"prices","1","6","0.0002476278628810893"
"scotts","1","6","0.0002476278628810893"
"segmentation","1","12","0.0002076391519051123"
"lifeproof","1","9","0.0002476278628810893"
"policy","1","6","0.0002239574541044196"
"discount","1","8","0.0002076391519051123"
"payment","1","7","0.0002020240006676264"
"kardon","1","6","0.0008407306694444762"
"eapple","1","6","0.0002020240006676264"
"harman","1","6","0.0008407306694444762"
"contest","1","7","0.0002052739238072097"
"november","1","8","0.0002052739238072097"
"special","1","7","0.0002239574541044196"
"promotin","1","8","0.0002239574541044196"
"6ghz","1","4","0.0002239574541044196"
"s4i","1","3","0.0002149726815583439"
"charger","1","7","0.0009940720315435325"
"support","1","7","0.0002305381058384864"
"used","1","4","0.0009694507644860344"
"klipsch","1","7","0.0002149726815583439"
"rugged","1","6","0.0002149726815583439"
"fix","1","3","0.0002096898120819265"
"psychographic","1","13","0.0002076391519051123"
"much","1","4","0.0002352443883653635"
"display","1","7","0.0008609954198814341"
"capacity","1","8","0.0002076391519051123"
"shuffle","1","7","0.0002076391519051123"
"aple","1","4","0.0008456026978167451"
"express","1","7","0.0002239574541044196"
"sales","1","5","0.0001802565963377418"
"macshop","1","7","0.0001558754709314871"
"marsiling","1","9","0.0001558754709314871"
"reselelrkuala","1","13","0.0001360686030744252"
"parkway","1","7","0.0001558754709314871"
"agent","1","5","0.0001558754709314871"
"distributio","1","11","0.001603559255737298"
"converter","1","9","0.0001558754709314871"
"enrollment","1","10","0.0001558754709314871"
"pebble","1","6","0.0001237870336825922"
"steel","1","5","0.0001237870336825922"
"lifetsyrle","1","10","7.009978746467738E-5"
"cover","1","5","0"
"ethernet","1","8","0"
"clearance","1","9","7.053126804549392E-5"
"เบอร์","1","5","9.696641849521685E-5"
"band","1","4","0.0001237870336825922"
"tourist","1","7","0.0001119782750554471"
"sgd","1","3","0.0001559429008091764"
"£596","1","4","0.0001559429008091764"
"macbundle","1","9","0.00125707076386881"
"point","1","5","0.0001559429008091764"
"epiceter","1","8","0.0001559429008091764"
"fahrenheit","1","10","0.0001802565963377418"
"5c","1","2","0.0001802565963377418"
"courses","1","7","0.00114990296529864"
"pfon","1","4","0.0001941516137129068"
"wacom","1","5","0.0001835372597625758"
"aepicentre","1","10","0.0001559429008091764"
"event","1","5","0.0001559429008091764"
"largest","1","7","0.0001559429008091764"
"remote","1","6","0.001544007432220668"
"info","1","4","0.0001559429008091764"
"mouse","1","5","0.0001559429008091764"
"magic","1","5","0.0001559429008091764"
"boost","1","5","0.0001559429008091764"
"tourism","1","7","0.0001559429008091764"
"best","1","4","0.0002020240006676264"
"iwatch","1","6","0.0007170678917958548"
"sdn","1","3","0.0004704155225028644"
"lifestyle","1","9","0.0004704155225028644"
"api","1","3","0.0004744830400682016"
"bhd","1","3","0.0004704155225028644"
"locations","1","9","0.0004552670147862016"
"xs","1","2","0.0002811325788047848"
"wireless","1","8","0.0002811325788047848"
"appletv","1","7","0.0002771968717469137"
"recycle","1","7","0.0002672598759562163"
"39","1","2","0.0002672598759562163"
"eptitude","1","8","0.0002672598759562163"
"inch","1","4","0.0004840241119414028"
"27","1","2","0.0004840241119414028"
"408695","1","6","0.0002672598759562163"
"credit","1","6","0.0004744830400682016"
"world","1","5","0.0002672598759562163"
"publications","1","12","0.0002672598759562163"
"building","1","8","0.0002672598759562163"
"focal","1","5","0.0002811325788047848"
"orchid","1","6","0.0002878768225176563"
"innerexile","1","10","0.0003432625799180902"
"boon","1","4","0.0003107183707751025"
"epcentre","1","8","0.0003750068558865576"
"hydra","1","5","0.0003432625799180902"
"central","1","7","0.0003299200172215162"
"casing","1","6","0.0003157758313465985"
"closing","1","7","0.0003157758313465985"
"singpore","1","8","0.0003157758313465985"
"serrvices","1","9","0.0003107183707751025"
"nano","1","4","0.0004126329632905051"
"tradein","1","7","0.0003107183707751025"
"6555","1","4","0.0002878768225176563"
"500","1","3","0.0002878768225176563"
"desk","1","4","0.0003107183707751025"
"help","1","4","0.0003107183707751025"
"epiccenre","1","9","0.0003107183707751025"
"new","1","3","0.0004126329632905051"
"management","1","10","0.0002672598759562163"
"problems","1","8","0.0002672598759562163"
"epicenre","1","8","0.0002666490015877549"
"screen","1","6","0.000266315850328661"
"guard","1","5","0.000266315850328661"
"singaore","1","8","0.0002666490015877549"
"engraving","1","9","0.0002666490015877549"
"68","1","2","0.0006208059524730662"
"lecteur","1","7","0.0006479149412438357"
"takashimaya","1","11","0.000666264066633259"
"sapura","1","6","0.000266315850328661"
"cetre","1","5","0.0006680061991498217"
"chimera","1","7","0.000266315850328661"
"ffxiv","1","5","0.000266315850328661"
"cpi","1","3","0.0002628811840866299"
"picture","1","7","0.0007216845052335231"
"financial","1","9","0.000266315850328661"
"images","1","6","0.0007158487039289176"
"apply","1","5","0.0003157758313465985"
"paragon","1","7","0.000266315850328661"
"seng","1","4","0.0002666490015877549"
"12b","1","3","0.0006208059524730662"
"landing","1","7","0.0005176280095555121"
"group","1","5","0.0005727891526297085"
"png","1","3","0.0005837553880365587"
"page","1","4","0.0005176280095555121"
"epicentrr","1","9","0.0002672598759562163"
"customer","1","8","0.0002672598759562163"
"close","1","5","0.0005013652715800914"
"epictentre","1","10","0.0002672598759562163"
"hybrid","1","6","0.0005863417417656326"
"servicing","1","9","0.0002666490015877549"
"competitors","1","11","0.0002666490015877549"
"employees","1","9","0.0002666490015877549"
"yahoo","1","5","0.0006208059524730662"
"mbs","1","3","0.0002666490015877549"
"software","1","8","0.000593380902691766"
"neo","1","3","0.0005863417417656326"
"spigen","1","6","0.0005863417417656326"
"bangsar","1","7","0.0002539125649637781"
