"UNIQUE WORDs","FREQUENCY COUNT","CHARACTER COUNT","SUMMED TRAFFIC SHARE"
"i","1907","1","0.9501784314022499"
"a","1566","1","0.9694659196131066"
"t","1194","1","0.872948062574376"
"on","1014","2","0.8946295451085391"
"s","816","1","0.2096036750683707"
"at","548","2","0.787392971684941"
"nativ","497","5","0.7825792834789006"
"native","495","6","0.782142502492474"
"unio","495","4","0.7816729035115124"
"nion","492","4","0.7814724144839842"
"union","488","5","0.7810482442726846"
"phone","406","5","0.1704542669849651"
"m","329","1","0.1141062764298581"
"iphon","265","5","0.1265540882196962"
"le","263","2","0.1253182794015896"
"iphone","262","6","0.1262814637296141"
"as","254","2","0.1206824442433858"
"cas","230","3","0.1188159210729796"
"case","228","4","0.1186683206711887"
"wood","164","4","0.08382897930961848"
"in","147","2","0.02529227558083279"
"cabl","141","4","0.09611910717232115"
"cable","140","5","0.09598812371349938"
"es","125","2","0.02589010386381817"
"to","119","2","0.02453501842983447"
"de","116","2","0.04599743476788239"
"6","113","1","0.07758541445652947"
"and","111","3","0.02123470112962305"
"blue","89","4","0.0198859084883761"
"j","88","1","0.06521084896260161"
"too","88","3","0.01981897660178179"
"tooth","87","5","0.01965528498496452"
"bluetooth","85","9","0.01940006128935291"
"pop","81","3","0.02944835350394268"
"jump","77","4","0.06364940182820436"
"hand","76","4","0.01789218187200203"
"wooden","72","6","0.03790994159827285"
"it","69","2","0.0180246098750583"
"clic","68","4","0.03197588673539883"
"5","68","1","0.01540725553324899"
"set","66","3","0.01621061133562387"
"hands","61","5","0.01408465627405756"
"no","60","2","0.02065850820708498"
"handset","60","7","0.01408465627405756"
"pad","60","3","0.01627180660772612"
"ipad","57","4","0.01471056833422698"
"speaker","54","7","0.01403684243609467"
"ai","54","2","0.0115695117278278"
"grip","52","4","0.02001964727922289"
"for","46","3","0.00741264845152759"
"retro","46","5","0.01039801718375809"
"cases","42","5","0.01299446503078584"
"grips","41","5","0.01718550425112708"
"charge","41","6","0.01379371760675528"
"gripster","40","8","0.01712934295979466"
"charger","36","7","0.01314381851234962"
"air","35","3","0.00863284742583687"
"monocle","35","7","0.01644914557597303"
"be","34","2","0.00866098807470117"
"usb","33","3","0.006861941178573126"
"light","32","5","0.005161614110355257"
"key","32","3","0.008606244349919051"
"plus","30","4","0.007139107415519573"
"switch","30","6","0.01125230622581082"
"lightning","29","9","0.004881111104393149"
"la","29","2","0.004374520277845496"
"moshi","28","5","0.003954844494617952"
"metal","27","5","0.006001844324633515"
"eu","27","2","0.03904560567753008"
"night","27","5","0.047588085224076"
"5s","26","2","0.008879954235918345"
"com","26","3","0.007810388640405784"
"by","24","2","0.01158132466558879"
"the","21","3","0.00878544695424863"
"nativeunio","20","10","0.03822288182492145"
"with","19","4","0.004408895844274332"
"nativeunion","18","11","0.03795068436796825"
"charging","18","8","0.004854738816478664"
"over","16","4","0.001983366203888026"
"micr","15","4","0.00134434300772617"
"desk","15","4","0.004014531258116625"
"is","15","2","0.00207112014765379"
"2","15","1","0.002254477301972563"
"micro","14","5","0.00120064365498091"
"cover","13","5","0.001734248399429316"
"manual","13","6","0.002432711869785009"
"wrap","13","4","0.006319936201540138"
"not","13","3","0.002972511515113521"
"portable","12","8","0.001429792157719322"
"curve","12","5","0.002314896591867219"
"aus","12","3","0.001288553549931844"
"do","12","2","0.002809069209802807"
"power","12","5","0.003318601346365985"
"best","12","4","0.002354639148838328"
"up","11","2","0.001342779523936979"
"old","11","3","0.001328009781311104"
"mini","11","4","0.002047860980252037"
"conference","11","10","0.00111465448047012"
"can","11","3","0.002885268855639806"
"knot","10","4","0.002290334029349239"
"link","10","4","0.00275163606027909"
"3","10","1","0.001830864911958822"
"telephone","10","9","0.001294883589738408"
"belt","10","4","0.00512924347794725"
"di","10","2","0.00275944964359858"
"all","10","3","0.001847500974813158"
"android","9","7","0.000900361035318018"
"handle","9","6","0.00239764025809944"
"of","9","2","0.001050332614450227"
"uk","9","2","0.001456664889693388"
"chain","9","5","0.002114409993652168"
"4","9","1","0.001489522709197214"
"battery","8","7","0.0007608070817647968"
"kickstarter","8","11","0.001271233667721269"
"australia","8","9","0.0008653091073782505"
"review","8","6","0.000770258879807251"
"tassel","8","6","0.0007873686647058004"
"slate","8","5","0.001057380021012824"
"stand","8","5","0.001478067499347959"
"how","8","3","0.001283071861484125"
"play","8","4","0.001677734701662746"
"apple","8","5","0.001567115490979503"
"cables","8","6","0.001344427559703672"
"comb","8","4","0.001798871292164697"
"wireless","8","8","0.001520943928352613"
"design","7","6","0.001484735005855555"
"mobile","7","6","0.002084271438052384"
"use","7","3","0.0007610187913420493"
"phones","7","6","0.0009431368648062361"
"buy","7","3","0.00101156070498836"
"1","7","1","0.001068293337544133"
"cord","7","4","0.0005682475711792308"
"brass","7","5","0.0008373941109722701"
"keychain","7","8","0.001488713029618815"
"honey","7","5","0.001742710000832272"
"honeycomb","6","9","0.001662067638947849"
"call","6","4","0.001451887977361399"
"marble","6","6","0.001718821079846272"
"click","6","5","0.0005141526848141303"
"gold","6","4","0.0005752281721201611"
"5c","6","2","0.0004609393742662546"
"canada","5","6","0.002275169225396367"
"zebra","5","5","0.0004994421676422134"
"sin","5","3","0.001298246277452299"
"dock","5","4","0.001417735803906952"
"mm03","5","4","0.000923693385007925"
"kong","5","4","0.001133950133009982"
"europe","5","6","0.0007051633193628304"
"headset","5","7","0.002035161026856975"
"support","5","7","0.0004118838567509566"
"connect","5","7","0.0008388710968222038"
"hong","5","4","0.001133950133009982"
"black","5","5","0.0005105496390830196"
"www","5","3","0.001595172478871701"
"powerlink","5","9","0.001870638326128679"
"accessory","4","9","0.0003612951189289035"
"amazon","4","6","0.0004678173909877906"
"touch","4","5","0.0004775344401036376"
"holder","4","6","0.000637374355794064"
"mm04","4","4","0.0005003316822840083"
"ring","4","4","0.0006734925328585341"
"nation","4","6","0.0002394712206961939"
"adapter","4","7","0.0009147535269865657"
"speakers","4","8","0.001290267141267586"
"what","4","4","0.0003826710860112464"
"xl","4","2","0.0009337648185000453"
"change","3","6","0.0004797388956852646"
"singapore","3","9","0.00104172359046833"
"hk","3","2","0.0006398479675961313"
"uniom","3","5","0.0002525412824632894"
"bt","3","2","0.001076208585100725"
"headphone","3","9","0.0003260045439375945"
"accessories","3","11","0.0004684853376859612"
"unit","3","4","0.0001809095642604023"
"câble","3","5","0.0002980667933484009"
"como","3","4","0.0006442894616850719"
"speakerphone","3","12","0.001281291982131911"
"calls","3","5","0.001282668426423859"
"luxury","3","6","0.0003239168354642511"
"moshimoshi","3","10","0.0001997731046313566"
"card","3","4","0.0002943991621739629"
"duc","3","3","0.0003245579499379763"
"red","3","3","0.0004360644166365261"
"union’s","3","7","0.001087766639080711"
"receiver","3","8","0.000241864259093829"
"cell","3","4","0.0003984494455472186"
"copper","3","6","0.0002732513833069441"
"memo","3","4","0.001561238273499135"
"pairing","3","7","0.0005996004878986102"
"soft","3","4","0.0003657661576286432"
"price","3","5","0.0003763556264828147"
"ora","2","3","0.0002003901517582043"
"handsets","2","8","0.0001936543024342302"
"braided","2","7","0.0001854902742209449"
"turn","2","4","0.0001886412756326161"
"pool","2","4","0.0003237928877866463"
"usa","2","3","0.0004940407049705872"
"men","2","3","0.0001238244795215062"
"cool","2","4","0.0001767523126848247"
"unino","2","5","0.000172174440678767"
"troubleshooting","2","15","0.0002198529081496886"
"instagram","2","9","0.0001213677673691671"
"united","2","6","0.0001809095642604023"
"made","2","4","0.000116809847773474"
"phoen","2","5","0.0001545344068443475"
"popphone","2","8","0.000133728487811362"
"products","2","8","0.0002355518349070488"
"leather","2","7","0.0002375088549713415"
"naked","2","5","0.0002469413324700655"
"solo","2","4","0.0002459443949369488"
"you","2","3","0.0001739136223213806"
"marine","2","6","0.000230288399858523"
"clip","2","4","0.0002683924067039075"
"gum","2","3","0.0002680822829585889"
"index","2","5","0.0002534434952974346"
"instruction","2","11","0.0003121920066565752"
"loop","2","4","0.0001102235041597369"
"jumper","2","6","0.0002463710141590636"
"kk","2","2","0.0001891417799321887"
"address","2","7","0.0001086873667198778"
"monkey","2","6","0.0002198529081496886"
"get","2","3","0.0002474849801133588"
"naive","2","5","0.0001342420027581648"
"natibe","2","6","0.0002941086324241013"
"sf","2","2","0.0003182260236616117"
"team","2","4","0.0001656468893663253"
"rand","2","4","0.0003145071398503416"
"austin","2","6","0.0001692195509375403"
"mm03i","2","5","0.0004435436383123119"
"v2","2","2","0.0005178570323750516"
"magazine","2","8","0.0003367781805727228"
"talk","2","4","3.021426957612049E-5"
"brunner","2","7","0.0001286335268807352"
"solid","2","5","0.0005172443147194684"
"connector","2","9","0.0001762202223507753"
"untion","2","6","0.0005149416994423626"
"john","2","4","0.0001286335268807352"
"adaptors","2","8","0.0005715588263728518"
"unions","2","6","0.000344744876108011"
"vintage","2","7","0.0002474406977269234"
"white","2","5","0.0004232410650237452"
"walnut","2","6","0.000172215443026991"
"steel","2","5","0.0001514111075952375"
"american","2","8","0.000146955326041754"
"contact","2","7","7.076393932027029E-5"
"timber","2","6","0.0001646860796692536"
"smart","2","5","0.000158387616299007"
"user","2","4","0.0001815880694186591"
"website","2","7","0.0004510684373212017"
"tassle","2","6","0.0001782510761397028"
"香港","2","2","0.0001039245611496889"
"mac","2","3","0.0004718462966940636"
"sound","2","5","0.0003864630827855487"
"volume","2","6","0.0002966635109282086"
"free","2","4","8.77520933822816E-5"
"jumpcable","2","9","0.0001280261898277736"
"where","2","5","0.0003708681170440872"
"thin","2","4","0.0001133168368053504"
"when","2","4","0.0003508758529720831"
"charged","2","7","0.0003508758529720831"
"unon","2","4","0.0001537062929438438"
"uion","2","4","0.0002537995986465358"
"india","2","5","0.001369573553019728"
"way","2","3","0.0001586462179530904"
"idock","2","5","0.001122373251679842"
"video","2","5","0.0008811567274281234"
"cords","2","5","5.616129133242439E-5"
"watch","2","5","0.0001123225826648488"
"green","2","5","0.0003585840096129384"
"know","2","4","0.0003508758529720831"
"off","2","3","0.0001675867265921893"
"uniun","2","5","0.0002979227816960506"
"box","2","3","0.0001618748296828938"
"incase","2","6","0.000154935879179554"
"ender","2","5","0.0002205644323863267"
"size","2","4","0.0006436248383164414"
"gripster™","2","9","0.0006387889352641274"
"samsung","2","7","0.000637363384111257"
"casses","1","6","8.542618764144571E-5"
"this","1","4","8.542618764144571E-5"
"unnion","1","6","8.542618764144571E-5"
"display","1","7","8.064236188442347E-5"
"nyc","1","3","8.542618764144571E-5"
"powered","1","7","8.542618764144571E-5"
"caser","1","5","8.064236188442347E-5"
"may","1","3","8.542618764144571E-5"
"supported","1","9","8.542618764144571E-5"
"patent","1","6","8.542618764144571E-5"
"sub","1","3","8.542618764144571E-5"
"lithning","1","8","8.064236188442347E-5"
"garage","1","6","8.542618764144571E-5"
"bubble","1","6","8.110125984646499E-5"
"brand","1","5","8.110125984646499E-5"
"киев","1","4","8.375520161472418E-5"
"hear","1","4","8.379336329609463E-5"
"indexof","1","7","8.379336329609463E-5"
"nature","1","6","8.110125984646499E-5"
"otf","1","3","8.379336329609463E-5"
"limited","1","7","8.379336329609463E-5"
"купить","1","6","8.375520161472418E-5"
"curved","1","6","8.379336329609463E-5"
"france","1","6","8.379336329609463E-5"
"club","1","4","8.379336329609463E-5"
"piero","1","5","8.379336329609463E-5"
"etais","1","5","8.379336329609463E-5"
"edition","1","7","8.379336329609463E-5"
"chrager","1","7","8.379336329609463E-5"
"hairline","1","8","8.379336329609463E-5"
"fake","1","4","8.107448849106509E-5"
"natuve","1","6","8.064236188442347E-5"
"page","1","4","8.064236188442347E-5"
"handover","1","8","8.542618764144571E-5"
"lightening","1","10","8.064236188442347E-5"
"cliq","1","4","8.542618764144571E-5"
"cabel","1","5","8.064236188442347E-5"
"store","1","5","8.542618764144571E-5"
"unuoion","1","7","8.064236188442347E-5"
"bar","1","3","8.542618764144571E-5"
"suqa","1","4","8.421120312040095E-5"
"phonoe","1","6","8.379336329609463E-5"
"six","1","3","8.064236188442347E-5"
"unlon","1","5","8.064236188442347E-5"
"ipone","1","5","8.542618764144571E-5"
"ipkone","1","6","8.064236188442347E-5"
"retina","1","6","8.064236188442347E-5"
"handles","1","7","5.616129133242439E-5"
"que","1","3","5.288222072110897E-5"
"nottingham","1","10","5.198708986685856E-5"
"about","1","5","5.352415478270356E-5"
"sales","1","5","5.354402099171525E-5"
"kindle","1","6","5.387206641894799E-5"
"ネット","1","3","4.834704442916751E-5"
"速度","1","2","4.834704442916751E-5"
"hongkong","1","8","4.211804468338075E-5"
"價錢","1","2","4.320652477845225E-5"
"от","1","2","4.410007224306192E-5"
"jump　micro","1","10","4.834704442916751E-5"
"vacation","1","8","5.483578011168661E-5"
"kpi","1","3","5.483578011168661E-5"
"magnetic","1","8","5.616129133242439E-5"
"its","1","3","5.616129133242439E-5"
"flashing","1","8","5.616129133242439E-5"
"combination","1","11","5.616129133242439E-5"
"beige","1","5","5.616129133242439E-5"
"1rmb","1","4","5.483578011168661E-5"
"corner","1","6","5.483578011168661E-5"
"round","1","5","5.483578011168661E-5"
"game","1","4","5.483578011168661E-5"
"usd","1","3","5.483578011168661E-5"
"mediaelementjs","1","14","4.003111622541158E-5"
"ubuntu","1","6","4.003111622541158E-5"
"rest","1","4","0"
"shoulder","1","8","0"
"啤酒咖啡","1","4","1.971497772966239E-5"
"london","1","6","2.32294099725882E-5"
"kakkoii","1","7","2.440640801225691E-5"
"number","1","6","0"
"anker","1","5","0"
"microphone","1","10","0"
"mobiles","1","7","0"
"kabels","1","6","0"
"tangle","1","6","0"
"partners","1","8","2.494686479097138E-5"
"our","1","3","2.494686479097138E-5"
"docks","1","5","3.686496602170235E-5"
"reptile","1","7","3.694601221250823E-5"
"bluetooth®","1","10","3.957380168169954E-5"
"server","1","6","4.003111622541158E-5"
"test","1","4","3.453036737721466E-5"
"ipan","1","4","3.171783128401176E-5"
"make","1","4","3.021426957612049E-5"
"life","1","4","3.021426957612049E-5"
"ebola","1","5","3.055490777335563E-5"
"cable」","1","6","3.141187344308936E-5"
"bear","1","4","5.616129133242439E-5"
"chroma","1","6","5.616129133242439E-5"
"answer","1","6","7.389204495992405E-5"
"dark","1","4","7.389204495992405E-5"
"wetransfer","1","10","7.389204495992405E-5"
"5mm","1","3","7.389204495992405E-5"
"ipop","1","4","7.389204495992405E-5"
"discount","1","8","7.389204495992405E-5"
"uinon","1","5","7.158591863348615E-5"
"doesn","1","5","6.592836992498062E-5"
"that","1","4","6.592836992498062E-5"
"4s","1","2","6.592836992498062E-5"
"batery","1","6","7.043069726000901E-5"
"marriott","1","8","7.389204495992405E-5"
"jump™cable","1","10","7.389204495992405E-5"
"creative","1","8","7.408591967075605E-5"
"ขาย","1","3","7.973664026239103E-5"
"dausen","1","6","7.998643234156546E-5"
"base","1","4","8.064236188442347E-5"
"dirty","1","5","7.389204495992405E-5"
"color","1","5","7.389204495992405E-5"
"nativenion","1","10","7.389204495992405E-5"
"luxery","1","6","7.389204495992405E-5"
"coolest","1","7","7.389204495992405E-5"
"juxtapose","1","9","7.389204495992405E-5"
"fray","1","4","6.592836992498062E-5"
"slim","1","4","6.414184447022437E-5"
"unuion","1","6","5.789170277530716E-5"
"ito","1","3","5.669079901294417E-5"
"furniture","1","9","5.839502793716725E-5"
"headphones","1","10","5.852388334092211E-5"
"ほどく","1","3","5.983618913077947E-5"
"speackers","1","9","5.662427324827988E-5"
"allinurl","1","8","5.616129133242439E-5"
"unoin","1","5","8.542618764144571E-5"
"fist","1","4","5.616129133242439E-5"
"frontend","1","8","5.616129133242439E-5"
"skin","1","4","5.616129133242439E-5"
"genuine","1","7","6.061707288590789E-5"
"union官网","1","7","6.071803637123667E-5"
"jummp","1","5","6.217421414950022E-5"
"mm01h","1","5","6.369454343429387E-5"
"union充電線","1","8","6.369454343429387E-5"
"backpack","1","8","6.414184447022437E-5"
"unikon","1","6","6.217421414950022E-5"
"sewitch","1","7","6.217421414950022E-5"
"香港native","1","8","6.071803637123667E-5"
"speaker　","1","8","6.151656272423234E-5"
"swich","1","5","6.151656272423234E-5"
"ケース","1","3","6.205847106935581E-5"
"iphoen","1","6","8.064236188442347E-5"
"lighting","1","8","0.0001436993527452601"
"twin","1","4","0.0002023362948729836"
"mm04i","1","5","0.0002023362948729836"
"daisy","1","5","0.000207176500226823"
"cheap","1","5","0.000207176500226823"
"ball","1","4","0.0001991914172589579"
"windows","1","7","0.0001959078958712286"
"tumor","1","5","0.0001869810231121239"
"horn","1","4","0.0001913939948082182"
"owners","1","6","0.0001958890713125582"
"7","1","1","0.0001959078958712286"
"original","1","8","0.000207176500226823"
"my","1","2","0.000207176500226823"
"mesa","1","4","0.0002087004548202737"
"suporte","1","7","0.0002087004548202737"
"natiuve","1","7","0.0002164707141972401"
"invership","1","9","0.0002227714659682845"
"para","1","4","0.0002087004548202737"
"telefone","1","8","0.0002087004548202737"
"anleitung","1","9","0.0002077126740915738"
"lautsprecher","1","12","0.0002077126740915738"
"monofone","1","8","0.0002087004548202737"
"celular","1","7","0.0002087004548202737"
"gums","1","4","0.0001869810231121239"
"designed","1","8","0.0001868236248410155"
"natuive","1","7","0.0001715412420755344"
"iphojne","1","7","0.0001715412420755344"
"retrophone","1","10","0.0001715412420755344"
"exchange","1","8","0.0001715412420755344"
"omnes","1","5","0.00016965013200134"
"regular","1","7","0.00016965013200134"
"why","1","3","0.0001636916168172642"
"logo","1","4","0.0001643673105015991"
"bateria","1","7","0.0001657286522746401"
"encender","1","8","0.0001657286522746401"
"handsetr","1","8","0.0001740384592744874"
"individual","1","10","0.0001780485213609873"
"caixa","1","5","0.0001815667744481969"
"50","1","2","0.0001815667744481969"
"pôwer","1","5","0.0001863523136159788"
"enabled","1","7","0.0001868236248410155"
"ntive","1","5","0.0001812085478347955"
"update","1","6","0.0001812085478347955"
"limted","1","6","0.0001812085478347955"
"kitty","1","5","0.0001812085478347955"
"hello","1","5","0.0001812085478347955"
"instructions","1","12","0.0001812085478347955"
"сфиду","1","5","0.0002250242003401932"
"огьз","1","4","0.0002250242003401932"
"telephones","1","10","0.0004433522697595444"
"wholesalers","1","11","0.0004542105260465749"
"bank","1","4","0.0004815390984454486"
"new","1","3","0.0004838541713065409"
"chord","1","5","0.0004185204638065307"
"distributor","1","11","0.0003821672606057633"
"year","1","4","0.0003564467166436364"
"weeks","1","5","0.0003564467166436364"
"many","1","4","0.0003564467166436364"
"connection","1","10","0.0003765212163023503"
"jcable","1","6","0.000497957953923791"
"apps","1","4","0.0005125571258486743"
"natvie","1","6","0.0006540403851025827"
"max","1","3","0.000669965689513528"
"zedo","1","4","0.000669965689513528"
"driver","1","6","0.0007298020997325053"
"iphone6","1","7","0.0006067614802453728"
"360","1","3","0.0005838392293285534"
"working","1","7","0.0005447642082559774"
"2014","1","4","0.0005491924727660612"
"natibve","1","7","0.000557885594286789"
"system","1","6","0.0005581986506749957"
"salt","1","4","0.0003314573045492803"
"pepper","1","6","0.0003314573045492803"
"featured","1","8","0.0002628861356127988"
"greenline","1","9","0.0002670519308185949"
"griper","1","6","0.0002670519308185949"
"gimp","1","4","0.000276050667553755"
"rozetka","1","7","0.0002501518843615996"
"円","1","1","0.0002374428100901973"
"splitter","1","8","0.0002269939599529645"
"interior","1","8","0.0002334058800038766"
"clear","1","5","0.0002334058800038766"
"speakler","1","8","0.0002353531901003847"
"first","1","5","0.0002762279868142564"
"jade","1","4","0.0002763952415973003"
"music","1","5","0.0003128321571357917"
"active","1","6","0.0003128321571357917"
"polka","1","5","0.0003276561429631784"
"shaker","1","6","0.0003314573045492803"
"player","1","6","0.0003128321571357917"
"usar","1","4","0.0003128321571357917"
"ireland","1","7","0.0002807510139774995"
"sleeve","1","6","0.0002893062345132566"
"skype","1","5","0.0003085002167026584"
"quality","1","7","0.0001636916168172642"
"better","1","6","0.0001636916168172642"
"crafted","1","7","9.216712508880516E-5"
"mint","1","4","9.336686005953677E-5"
"mm041","1","5","9.336686005953677E-5"
"style","1","5","9.751660433309914E-5"
"jobs","1","4","9.165369497941091E-5"
"nativeuniom","1","11","9.153207879434352E-5"
"uninon","1","6","9.153207879434352E-5"
"coupon","1","6","9.153207879434352E-5"
"dallas","1","6","9.153207879434352E-5"
"good","1","4","9.153207879434352E-5"
"reinforced","1","10","0.0001043569925182147"
"tech","1","4","0.0001043569925182147"
"legno","1","5","0.0001105886050124259"
"hero","1","4","0.0001117682824749944"
"onetouch","1","8","0.0001117682824749944"
"alcatel","1","7","0.0001117682824749944"
"adapters","1","8","0.0001102963253919363"
"gearpatrol","1","10","0.0001101376014385501"
"into","1","4","0.0001048479123365215"
"gloss","1","5","0.0001068762071994431"
"high","1","4","0.0001068762071994431"
"wwod","1","4","0.0001097517138839198"
"mative","1","6","9.153207879434352E-5"
"computer","1","8","9.153207879434352E-5"
"state","1","5","9.079403470932957E-5"
"woodem","1","6","9.079403470932957E-5"
"names","1","5","9.079403470932957E-5"
"stainless","1","9","9.079403470932957E-5"
"using","1","5","9.079403470932957E-5"
"moshimoshi03","1","12","9.079403470932957E-5"
"igor","1","4","8.900611503092749E-5"
"appairage","1","9","8.900611503092749E-5"
"unionm","1","6","9.079403470932957E-5"
"hue","1","3","9.079403470932957E-5"
"organic","1","7","9.079403470932957E-5"
"mm1","1","3","9.079403470932957E-5"
"netflix","1","7","9.153207879434352E-5"
"movies","1","6","9.153207879434352E-5"
"christmas","1","9","9.153207879434352E-5"
"ntaive","1","6","9.153207879434352E-5"
"uniion","1","6","9.153207879434352E-5"
"uniopn","1","6","9.153207879434352E-5"
"nativeuinion","1","12","9.153207879434352E-5"
"speker","1","6","9.153207879434352E-5"
"s5","1","2","9.153207879434352E-5"
"through","1","7","0.0001133168368053504"
"pass","1","4","0.0001133168368053504"
"take","1","4","0.0001483763276592026"
"nativce","1","7","0.0001484057923455667"
"facebook","1","8","0.0001506493140098483"
"スピーカ","1","4","0.0001557628760863663"
"deal","1","4","0.0001472470730265237"
"hollywood","1","9","0.0001472470730265237"
"paris","1","5","0.0001433047726880752"
"short","1","5","0.0001436993527452601"
"coral","1","5","0.0001436993527452601"
"bnative","1","7","0.0001436993527452601"
"アンドロイド","1","6","0.0001557628760863663"
"native　union","1","12","0.0001557628760863663"
"csae","1","4","0.0001636916168172642"
"reviews","1","7","0.0001636916168172642"
"tight","1","5","0.0001636916168172642"
"than","1","4","0.0001636916168172642"
"bluelounge","1","10","0.0001567314584516529"
"cabledrop","1","9","0.0001567314584516529"
"ｕｎｉｏｎ","1","5","0.0001557628760863663"
"ｎａｔｉｖｅ","1","6","0.0001557628760863663"
"purpose","1","7","0.0001567314584516529"
"multi","1","5","0.0001567314584516529"
"ltd","1","3","0.0001425843399518508"
"from","1","4","0.0001410172310334147"
"desktop","1","7","0.0001279931076501348"
"guide","1","5","0.0001279931076501348"
"specifications","1","14","0.0001283306126480937"
"griposter","1","9","0.0001309195646757349"
"personal","1","8","0.0001268289530935784"
"natve","1","5","0.0001207251917236359"
"think","1","5","0.0001133168368053504"
"von","1","3","0.0001143998037167194"
"smartphone","1","10","0.0001154072533968795"
"fashioned","1","9","0.0001154072533968795"
"étui","1","4","0.0001309529144150905"
"problems","1","8","0.0001309834588217796"
"jumcable","1","8","0.0001353747363095715"
"stereo","1","6","0.0001356360536741922"
"ลำโพง","1","5","0.0001356360536741922"
"travel","1","6","0.0001393884543806978"
"solution","1","8","0.0001353747363095715"
"brazil","1","6","0.0001353747363095715"
"jjump","1","5","0.0001326553883863711"
"boiron","1","6","0.0001332391249965953"
"vergers","1","7","0.0001332391249965953"
"vector","1","6","8.77520933822816E-5"
